digraph {
    90843 [idx="95780",label="cast\n[line: 760]",source_file="DfsPackFile.java",method_name="<org.eclipse.jgit.internal.storage.dfs.DfsPackFile: org.eclipse.jgit.lib.ObjectLoader load(org.eclipse.jgit.internal.storage.dfs.DfsReader,long)>",type="block",start_column="-1",end_column="-1",class_name="org.eclipse.jgit.internal.storage.dfs.DfsPackFile",extra="Block 14:\n[preds: 13 ] [succs: 15 ]\nl47 = (long) $s3;\n",package_name="org.eclipse.jgit.internal.storage.dfs",start_line="760",end_line="760"];
    90853 [idx="95769",label="array index\n[line: 764]",method_name="<org.eclipse.jgit.internal.storage.dfs.DfsPackFile: org.eclipse.jgit.lib.ObjectLoader load(org.eclipse.jgit.internal.storage.dfs.DfsReader,long)>",type="block",start_column="-1",end_line="764",extra="Block 21:\n[preds: 20 ] [succs: 22 ]\n$b42 = r36[$i40];\n",package_name="org.eclipse.jgit.internal.storage.dfs",end_column="-1",class_name="org.eclipse.jgit.internal.storage.dfs.DfsPackFile",source_file="DfsPackFile.java",start_line="764"];
    90848 [idx="95772",label="==\n[line: 763]",class_name="org.eclipse.jgit.internal.storage.dfs.DfsPackFile",start_line="763",end_column="-1",extra="Block 18:\n[preds: 17 ] [succs: 19 29 ]\nif $s2 == 0 goto (branch);\n",package_name="org.eclipse.jgit.internal.storage.dfs",source_file="DfsPackFile.java",method_name="<org.eclipse.jgit.internal.storage.dfs.DfsPackFile: org.eclipse.jgit.lib.ObjectLoader load(org.eclipse.jgit.internal.storage.dfs.DfsReader,long)>",type="control",start_column="-1",end_line="763"];
    90860 [idx="95760",label="+\n[line: 765]",package_name="org.eclipse.jgit.internal.storage.dfs",class_name="org.eclipse.jgit.internal.storage.dfs.DfsPackFile",start_column="-1",extra="Block 26:\n[preds: 25 ] [succs: 27 ]\nl47 = l47 + $l38;\n",method_name="<org.eclipse.jgit.internal.storage.dfs.DfsPackFile: org.eclipse.jgit.lib.ObjectLoader load(org.eclipse.jgit.internal.storage.dfs.DfsReader,long)>",type="block",start_line="765",end_line="765",end_column="-1",source_file="DfsPackFile.java"];
    90836 [idx="95787",label="const '255'\n[line: 758]",method_name="<org.eclipse.jgit.internal.storage.dfs.DfsPackFile: org.eclipse.jgit.lib.ObjectLoader load(org.eclipse.jgit.internal.storage.dfs.DfsReader,long)>",start_line="758",end_line="758",end_column="-1",class_name="org.eclipse.jgit.internal.storage.dfs.DfsPackFile",type="int",start_column="-1",extra="255",package_name="org.eclipse.jgit.internal.storage.dfs",source_file="DfsPackFile.java"];
    90835 [idx="95788",label="&\n[line: 758]",extra="Block 10:\n[preds: 9 ] [succs: 11 ]\ns45 = $b1 & 255;\n",package_name="org.eclipse.jgit.internal.storage.dfs",class_name="org.eclipse.jgit.internal.storage.dfs.DfsPackFile",source_file="DfsPackFile.java",method_name="<org.eclipse.jgit.internal.storage.dfs.DfsPackFile: org.eclipse.jgit.lib.ObjectLoader load(org.eclipse.jgit.internal.storage.dfs.DfsReader,long)>",type="block",start_line="758",start_column="-1",end_line="758",end_column="-1"];
    90841 [idx="95782",label="&\n[line: 760]",end_column="-1",extra="Block 13:\n[preds: 12 ] [succs: 14 ]\n$s3 = s45 & 15;\n",package_name="org.eclipse.jgit.internal.storage.dfs",class_name="org.eclipse.jgit.internal.storage.dfs.DfsPackFile",method_name="<org.eclipse.jgit.internal.storage.dfs.DfsPackFile: org.eclipse.jgit.lib.ObjectLoader load(org.eclipse.jgit.internal.storage.dfs.DfsReader,long)>",start_line="760",source_file="DfsPackFile.java",type="block",start_column="-1",end_line="760"];
    90842 [idx="95781",label="const '15'\n[line: 760]",extra="15",class_name="org.eclipse.jgit.internal.storage.dfs.DfsPackFile",method_name="<org.eclipse.jgit.internal.storage.dfs.DfsPackFile: org.eclipse.jgit.lib.ObjectLoader load(org.eclipse.jgit.internal.storage.dfs.DfsReader,long)>",type="int",start_column="-1",end_column="-1",start_line="760",end_line="760",package_name="org.eclipse.jgit.internal.storage.dfs",source_file="DfsPackFile.java"];
    90859 [idx="95767",label="<<\n[line: 765]",extra="Block 25:\n[preds: 24 ] [succs: 26 ]\n$l38 = $l39 << i48;\n",package_name="org.eclipse.jgit.internal.storage.dfs",class_name="org.eclipse.jgit.internal.storage.dfs.DfsPackFile",source_file="DfsPackFile.java",start_line="765",end_line="765",start_column="-1",end_column="-1",method_name="<org.eclipse.jgit.internal.storage.dfs.DfsPackFile: org.eclipse.jgit.lib.ObjectLoader load(org.eclipse.jgit.internal.storage.dfs.DfsReader,long)>",type="block"];
    90848 -> 90853 [label=""];
    90848 -> 90860 [label=""];
    90836 -> 90835 [label="int:2"];
    90842 -> 90841 [label="int:2"];
    90859 -> 90860 [label="long:2"];
    90843 -> 90860 [label="long:1"];
    90835 -> 90841 [label="short:1"];
    90841 -> 90843 [label="short:1"];
}

