digraph {
    36572 [idx="34596",label="cast\n[line: 663]",package_name="org.eclipse.jgit.transport",method_name="<org.eclipse.jgit.transport.Transport: java.util.Collection expandPushWildcardsFor(org.eclipse.jgit.lib.Repository,java.util.Collection)>",start_column="-1",end_line="663",extra="Block 19:\n[preds: 18 ] [succs: 20 ]\nr7 = (org.eclipse.jgit.lib.Ref) $r12;\n",class_name="org.eclipse.jgit.transport.Transport",source_file="Transport.java",type="block",start_line="663",end_column="-1"];
    36575 [idx="34599",label="const '0'\n[line: 657]",type="int",end_column="-1",extra="0",package_name="org.eclipse.jgit.transport",source_file="Transport.java",start_column="-1",end_line="657",class_name="org.eclipse.jgit.transport.Transport",method_name="<org.eclipse.jgit.transport.Transport: java.util.Collection expandPushWildcardsFor(org.eclipse.jgit.lib.Repository,java.util.Collection)>",start_line="657"];
    36570 [idx="34594",label="const '0'\n[line: 656]",extra="0",type="int",end_column="-1",end_line="656",package_name="org.eclipse.jgit.transport",class_name="org.eclipse.jgit.transport.Transport",source_file="Transport.java",method_name="<org.eclipse.jgit.transport.Transport: java.util.Collection expandPushWildcardsFor(org.eclipse.jgit.lib.Repository,java.util.Collection)>",start_line="656",start_column="-1"];
    36574 [idx="34598",label="==\n[line: 657]",extra="Block 21:\n[preds: 20 ] [succs: 22 24 ]\nif $z4 == 0 goto (branch);\n",package_name="org.eclipse.jgit.transport",class_name="org.eclipse.jgit.transport.Transport",source_file="Transport.java",type="control",start_line="657",end_column="-1",method_name="<org.eclipse.jgit.transport.Transport: java.util.Collection expandPushWildcardsFor(org.eclipse.jgit.lib.Repository,java.util.Collection)>",start_column="-1",end_line="657"];
    36569 [idx="34593",label="==\n[line: 656]",end_column="-1",extra="Block 17:\n[preds: 16 ] [succs: 18 25 ]\nif $z3 == 0 goto (branch);\n",package_name="org.eclipse.jgit.transport",class_name="org.eclipse.jgit.transport.Transport",source_file="Transport.java",end_line="656",method_name="<org.eclipse.jgit.transport.Transport: java.util.Collection expandPushWildcardsFor(org.eclipse.jgit.lib.Repository,java.util.Collection)>",type="control",start_line="656",start_column="-1"];
    36571 [idx="34595",label="call java.util.Iterator.next\n[line: 663]",start_column="-1",end_column="-1",extra="Block 18:\n[preds: 17 ] [succs: 19 ]\n$r12 = interfaceinvoke r6.<java.util.Iterator: java.lang.Object next()>();\n",source_file="Transport.java",package_name="org.eclipse.jgit.transport",class_name="org.eclipse.jgit.transport.Transport",method_name="<org.eclipse.jgit.transport.Transport: java.util.Collection expandPushWildcardsFor(org.eclipse.jgit.lib.Repository,java.util.Collection)>",type="call",start_line="663",end_line="663"];
    36568 [idx="34592",label="call java.util.Iterator.hasNext\n[line: 656]",start_line="656",start_column="-1",end_line="656",package_name="org.eclipse.jgit.transport",class_name="org.eclipse.jgit.transport.Transport",source_file="Transport.java",method_name="<org.eclipse.jgit.transport.Transport: java.util.Collection expandPushWildcardsFor(org.eclipse.jgit.lib.Repository,java.util.Collection)>",type="call",end_column="-1",extra="Block 16:\n[preds: 15 24 ] [succs: 17 ]\n$z3 = interfaceinvoke r6.<java.util.Iterator: boolean hasNext()>();\n"];
    36567 [idx="34607",label="call java.util.Collection.iterator\n[line: 656]",method_name="<org.eclipse.jgit.transport.Transport: java.util.Collection expandPushWildcardsFor(org.eclipse.jgit.lib.Repository,java.util.Collection)>",start_line="656",start_column="-1",end_line="656",end_column="-1",class_name="org.eclipse.jgit.transport.Transport",package_name="org.eclipse.jgit.transport",source_file="Transport.java",type="call",extra="Block 15:\n[preds: 14 ] [succs: 16 ]\nr6 = interfaceinvoke $r11.<java.util.Collection: java.util.Iterator iterator()>();\n"];
    36573 [idx="34597",label="call org.eclipse.jgit.transport.RefSpec.matchSource\n[line: 657]",class_name="org.eclipse.jgit.transport.Transport",source_file="Transport.java",start_line="657",start_column="-1",end_line="657",end_column="-1",package_name="org.eclipse.jgit.transport",method_name="<org.eclipse.jgit.transport.Transport: java.util.Collection expandPushWildcardsFor(org.eclipse.jgit.lib.Repository,java.util.Collection)>",type="call",extra="Block 20:\n[preds: 19 ] [succs: 21 ]\n$z4 = virtualinvoke r5.<org.eclipse.jgit.transport.RefSpec: boolean matchSource(org.eclipse.jgit.lib.Ref)>(r7);\n"];
    36569 -> 36572 [label=""];
    36569 -> 36574 [label=""];
    36569 -> 36571 [label=""];
    36568 -> 36569 [label="boolean:0"];
    36573 -> 36574 [label="boolean:0"];
    36575 -> 36574 [label="int:1"];
    36570 -> 36569 [label="int:1"];
    36567 -> 36568 [label="java.util.Iterator:1"];
    36571 -> 36572 [label="java.lang.Object:1"];
}

