digraph {
    56520 [idx="53424",label="return\n[line: 312]",start_line="312",start_column="-1",end_line="312",package_name="org.eclipse.jgit.api",class_name="org.eclipse.jgit.api.PullCommand",type="block",end_column="-1",extra="Block 226:\n[preds: 225 ] [succs: ]\nreturn r133;\n",source_file="PullCommand.java",method_name="<org.eclipse.jgit.api.PullCommand: org.eclipse.jgit.api.PullResult call()>"];
    56460 [idx="53488",label="new\n[line: 283]",source_file="PullCommand.java",start_line="283",end_line="283",start_column="-1",end_column="-1",extra="Block 169:\n[preds: 168 ] [succs: 170 ]\n$r43 = new org.eclipse.jgit.api.errors.RefNotFoundException;\n",package_name="org.eclipse.jgit.api",class_name="org.eclipse.jgit.api.PullCommand",method_name="<org.eclipse.jgit.api.PullCommand: org.eclipse.jgit.api.PullResult call()>",type="block"];
    56470 [idx="53483",label="throw\n[line: 283]",start_line="283",start_column="-1",end_line="283",method_name="<org.eclipse.jgit.api.PullCommand: org.eclipse.jgit.api.PullResult call()>",type="block",end_column="-1",extra="Block 177:\n[preds: 176 ] [succs: ]\nthrow $r43;\n",package_name="org.eclipse.jgit.api",class_name="org.eclipse.jgit.api.PullCommand",source_file="PullCommand.java"];
    56458 [idx="53494",label="!=\n[line: 282]",package_name="org.eclipse.jgit.api",class_name="org.eclipse.jgit.api.PullCommand",type="control",start_column="-1",end_line="282",end_column="-1",extra="Block 168:\n[preds: 167 ] [succs: 169 178 ]\nif r128 != null goto (branch);\n",method_name="<org.eclipse.jgit.api.PullCommand: org.eclipse.jgit.api.PullResult call()>",start_line="282",source_file="PullCommand.java"];
    56468 [idx="53481",label="call java.text.MessageFormat.format\n[line: 283]",method_name="<org.eclipse.jgit.api.PullCommand: org.eclipse.jgit.api.PullResult call()>",start_line="283",end_line="283",end_column="-1",class_name="org.eclipse.jgit.api.PullCommand",source_file="PullCommand.java",type="call",start_column="-1",extra="Block 175:\n[preds: 174 ] [succs: 176 ]\n$r54 = staticinvoke <java.text.MessageFormat: java.lang.String format(java.lang.String,java.lang.Object[])>($r53, $r51);\n",package_name="org.eclipse.jgit.api"];
    56457 [idx="53493",label="call org.eclipse.jgit.lib.Repository.resolve\n[line: 281]",source_file="PullCommand.java",method_name="<org.eclipse.jgit.api.PullCommand: org.eclipse.jgit.api.PullResult call()>",type="call",start_line="281",start_column="-1",end_column="-1",extra="Block 167:\n[preds: 166 ] [succs: 168 ]\nr128 = virtualinvoke $r22.<org.eclipse.jgit.lib.Repository: org.eclipse.jgit.lib.ObjectId resolve(java.lang.String)>($r21);\n",package_name="org.eclipse.jgit.api",class_name="org.eclipse.jgit.api.PullCommand",end_line="281"];
    56455 [idx="53499",label="org.eclipse.jgit.api.GitCommand.repo\n[line: 281]",package_name="org.eclipse.jgit.api",class_name="org.eclipse.jgit.api.PullCommand",method_name="<org.eclipse.jgit.api.PullCommand: org.eclipse.jgit.api.PullResult call()>",end_line="281",end_column="-1",extra="Block 165:\n[preds: 140 ] [succs: 166 ]\n$r22 = r0.<org.eclipse.jgit.api.PullCommand: org.eclipse.jgit.lib.Repository repo>;\n",source_file="PullCommand.java",type="block",start_line="281",start_column="-1"];
    56462 [idx="53490",label="org.eclipse.jgit.internal.JGitText.refNotResolved\n[line: 283]",package_name="org.eclipse.jgit.api",source_file="PullCommand.java",type="block",start_line="283",end_line="283",extra="Block 171:\n[preds: 170 ] [succs: 172 ]\n$r53 = $r44.<org.eclipse.jgit.internal.JGitText: java.lang.String refNotResolved>;\n",class_name="org.eclipse.jgit.api.PullCommand",method_name="<org.eclipse.jgit.api.PullCommand: org.eclipse.jgit.api.PullResult call()>",start_column="-1",end_column="-1"];
    56469 [idx="53480",label="call org.eclipse.jgit.api.errors.RefNotFoundException.<init>\n[line: 283]",package_name="org.eclipse.jgit.api",start_line="283",end_line="283",extra="Block 176:\n[preds: 175 ] [succs: 177 ]\nspecialinvoke $r43.<org.eclipse.jgit.api.errors.RefNotFoundException: void <init>(java.lang.String)>($r54);\n",class_name="org.eclipse.jgit.api.PullCommand",source_file="PullCommand.java",method_name="<org.eclipse.jgit.api.PullCommand: org.eclipse.jgit.api.PullResult call()>",type="call",start_column="-1",end_column="-1"];
    56458 -> 56520 [label=""];
    56458 -> 56470 [label=""];
    56458 -> 56469 [label=""];
    56457 -> 56458 [label="org.eclipse.jgit.lib.ObjectId:0"];
    56460 -> 56469 [label="org.eclipse.jgit.api.errors.RefNotFoundException:1"];
    56455 -> 56457 [label="org.eclipse.jgit.lib.Repository:2"];
    56468 -> 56469 [label="java.lang.String:0"];
    56462 -> 56468 [label="java.lang.String:1"];
}

