digraph {
    109267 [idx="111408",label="new\n[line: 478]",start_line="478",start_column="-1",end_line="478",end_column="-1",package_name="org.eclipse.jgit.internal.storage.file",type="block",extra="Block 166:\n[preds: 165 ] [succs: 167 ]\n$r40 = new org.eclipse.jgit.errors.CorruptObjectException;\n",class_name="org.eclipse.jgit.internal.storage.file.PackFile",source_file="PackFile.java",method_name="<org.eclipse.jgit.internal.storage.file.PackFile: void copyAsIs2(org.eclipse.jgit.internal.storage.pack.PackOutputStream,org.eclipse.jgit.internal.storage.file.LocalObjectToPack,boolean,org.eclipse.jgit.internal.storage.file.WindowCursor)>"];
    109275 [idx="111416",label="const '0'\n[line: 478]",extra="0",method_name="<org.eclipse.jgit.internal.storage.file.PackFile: void copyAsIs2(org.eclipse.jgit.internal.storage.pack.PackOutputStream,org.eclipse.jgit.internal.storage.file.LocalObjectToPack,boolean,org.eclipse.jgit.internal.storage.file.WindowCursor)>",type="int",start_line="478",start_column="-1",end_line="478",package_name="org.eclipse.jgit.internal.storage.file",class_name="org.eclipse.jgit.internal.storage.file.PackFile",source_file="PackFile.java",end_column="-1"];
    109271 [idx="111412",label="const '2'\n[line: 478]",extra="2",package_name="org.eclipse.jgit.internal.storage.file",source_file="PackFile.java",start_line="478",end_line="478",end_column="-1",class_name="org.eclipse.jgit.internal.storage.file.PackFile",method_name="<org.eclipse.jgit.internal.storage.file.PackFile: void copyAsIs2(org.eclipse.jgit.internal.storage.pack.PackOutputStream,org.eclipse.jgit.internal.storage.file.LocalObjectToPack,boolean,org.eclipse.jgit.internal.storage.file.WindowCursor)>",type="int",start_column="-1"];
    109274 [idx="111417",label="array index\n[line: 478]",end_column="-1",package_name="org.eclipse.jgit.internal.storage.file",class_name="org.eclipse.jgit.internal.storage.file.PackFile",source_file="PackFile.java",type="block",start_line="478",start_column="-1",extra="Block 172:\n[preds: 171 ] [succs: 173 ]\n$r41[0] = $r43;\n",method_name="<org.eclipse.jgit.internal.storage.file.PackFile: void copyAsIs2(org.eclipse.jgit.internal.storage.pack.PackOutputStream,org.eclipse.jgit.internal.storage.file.LocalObjectToPack,boolean,org.eclipse.jgit.internal.storage.file.WindowCursor)>",end_line="478"];
    109270 [idx="111413",label="new-array\n[line: 478]",end_line="478",extra="Block 169:\n[preds: 168 ] [succs: 170 ]\n$r41 = newarray (java.lang.Object)[2];\n",class_name="org.eclipse.jgit.internal.storage.file.PackFile",method_name="<org.eclipse.jgit.internal.storage.file.PackFile: void copyAsIs2(org.eclipse.jgit.internal.storage.pack.PackOutputStream,org.eclipse.jgit.internal.storage.file.LocalObjectToPack,boolean,org.eclipse.jgit.internal.storage.file.WindowCursor)>",type="block",start_line="478",start_column="-1",end_column="-1",package_name="org.eclipse.jgit.internal.storage.file",source_file="PackFile.java"];
    109278 [idx="111421",label="call java.text.MessageFormat.format\n[line: 478]",package_name="org.eclipse.jgit.internal.storage.file",class_name="org.eclipse.jgit.internal.storage.file.PackFile",method_name="<org.eclipse.jgit.internal.storage.file.PackFile: void copyAsIs2(org.eclipse.jgit.internal.storage.pack.PackOutputStream,org.eclipse.jgit.internal.storage.file.LocalObjectToPack,boolean,org.eclipse.jgit.internal.storage.file.WindowCursor)>",type="call",start_line="478",start_column="-1",end_line="478",end_column="-1",extra="Block 175:\n[preds: 174 ] [succs: 176 ]\n$r31 = staticinvoke <java.text.MessageFormat: java.lang.String format(java.lang.String,java.lang.Object[])>($r42, $r41);\n",source_file="PackFile.java"];
    109273 [idx="111418",label="call java.lang.Long.valueOf\n[line: 478]",source_file="PackFile.java",type="call",start_column="-1",end_column="-1",extra="Block 171:\n[preds: 170 ] [succs: 172 ]\n$r43 = staticinvoke <java.lang.Long: java.lang.Long valueOf(long)>($l67);\n",package_name="org.eclipse.jgit.internal.storage.file",class_name="org.eclipse.jgit.internal.storage.file.PackFile",method_name="<org.eclipse.jgit.internal.storage.file.PackFile: void copyAsIs2(org.eclipse.jgit.internal.storage.pack.PackOutputStream,org.eclipse.jgit.internal.storage.file.LocalObjectToPack,boolean,org.eclipse.jgit.internal.storage.file.WindowCursor)>",start_line="478",end_line="478"];
    109279 [idx="111420",label="call org.eclipse.jgit.errors.CorruptObjectException.<init>\n[line: 478]",extra="Block 176:\n[preds: 175 ] [succs: 177 ]\nspecialinvoke $r40.<org.eclipse.jgit.errors.CorruptObjectException: void <init>(java.lang.String)>($r31);\n",package_name="org.eclipse.jgit.internal.storage.file",source_file="PackFile.java",type="call",method_name="<org.eclipse.jgit.internal.storage.file.PackFile: void copyAsIs2(org.eclipse.jgit.internal.storage.pack.PackOutputStream,org.eclipse.jgit.internal.storage.file.LocalObjectToPack,boolean,org.eclipse.jgit.internal.storage.file.WindowCursor)>",start_line="478",start_column="-1",end_line="478",end_column="-1",class_name="org.eclipse.jgit.internal.storage.file.PackFile"];
    109276 [idx="111423",label="call org.eclipse.jgit.internal.storage.file.PackFile.getPackFile\n[line: 478]",source_file="PackFile.java",method_name="<org.eclipse.jgit.internal.storage.file.PackFile: void copyAsIs2(org.eclipse.jgit.internal.storage.pack.PackOutputStream,org.eclipse.jgit.internal.storage.file.LocalObjectToPack,boolean,org.eclipse.jgit.internal.storage.file.WindowCursor)>",start_line="478",start_column="-1",end_line="478",end_column="-1",extra="Block 173:\n[preds: 172 ] [succs: 174 ]\n$r32 = virtualinvoke r0.<org.eclipse.jgit.internal.storage.file.PackFile: java.io.File getPackFile()>();\n",package_name="org.eclipse.jgit.internal.storage.file",class_name="org.eclipse.jgit.internal.storage.file.PackFile",type="call"];
    109273 -> 109274 [label="java.lang.Long:2"];
    109275 -> 109274 [label="int:1"];
    109271 -> 109270 [label="int:1"];
    109276 -> 109274 [label="java.io.File:2"];
    109267 -> 109279 [label="org.eclipse.jgit.errors.CorruptObjectException:1"];
    109270 -> 109274 [label="java.lang.Object[]:0"];
    109270 -> 109278 [label="java.lang.Object[]:2"];
    109278 -> 109279 [label="java.lang.String:0"];
}

