digraph {
    86986 [idx="83013",label="const '0'"];
    86988 [idx="83011",label="const '1'"];
    86992 [idx="83038",label="const '3'"];
    86983 [idx="83016",label="new-array"];
    86991 [idx="83008",label="array indexconst '51'"];
    86985 [idx="83014",label="array indexconst '48'"];
    86987 [idx="83012",label="array indexconst '49'"];
    86997 [idx="83035",label="array indexconst '54'"];
    86998 [idx="83032",label="const '6'"];
    86992 -> 86991 [label="int:1"];
    86986 -> 86985 [label="int:1"];
    86988 -> 86987 [label="int:1"];
    86998 -> 86997 [label="int:1"];
    86983 -> 86991 [label="byte[]:0"];
    86983 -> 86985 [label="byte[]:0"];
    86983 -> 86987 [label="byte[]:0"];
    86983 -> 86997 [label="byte[]:0"];
}

