digraph {
    23257 [idx="24516",label="cast\n[line: 228]",extra="Block 80:\n[preds: 79 ] [succs: 81 ]\n$r22 = (java.lang.String) $r25;\n",class_name="org.eclipse.jgit.transport.BundleWriter",source_file="BundleWriter.java",start_column="-1",end_line="228",end_column="-1",package_name="org.eclipse.jgit.transport",method_name="<org.eclipse.jgit.transport.BundleWriter: void writeBundle(org.eclipse.jgit.lib.ProgressMonitor,java.io.OutputStream)>",type="block",start_line="228"];
    23250 [idx="24527",label="cast\n[line: 238]",class_name="org.eclipse.jgit.transport.BundleWriter",source_file="BundleWriter.java",method_name="<org.eclipse.jgit.transport.BundleWriter: void writeBundle(org.eclipse.jgit.lib.ProgressMonitor,java.io.OutputStream)>",end_line="238",end_column="-1",extra="Block 74:\n[preds: 73 ] [succs: 75 ]\nr42 = (java.util.Map$Entry) $r20;\n",package_name="org.eclipse.jgit.transport",type="block",start_line="238",start_column="-1"];
    23247 [idx="24531",label="==\n[line: 225]",end_line="225",extra="Block 72:\n[preds: 71 ] [succs: 73 84 ]\nif $z3 == 0 goto virtualinvoke r37.<java.io.Writer: void write(int)>(10);\n",package_name="org.eclipse.jgit.transport",class_name="org.eclipse.jgit.transport.BundleWriter",source_file="BundleWriter.java",method_name="<org.eclipse.jgit.transport.BundleWriter: void writeBundle(org.eclipse.jgit.lib.ProgressMonitor,java.io.OutputStream)>",type="control",start_line="225",start_column="-1",end_column="-1"];
    23249 [idx="24524",label="call java.util.Iterator.next\n[line: 238]",source_file="BundleWriter.java",type="call",end_line="238",extra="Block 73:\n[preds: 72 ] [succs: 74 ]\n$r20 = interfaceinvoke r41.<java.util.Iterator: java.lang.Object next()>();\n",package_name="org.eclipse.jgit.transport",class_name="org.eclipse.jgit.transport.BundleWriter",method_name="<org.eclipse.jgit.transport.BundleWriter: void writeBundle(org.eclipse.jgit.lib.ProgressMonitor,java.io.OutputStream)>",start_line="238",start_column="-1",end_column="-1"];
    23246 [idx="24530",label="call java.util.Iterator.hasNext\n[line: 225]",class_name="org.eclipse.jgit.transport.BundleWriter",source_file="BundleWriter.java",type="call",start_line="225",end_column="-1",extra="Block 71:\n[preds: 70 83 ] [succs: 72 ]\n$z3 = interfaceinvoke r41.<java.util.Iterator: boolean hasNext()>();\n",package_name="org.eclipse.jgit.transport",method_name="<org.eclipse.jgit.transport.BundleWriter: void writeBundle(org.eclipse.jgit.lib.ProgressMonitor,java.io.OutputStream)>",start_column="-1",end_line="225"];
    23245 [idx="24529",label="call java.util.Set.iterator\n[line: 225]",extra="Block 70:\n[preds: 69 ] [succs: 71 ]\nr41 = interfaceinvoke $r18.<java.util.Set: java.util.Iterator iterator()>();\n",method_name="<org.eclipse.jgit.transport.BundleWriter: void writeBundle(org.eclipse.jgit.lib.ProgressMonitor,java.io.OutputStream)>",type="call",start_line="225",start_column="-1",end_line="225",end_column="-1",package_name="org.eclipse.jgit.transport",class_name="org.eclipse.jgit.transport.BundleWriter",source_file="BundleWriter.java"];
    23251 [idx="24526",label="call java.util.Map$Entry.getValue\n[line: 226]",package_name="org.eclipse.jgit.transport",method_name="<org.eclipse.jgit.transport.BundleWriter: void writeBundle(org.eclipse.jgit.lib.ProgressMonitor,java.io.OutputStream)>",end_line="226",end_column="-1",extra="Block 75:\n[preds: 74 ] [succs: 76 ]\n$r21 = interfaceinvoke r42.<java.util.Map$Entry: java.lang.Object getValue()>();\n",class_name="org.eclipse.jgit.transport.BundleWriter",source_file="BundleWriter.java",type="call",start_line="226",start_column="-1"];
    23256 [idx="24517",label="call java.util.Map$Entry.getKey\n[line: 228]",package_name="org.eclipse.jgit.transport",class_name="org.eclipse.jgit.transport.BundleWriter",start_column="-1",extra="Block 79:\n[preds: 78 ] [succs: 80 ]\n$r25 = interfaceinvoke r42.<java.util.Map$Entry: java.lang.Object getKey()>();\n",source_file="BundleWriter.java",method_name="<org.eclipse.jgit.transport.BundleWriter: void writeBundle(org.eclipse.jgit.lib.ProgressMonitor,java.io.OutputStream)>",type="call",start_line="228",end_line="228",end_column="-1"];
    23244 [idx="24528",label="call java.util.Map.entrySet\n[line: 225]",start_line="225",start_column="-1",extra="Block 69:\n[preds: 68 ] [succs: 70 ]\n$r18 = interfaceinvoke $r19.<java.util.Map: java.util.Set entrySet()>();\n",package_name="org.eclipse.jgit.transport",method_name="<org.eclipse.jgit.transport.BundleWriter: void writeBundle(org.eclipse.jgit.lib.ProgressMonitor,java.io.OutputStream)>",type="call",end_column="-1",class_name="org.eclipse.jgit.transport.BundleWriter",source_file="BundleWriter.java",end_line="225"];
    23247 -> 23246 [label=""];
    23247 -> 23251 [label=""];
    23247 -> 23256 [label=""];
    23244 -> 23245 [label="java.util.Set:1"];
    23250 -> 23256 [label="java.util.Map$Entry:1"];
    23245 -> 23249 [label="java.util.Iterator:1"];
    23245 -> 23246 [label="java.util.Iterator:1"];
    23249 -> 23250 [label="java.lang.Object:1"];
    23256 -> 23257 [label="java.lang.Object:1"];
}

