digraph {
    109714 [idx="111897",label="cast\n[line: 716]",source_file="PackFile.java",start_column="-1",end_line="716",end_column="-1",extra="Block 14:\n[preds: 13 ] [succs: 15 ]\nl44 = (long) $s3;\n",package_name="org.eclipse.jgit.internal.storage.file",class_name="org.eclipse.jgit.internal.storage.file.PackFile",method_name="<org.eclipse.jgit.internal.storage.file.PackFile: org.eclipse.jgit.lib.ObjectLoader load(org.eclipse.jgit.internal.storage.file.WindowCursor,long)>",type="block",start_line="716"];
    109724 [idx="111895",label="array index\n[line: 720]",source_file="PackFile.java",start_line="720",start_column="-1",end_line="720",extra="Block 21:\n[preds: 20 ] [succs: 22 ]\n$b38 = r33[$i39];\n",package_name="org.eclipse.jgit.internal.storage.file",class_name="org.eclipse.jgit.internal.storage.file.PackFile",method_name="<org.eclipse.jgit.internal.storage.file.PackFile: org.eclipse.jgit.lib.ObjectLoader load(org.eclipse.jgit.internal.storage.file.WindowCursor,long)>",type="block",end_column="-1"];
    109719 [idx="111900",label="==\n[line: 719]",package_name="org.eclipse.jgit.internal.storage.file",method_name="<org.eclipse.jgit.internal.storage.file.PackFile: org.eclipse.jgit.lib.ObjectLoader load(org.eclipse.jgit.internal.storage.file.WindowCursor,long)>",start_line="719",start_column="-1",end_column="-1",extra="Block 18:\n[preds: 17 ] [succs: 19 29 ]\nif $s2 == 0 goto (branch);\n",class_name="org.eclipse.jgit.internal.storage.file.PackFile",source_file="PackFile.java",type="control",end_line="719"];
    109731 [idx="111915",label="+\n[line: 721]",type="block",start_line="721",extra="Block 26:\n[preds: 25 ] [succs: 27 ]\nl44 = l44 + $l37;\n",source_file="PackFile.java",method_name="<org.eclipse.jgit.internal.storage.file.PackFile: org.eclipse.jgit.lib.ObjectLoader load(org.eclipse.jgit.internal.storage.file.WindowCursor,long)>",start_column="-1",end_line="721",end_column="-1",package_name="org.eclipse.jgit.internal.storage.file",class_name="org.eclipse.jgit.internal.storage.file.PackFile"];
    109707 [idx="111873",label="const '255'\n[line: 714]",source_file="PackFile.java",start_line="714",end_line="714",end_column="-1",extra="255",package_name="org.eclipse.jgit.internal.storage.file",class_name="org.eclipse.jgit.internal.storage.file.PackFile",method_name="<org.eclipse.jgit.internal.storage.file.PackFile: org.eclipse.jgit.lib.ObjectLoader load(org.eclipse.jgit.internal.storage.file.WindowCursor,long)>",type="int",start_column="-1"];
    109706 [idx="111872",label="&\n[line: 714]",type="block",start_line="714",extra="Block 10:\n[preds: 9 ] [succs: 11 ]\ns42 = $b1 & 255;\n",package_name="org.eclipse.jgit.internal.storage.file",class_name="org.eclipse.jgit.internal.storage.file.PackFile",source_file="PackFile.java",method_name="<org.eclipse.jgit.internal.storage.file.PackFile: org.eclipse.jgit.lib.ObjectLoader load(org.eclipse.jgit.internal.storage.file.WindowCursor,long)>",start_column="-1",end_line="714",end_column="-1"];
    109712 [idx="111899",label="&\n[line: 716]",extra="Block 13:\n[preds: 12 ] [succs: 14 ]\n$s3 = s42 & 15;\n",package_name="org.eclipse.jgit.internal.storage.file",source_file="PackFile.java",method_name="<org.eclipse.jgit.internal.storage.file.PackFile: org.eclipse.jgit.lib.ObjectLoader load(org.eclipse.jgit.internal.storage.file.WindowCursor,long)>",type="block",end_line="716",start_column="-1",end_column="-1",class_name="org.eclipse.jgit.internal.storage.file.PackFile",start_line="716"];
    109713 [idx="111898",label="const '15'\n[line: 716]",start_line="716",end_column="-1",class_name="org.eclipse.jgit.internal.storage.file.PackFile",method_name="<org.eclipse.jgit.internal.storage.file.PackFile: org.eclipse.jgit.lib.ObjectLoader load(org.eclipse.jgit.internal.storage.file.WindowCursor,long)>",extra="15",package_name="org.eclipse.jgit.internal.storage.file",source_file="PackFile.java",type="int",start_column="-1",end_line="716"];
    109730 [idx="111914",label="<<\n[line: 721]",end_line="721",end_column="-1",extra="Block 25:\n[preds: 24 ] [succs: 26 ]\n$l37 = $l35 << i45;\n",class_name="org.eclipse.jgit.internal.storage.file.PackFile",source_file="PackFile.java",method_name="<org.eclipse.jgit.internal.storage.file.PackFile: org.eclipse.jgit.lib.ObjectLoader load(org.eclipse.jgit.internal.storage.file.WindowCursor,long)>",start_line="721",package_name="org.eclipse.jgit.internal.storage.file",type="block",start_column="-1"];
    109719 -> 109724 [label=""];
    109719 -> 109731 [label=""];
    109707 -> 109706 [label="int:2"];
    109713 -> 109712 [label="int:2"];
    109730 -> 109731 [label="long:2"];
    109714 -> 109731 [label="long:1"];
    109706 -> 109712 [label="short:1"];
    109712 -> 109714 [label="short:1"];
}

