digraph {
    109784 [idx="111959",label="-\n[line: 754]",end_line="754",extra="Block 66:\n[preds: 55 ] [succs: 67 ]\nl52 = l40 - l49;\n",source_file="PackFile.java",method_name="<org.eclipse.jgit.internal.storage.file.PackFile: org.eclipse.jgit.lib.ObjectLoader load(org.eclipse.jgit.internal.storage.file.WindowCursor,long)>",type="block",start_line="754",end_column="-1",package_name="org.eclipse.jgit.internal.storage.file",class_name="org.eclipse.jgit.internal.storage.file.PackFile",start_column="-1"];
    109835 [idx="111770",label="call org.eclipse.jgit.internal.JGitText.get\n[line: 789]",source_file="PackFile.java",start_column="-1",end_column="-1",extra="Block 110:\n[preds: 109 ] [succs: 111 ]\n$r17 = staticinvoke <org.eclipse.jgit.internal.JGitText: org.eclipse.jgit.internal.JGitText get()>();\n",package_name="org.eclipse.jgit.internal.storage.file",class_name="org.eclipse.jgit.internal.storage.file.PackFile",method_name="<org.eclipse.jgit.internal.storage.file.PackFile: org.eclipse.jgit.lib.ObjectLoader load(org.eclipse.jgit.internal.storage.file.WindowCursor,long)>",type="call",start_line="789",end_line="789"];
    109761 [idx="111951",label="const '255'\n[line: 746]",extra="255",package_name="org.eclipse.jgit.internal.storage.file",source_file="PackFile.java",method_name="<org.eclipse.jgit.internal.storage.file.PackFile: org.eclipse.jgit.lib.ObjectLoader load(org.eclipse.jgit.internal.storage.file.WindowCursor,long)>",type="int",end_column="-1",start_line="746",start_column="-1",end_line="746",class_name="org.eclipse.jgit.internal.storage.file.PackFile"];
    109760 [idx="111950",label="&\n[line: 746]",source_file="PackFile.java",extra="Block 51:\n[preds: 50 ] [succs: 52 ]\ns48 = $b26 & 255;\n",package_name="org.eclipse.jgit.internal.storage.file",class_name="org.eclipse.jgit.internal.storage.file.PackFile",method_name="<org.eclipse.jgit.internal.storage.file.PackFile: org.eclipse.jgit.lib.ObjectLoader load(org.eclipse.jgit.internal.storage.file.WindowCursor,long)>",type="block",start_line="746",end_column="-1",start_column="-1",end_line="746"];
    109710 [idx="111876",label="&\n[line: 715]",method_name="<org.eclipse.jgit.internal.storage.file.PackFile: org.eclipse.jgit.lib.ObjectLoader load(org.eclipse.jgit.internal.storage.file.WindowCursor,long)>",type="block",start_column="-1",extra="Block 12:\n[preds: 11 ] [succs: 13 ]\ns43 = $s0 & 7;\n",start_line="715",end_line="715",end_column="-1",package_name="org.eclipse.jgit.internal.storage.file",class_name="org.eclipse.jgit.internal.storage.file.PackFile",source_file="PackFile.java"];
    109810 [idx="111999",label="call org.eclipse.jgit.lib.ObjectId.fromRaw\n[line: 772]",extra="Block 88:\n[preds: 87 ] [succs: 89 ]\n$r12 = staticinvoke <org.eclipse.jgit.lib.ObjectId: org.eclipse.jgit.lib.ObjectId fromRaw(byte[])>(r33);\n",source_file="PackFile.java",method_name="<org.eclipse.jgit.internal.storage.file.PackFile: org.eclipse.jgit.lib.ObjectLoader load(org.eclipse.jgit.internal.storage.file.WindowCursor,long)>",start_line="772",end_line="772",package_name="org.eclipse.jgit.internal.storage.file",class_name="org.eclipse.jgit.internal.storage.file.PackFile",type="call",start_column="-1",end_column="-1"];
    109839 [idx="111774",label="call java.lang.Integer.valueOf\n[line: 789]",class_name="org.eclipse.jgit.internal.storage.file.PackFile",source_file="PackFile.java",end_column="-1",extra="Block 113:\n[preds: 112 ] [succs: 114 ]\n$r23 = staticinvoke <java.lang.Integer: java.lang.Integer valueOf(int)>(s43);\n",package_name="org.eclipse.jgit.internal.storage.file",method_name="<org.eclipse.jgit.internal.storage.file.PackFile: org.eclipse.jgit.lib.ObjectLoader load(org.eclipse.jgit.internal.storage.file.WindowCursor,long)>",type="call",start_line="789",start_column="-1",end_line="789"];
    109735 [idx="111919",label="switch\n[line: 725]",type="block",start_column="-1",end_column="-1",package_name="org.eclipse.jgit.internal.storage.file",source_file="PackFile.java",method_name="<org.eclipse.jgit.internal.storage.file.PackFile: org.eclipse.jgit.lib.ObjectLoader load(org.eclipse.jgit.internal.storage.file.WindowCursor,long)>",start_line="725",end_line="725",extra="Block 29:\n[preds: 18 ] [succs: 30 109 49 85 ]\ntableswitch(s43) {     case 1: goto $i5 = virtualinvoke r1.<org.eclipse.jgit.internal.storage.file.WindowCursor: int getStreamFileThreshold()>();     case 2: goto $i5 = virtualinvoke r1.<org.eclipse.jgit.internal.storage.file.WindowCursor: int getStreamFileThreshold()>();     case 3: goto $i5 = virtualinvoke r1.<org.eclipse.jgit.internal.storage.file.WindowCursor: int getStreamFileThreshold()>();     case 4: goto $i5 = virtualinvoke r1.<org.eclipse.jgit.internal.storage.file.WindowCursor: int getStreamFileThreshold()>();     case 5: goto $r20 = new java.io.IOException;     case 6: goto i47 = i46 + 1;     case 7: goto $l18 = (long) i46;     default: goto $r20 = new java.io.IOException; };\n",class_name="org.eclipse.jgit.internal.storage.file.PackFile"];
    109836 [idx="111773",label="org.eclipse.jgit.internal.JGitText.unknownObjectType\n[line: 789]",extra="Block 111:\n[preds: 110 ] [succs: 112 ]\n$r19 = $r17.<org.eclipse.jgit.internal.JGitText: java.lang.String unknownObjectType>;\n",class_name="org.eclipse.jgit.internal.storage.file.PackFile",source_file="PackFile.java",method_name="<org.eclipse.jgit.internal.storage.file.PackFile: org.eclipse.jgit.lib.ObjectLoader load(org.eclipse.jgit.internal.storage.file.WindowCursor,long)>",type="block",start_column="-1",package_name="org.eclipse.jgit.internal.storage.file",start_line="789",end_line="789",end_column="-1"];
    109735 -> 109784 [label=""];
    109735 -> 109760 [label=""];
    109735 -> 109810 [label=""];
    109735 -> 109839 [label=""];
    109735 -> 109836 [label=""];
    109761 -> 109760 [label="int:2"];
    109710 -> 109735 [label="short:0"];
    109835 -> 109836 [label="org.eclipse.jgit.internal.JGitText:1"];
}

