digraph {
    90971 [idx="96191",label="new-array\n[line: 832]",package_name="org.eclipse.jgit.internal.storage.dfs",class_name="org.eclipse.jgit.internal.storage.dfs.DfsPackFile",source_file="DfsPackFile.java",type="block",end_line="832",extra="Block 118:\n[preds: 117 ] [succs: 119 ]\n$r21 = newarray (java.lang.Object)[1];\n",method_name="<org.eclipse.jgit.internal.storage.dfs.DfsPackFile: org.eclipse.jgit.lib.ObjectLoader load(org.eclipse.jgit.internal.storage.dfs.DfsReader,long)>",start_line="832",start_column="-1",end_column="-1"];
    90969 [idx="96189",label="call org.eclipse.jgit.internal.JGitText.get\n[line: 832]",extra="Block 116:\n[preds: 115 ] [succs: 117 ]\n$r23 = staticinvoke <org.eclipse.jgit.internal.JGitText: org.eclipse.jgit.internal.JGitText get()>();\n",package_name="org.eclipse.jgit.internal.storage.dfs",class_name="org.eclipse.jgit.internal.storage.dfs.DfsPackFile",source_file="DfsPackFile.java",method_name="<org.eclipse.jgit.internal.storage.dfs.DfsPackFile: org.eclipse.jgit.lib.ObjectLoader load(org.eclipse.jgit.internal.storage.dfs.DfsReader,long)>",type="call",start_line="832",start_column="-1",end_line="832",end_column="-1"];
    90977 [idx="96134",label="call java.io.IOException.<init>\n[line: 832]",class_name="org.eclipse.jgit.internal.storage.dfs.DfsPackFile",source_file="DfsPackFile.java",method_name="<org.eclipse.jgit.internal.storage.dfs.DfsPackFile: org.eclipse.jgit.lib.ObjectLoader load(org.eclipse.jgit.internal.storage.dfs.DfsReader,long)>",package_name="org.eclipse.jgit.internal.storage.dfs",extra="Block 122:\n[preds: 121 ] [succs: 123 ]\nspecialinvoke $r24.<java.io.IOException: void <init>(java.lang.String)>($r27);\n",type="call",start_line="832",start_column="-1",end_line="832",end_column="-1"];
    90976 [idx="96135",label="call java.text.MessageFormat.format\n[line: 832]",type="call",end_line="832",extra="Block 121:\n[preds: 120 ] [succs: 122 ]\n$r27 = staticinvoke <java.text.MessageFormat: java.lang.String format(java.lang.String,java.lang.Object[])>($r20, $r21);\n",class_name="org.eclipse.jgit.internal.storage.dfs.DfsPackFile",method_name="<org.eclipse.jgit.internal.storage.dfs.DfsPackFile: org.eclipse.jgit.lib.ObjectLoader load(org.eclipse.jgit.internal.storage.dfs.DfsReader,long)>",start_line="832",start_column="-1",end_column="-1",package_name="org.eclipse.jgit.internal.storage.dfs",source_file="DfsPackFile.java"];
    90889 [idx="96232",label="+\n[line: 789]",package_name="org.eclipse.jgit.internal.storage.dfs",class_name="org.eclipse.jgit.internal.storage.dfs.DfsPackFile",source_file="DfsPackFile.java",end_column="-1",method_name="<org.eclipse.jgit.internal.storage.dfs.DfsPackFile: org.eclipse.jgit.lib.ObjectLoader load(org.eclipse.jgit.internal.storage.dfs.DfsReader,long)>",type="block",start_line="789",start_column="-1",end_line="789",extra="Block 53:\n[preds: 29 ] [succs: 54 ]\ni50 = i49 + 1;\n"];
    90897 [idx="96241",label="&\n[line: 791]",start_line="791",extra="Block 58:\n[preds: 57 69 ] [succs: 59 ]\n$s28 = s51 & 128;\n",class_name="org.eclipse.jgit.internal.storage.dfs.DfsPackFile",method_name="<org.eclipse.jgit.internal.storage.dfs.DfsPackFile: org.eclipse.jgit.lib.ObjectLoader load(org.eclipse.jgit.internal.storage.dfs.DfsReader,long)>",type="block",start_column="-1",end_line="791",end_column="-1",package_name="org.eclipse.jgit.internal.storage.dfs",source_file="DfsPackFile.java"];
    90839 [idx="95784",label="&\n[line: 759]",class_name="org.eclipse.jgit.internal.storage.dfs.DfsPackFile",source_file="DfsPackFile.java",start_column="-1",end_line="759",end_column="-1",extra="Block 12:\n[preds: 11 ] [succs: 13 ]\ns46 = $s0 & 7;\n",package_name="org.eclipse.jgit.internal.storage.dfs",method_name="<org.eclipse.jgit.internal.storage.dfs.DfsPackFile: org.eclipse.jgit.lib.ObjectLoader load(org.eclipse.jgit.internal.storage.dfs.DfsReader,long)>",type="block",start_line="759"];
    90864 [idx="95757",label="switch\n[line: 769]",extra="Block 29:\n[preds: 18 ] [succs: 30 115 53 90 ]\ntableswitch(s46) {     case 1: goto if r37 == null goto $i5 = virtualinvoke r1.<org.eclipse.jgit.internal.storage.dfs.DfsReader: int getStreamFileThreshold()>();     case 2: goto if r37 == null goto $i5 = virtualinvoke r1.<org.eclipse.jgit.internal.storage.dfs.DfsReader: int getStreamFileThreshold()>();     case 3: goto if r37 == null goto $i5 = virtualinvoke r1.<org.eclipse.jgit.internal.storage.dfs.DfsReader: int getStreamFileThreshold()>();     case 4: goto if r37 == null goto $i5 = virtualinvoke r1.<org.eclipse.jgit.internal.storage.dfs.DfsReader: int getStreamFileThreshold()>();     case 5: goto $r24 = new java.io.IOException;     case 6: goto i50 = i49 + 1;     case 7: goto $l21 = (long) i49;     default: goto $r24 = new java.io.IOException; };\n",source_file="DfsPackFile.java",start_line="769",type="block",start_column="-1",end_line="769",end_column="-1",package_name="org.eclipse.jgit.internal.storage.dfs",class_name="org.eclipse.jgit.internal.storage.dfs.DfsPackFile",method_name="<org.eclipse.jgit.internal.storage.dfs.DfsPackFile: org.eclipse.jgit.lib.ObjectLoader load(org.eclipse.jgit.internal.storage.dfs.DfsReader,long)>"];
    90970 [idx="96190",label="org.eclipse.jgit.internal.JGitText.unknownObjectType\n[line: 832]",package_name="org.eclipse.jgit.internal.storage.dfs",class_name="org.eclipse.jgit.internal.storage.dfs.DfsPackFile",method_name="<org.eclipse.jgit.internal.storage.dfs.DfsPackFile: org.eclipse.jgit.lib.ObjectLoader load(org.eclipse.jgit.internal.storage.dfs.DfsReader,long)>",type="block",start_line="832",end_line="832",extra="Block 117:\n[preds: 116 ] [succs: 118 ]\n$r20 = $r23.<org.eclipse.jgit.internal.JGitText: java.lang.String unknownObjectType>;\n",source_file="DfsPackFile.java",start_column="-1",end_column="-1"];
    90864 -> 90971 [label=""];
    90864 -> 90976 [label=""];
    90864 -> 90889 [label=""];
    90864 -> 90897 [label=""];
    90864 -> 90970 [label=""];
    90839 -> 90864 [label="short:0"];
    90976 -> 90977 [label="java.lang.String:0"];
    90969 -> 90970 [label="org.eclipse.jgit.internal.JGitText:1"];
}

