digraph {
    109784 [idx="111959",label="-"];
    109835 [idx="111770",label="call org.eclipse.jgit.internal.JGitText.get"];
    109761 [idx="111951",label="const '255'"];
    109760 [idx="111950",label="&"];
    109710 [idx="111876",label="&"];
    109810 [idx="111999",label="call org.eclipse.jgit.lib.ObjectId.fromRaw"];
    109839 [idx="111774",label="call java.lang.Integer.valueOf"];
    109735 [idx="111919",label="switch"];
    109836 [idx="111773",label="org.eclipse.jgit.internal.JGitText.unknownObjectType"];
    109735 -> 109784 [label=""];
    109735 -> 109760 [label=""];
    109735 -> 109810 [label=""];
    109735 -> 109839 [label=""];
    109735 -> 109836 [label=""];
    109761 -> 109760 [label="int:2"];
    109710 -> 109735 [label="short:0"];
    109835 -> 109836 [label="org.eclipse.jgit.internal.JGitText:1"];
}

