digraph {
    70248 [idx="65914",label="cast\n[line: 237]",package_name="org.eclipse.jgit.revwalk",method_name="<org.eclipse.jgit.revwalk.ObjectWalk: void markUninteresting(org.eclipse.jgit.revwalk.RevObject)>",start_column="-1",end_column="-1",source_file="ObjectWalk.java",type="block",start_line="237",end_line="237",extra="Block 21:\n[preds: 20 ] [succs: 22 ]\n$r1 = (org.eclipse.jgit.revwalk.RevTree) r4;\n",class_name="org.eclipse.jgit.revwalk.ObjectWalk"];
    70235 [idx="65866",label="cast\n[line: 230]",extra="Block 10:\n[preds: 8 9 ] [succs: 11 ]\n$r3 = (org.eclipse.jgit.revwalk.RevTag) r4;\n",package_name="org.eclipse.jgit.revwalk",source_file="ObjectWalk.java",start_line="230",class_name="org.eclipse.jgit.revwalk.ObjectWalk",method_name="<org.eclipse.jgit.revwalk.ObjectWalk: void markUninteresting(org.eclipse.jgit.revwalk.RevObject)>",type="block",start_column="-1",end_line="230",end_column="-1"];
    70247 [idx="65909",label="const '0'\n[line: 236]",method_name="<org.eclipse.jgit.revwalk.ObjectWalk: void markUninteresting(org.eclipse.jgit.revwalk.RevObject)>",type="int",start_line="236",start_column="-1",end_column="-1",package_name="org.eclipse.jgit.revwalk",class_name="org.eclipse.jgit.revwalk.ObjectWalk",source_file="ObjectWalk.java",end_line="236",extra="0"];
    70227 [idx="65858",label="const '0'\n[line: 226]",class_name="org.eclipse.jgit.revwalk.ObjectWalk",source_file="ObjectWalk.java",type="int",start_line="226",start_column="-1",extra="0",package_name="org.eclipse.jgit.revwalk",end_line="226",end_column="-1",method_name="<org.eclipse.jgit.revwalk.ObjectWalk: void markUninteresting(org.eclipse.jgit.revwalk.RevObject)>"];
    70246 [idx="65908",label="==\n[line: 236]",start_line="236",package_name="org.eclipse.jgit.revwalk",class_name="org.eclipse.jgit.revwalk.ObjectWalk",source_file="ObjectWalk.java",method_name="<org.eclipse.jgit.revwalk.ObjectWalk: void markUninteresting(org.eclipse.jgit.revwalk.RevObject)>",type="control",start_column="-1",end_line="236",extra="Block 20:\n[preds: 19 ] [succs: 21 24 ]\nif $z2 == 0 goto $i0 = r4.<org.eclipse.jgit.revwalk.RevObject: int flags>;\n",end_column="-1"];
    70226 [idx="65859",label="==\n[line: 226]",package_name="org.eclipse.jgit.revwalk",class_name="org.eclipse.jgit.revwalk.ObjectWalk",source_file="ObjectWalk.java",method_name="<org.eclipse.jgit.revwalk.ObjectWalk: void markUninteresting(org.eclipse.jgit.revwalk.RevObject)>",start_line="226",start_column="-1",extra="Block 3:\n[preds: 2 ] [succs: 4 14 ]\nif $z0 == 0 goto $z1 = r4 instanceof org.eclipse.jgit.revwalk.RevCommit;\n",type="control",end_line="226",end_column="-1"];
    70245 [idx="65911",label="instanceof\n[line: 236]",package_name="org.eclipse.jgit.revwalk",source_file="ObjectWalk.java",end_column="-1",type="block",start_line="236",start_column="-1",end_line="236",extra="Block 19:\n[preds: 15 ] [succs: 20 ]\n$z2 = r4 instanceof org.eclipse.jgit.revwalk.RevTree;\n",class_name="org.eclipse.jgit.revwalk.ObjectWalk",method_name="<org.eclipse.jgit.revwalk.ObjectWalk: void markUninteresting(org.eclipse.jgit.revwalk.RevObject)>"];
    70239 [idx="65870",label="instanceof\n[line: 234]",extra="Block 14:\n[preds: 3 ] [succs: 15 ]\n$z1 = r4 instanceof org.eclipse.jgit.revwalk.RevCommit;\n",start_line="234",end_line="234",end_column="-1",package_name="org.eclipse.jgit.revwalk",class_name="org.eclipse.jgit.revwalk.ObjectWalk",source_file="ObjectWalk.java",method_name="<org.eclipse.jgit.revwalk.ObjectWalk: void markUninteresting(org.eclipse.jgit.revwalk.RevObject)>",type="block",start_column="-1"];
    70236 [idx="65869",label="call org.eclipse.jgit.revwalk.RevTag.getObject\n[line: 230]",end_line="230",end_column="-1",package_name="org.eclipse.jgit.revwalk",source_file="ObjectWalk.java",type="call",start_line="230",start_column="-1",extra="Block 11:\n[preds: 10 ] [succs: 12 ]\nr4 = virtualinvoke $r3.<org.eclipse.jgit.revwalk.RevTag: org.eclipse.jgit.revwalk.RevObject getObject()>();\n",class_name="org.eclipse.jgit.revwalk.ObjectWalk",method_name="<org.eclipse.jgit.revwalk.ObjectWalk: void markUninteresting(org.eclipse.jgit.revwalk.RevObject)>"];
    70246 -> 70248 [label=""];
    70226 -> 70235 [label=""];
    70247 -> 70246 [label="int:1"];
    70227 -> 70226 [label="int:1"];
    70236 -> 70245 [label="org.eclipse.jgit.revwalk.RevObject:1"];
    70236 -> 70239 [label="org.eclipse.jgit.revwalk.RevObject:1"];
    70236 -> 70248 [label="org.eclipse.jgit.revwalk.RevObject:1"];
    70236 -> 70235 [label="org.eclipse.jgit.revwalk.RevObject:1"];
}

