digraph {
    109899 [idx="111838",label="const '0'"];
    109901 [idx="111832",label="const '1'"];
    109898 [idx="111839",label="array index"];
    109895 [idx="111826",label="new-array"];
    109902 [idx="111835",label="call java.text.MessageFormat.format"];
    109897 [idx="111836",label="call java.lang.Long.valueOf"];
    109903 [idx="111834",label="call org.eclipse.jgit.errors.CorruptObjectException.<init>"];
    109894 [idx="111827",label="org.eclipse.jgit.internal.JGitText.objectAtHasBadZlibStream"];
    109900 [idx="111833",label="call org.eclipse.jgit.internal.storage.file.PackFile.getPackFile"];
    109897 -> 109898 [label="java.lang.Long:2"];
    109899 -> 109898 [label="int:1"];
    109901 -> 109898 [label="int:1"];
    109900 -> 109898 [label="java.io.File:2"];
    109895 -> 109898 [label="java.lang.Object[]:0"];
    109895 -> 109902 [label="java.lang.Object[]:2"];
    109902 -> 109903 [label="java.lang.String:0"];
    109894 -> 109902 [label="java.lang.String:1"];
}

