digraph {
    110172 [idx="112638",label="array index"];
    110224 [idx="112447",label="throw"];
    110180 [idx="112581",label="=="];
    110197 [idx="112597",label="-"];
    110182 [idx="112583",label="+"];
    110195 [idx="112595",label="+"];
    110150 [idx="112613",label="&"];
    110183 [idx="112582",label="const '1L'"];
    110165 [idx="112631",label="switch"];
    110180 -> 110182 [label=""];
    110165 -> 110172 [label=""];
    110165 -> 110224 [label=""];
    110165 -> 110197 [label=""];
    110195 -> 110197 [label="long:2"];
    110183 -> 110182 [label="long:2"];
    110195 -> 110182 [label="long:1"];
    110150 -> 110165 [label="short:0"];
}

