digraph {
    119079 [idx="118667",label="cast\n[line: 408]",class_name="org.eclipse.jgit.internal.storage.file.ObjectDirectory",method_name="<org.eclipse.jgit.internal.storage.file.ObjectDirectory: org.eclipse.jgit.lib.ObjectLoader openPackedObject(org.eclipse.jgit.internal.storage.file.WindowCursor,org.eclipse.jgit.lib.AnyObjectId)>",start_line="408",start_column="-1",package_name="org.eclipse.jgit.internal.storage.file",source_file="ObjectDirectory.java",type="block",end_line="408",end_column="-1",extra="Block 5:\n[preds: 4 ] [succs: 6 ]\nr3 = (org.eclipse.jgit.internal.storage.file.ObjectDirectory$PackList) $r7;\n"];
    119082 [idx="118662",label="const '0'\n[line: 409]",class_name="org.eclipse.jgit.internal.storage.file.ObjectDirectory",type="block",start_line="409",start_column="-1",end_line="409",extra="Block 8:\n[preds: 7 ] [succs: 9 ]\ni1 = 0;\n",package_name="org.eclipse.jgit.internal.storage.file",end_column="-1",source_file="ObjectDirectory.java",method_name="<org.eclipse.jgit.internal.storage.file.ObjectDirectory: org.eclipse.jgit.lib.ObjectLoader openPackedObject(org.eclipse.jgit.internal.storage.file.WindowCursor,org.eclipse.jgit.lib.AnyObjectId)>"];
    119084 [idx="118656",label="array index\n[line: 426]",end_column="-1",extra="Block 10:\n[preds: 9 ] [succs: 11 ]\nr5 = r4[i1];\n",package_name="org.eclipse.jgit.internal.storage.file",class_name="org.eclipse.jgit.internal.storage.file.ObjectDirectory",type="block",start_line="426",start_column="-1",source_file="ObjectDirectory.java",method_name="<org.eclipse.jgit.internal.storage.file.ObjectDirectory: org.eclipse.jgit.lib.ObjectLoader openPackedObject(org.eclipse.jgit.internal.storage.file.WindowCursor,org.eclipse.jgit.lib.AnyObjectId)>",end_line="426"];
    119083 [idx="118663",label=">=\n[line: 409]",package_name="org.eclipse.jgit.internal.storage.file",class_name="org.eclipse.jgit.internal.storage.file.ObjectDirectory",method_name="<org.eclipse.jgit.internal.storage.file.ObjectDirectory: org.eclipse.jgit.lib.ObjectLoader openPackedObject(org.eclipse.jgit.internal.storage.file.WindowCursor,org.eclipse.jgit.lib.AnyObjectId)>",type="control",start_column="-1",end_column="-1",extra="Block 9:\n[preds: 8 23 ] [succs: 10 24 ]\nif i1 >= i0 goto (branch);\n",source_file="ObjectDirectory.java",start_line="409",end_line="409"];
    119097 [idx="118676",label="+\n[line: 409]",method_name="<org.eclipse.jgit.internal.storage.file.ObjectDirectory: org.eclipse.jgit.lib.ObjectLoader openPackedObject(org.eclipse.jgit.internal.storage.file.WindowCursor,org.eclipse.jgit.lib.AnyObjectId)>",type="block",start_line="409",start_column="-1",extra="Block 22:\n[preds: 14 19 21 ] [succs: 23 ]\ni1 = i1 + 1;\n",class_name="org.eclipse.jgit.internal.storage.file.ObjectDirectory",source_file="ObjectDirectory.java",package_name="org.eclipse.jgit.internal.storage.file",end_line="409",end_column="-1"];
    119081 [idx="118661",label="lengthof\n[line: 409]",source_file="ObjectDirectory.java",type="block",start_line="409",end_column="-1",package_name="org.eclipse.jgit.internal.storage.file",extra="Block 7:\n[preds: 6 ] [succs: 8 ]\ni0 = lengthof r4;\n",class_name="org.eclipse.jgit.internal.storage.file.ObjectDirectory",method_name="<org.eclipse.jgit.internal.storage.file.ObjectDirectory: org.eclipse.jgit.lib.ObjectLoader openPackedObject(org.eclipse.jgit.internal.storage.file.WindowCursor,org.eclipse.jgit.lib.AnyObjectId)>",start_column="-1",end_line="409"];
    119078 [idx="118666",label="call java.util.concurrent.atomic.AtomicReference.get\n[line: 408]",source_file="ObjectDirectory.java",type="call",start_line="408",start_column="-1",end_line="408",extra="Block 4:\n[preds: 3 ] [succs: 5 ]\n$r7 = virtualinvoke $r6.<java.util.concurrent.atomic.AtomicReference: java.lang.Object get()>();\n",package_name="org.eclipse.jgit.internal.storage.file",class_name="org.eclipse.jgit.internal.storage.file.ObjectDirectory",method_name="<org.eclipse.jgit.internal.storage.file.ObjectDirectory: org.eclipse.jgit.lib.ObjectLoader openPackedObject(org.eclipse.jgit.internal.storage.file.WindowCursor,org.eclipse.jgit.lib.AnyObjectId)>",end_column="-1"];
    119080 [idx="118660",label="org.eclipse.jgit.internal.storage.file.ObjectDirectory$PackList.packs\n[line: 409]",end_column="-1",method_name="<org.eclipse.jgit.internal.storage.file.ObjectDirectory: org.eclipse.jgit.lib.ObjectLoader openPackedObject(org.eclipse.jgit.internal.storage.file.WindowCursor,org.eclipse.jgit.lib.AnyObjectId)>",type="block",class_name="org.eclipse.jgit.internal.storage.file.ObjectDirectory",source_file="ObjectDirectory.java",start_line="409",start_column="-1",end_line="409",extra="Block 6:\n[preds: 5 ] [succs: 7 ]\nr4 = r3.<org.eclipse.jgit.internal.storage.file.ObjectDirectory$PackList: org.eclipse.jgit.internal.storage.file.PackFile[] packs>;\n",package_name="org.eclipse.jgit.internal.storage.file"];
    119077 [idx="118665",label="org.eclipse.jgit.internal.storage.file.ObjectDirectory.packList\n[line: 408]",extra="Block 3:\n[preds: 2 18 26 ] [succs: 4 ]\n$r6 = r0.<org.eclipse.jgit.internal.storage.file.ObjectDirectory: java.util.concurrent.atomic.AtomicReference packList>;\n",package_name="org.eclipse.jgit.internal.storage.file",class_name="org.eclipse.jgit.internal.storage.file.ObjectDirectory",method_name="<org.eclipse.jgit.internal.storage.file.ObjectDirectory: org.eclipse.jgit.lib.ObjectLoader openPackedObject(org.eclipse.jgit.internal.storage.file.WindowCursor,org.eclipse.jgit.lib.AnyObjectId)>",start_line="408",start_column="-1",source_file="ObjectDirectory.java",type="block",end_line="408",end_column="-1"];
    119083 -> 119084 [label=""];
    119082 -> 119084 [label="int:2"];
    119097 -> 119084 [label="int:2"];
    119097 -> 119097 [label="int:1"];
    119081 -> 119083 [label="int:1"];
    119077 -> 119078 [label="java.util.concurrent.atomic.AtomicReference:1"];
    119080 -> 119081 [label="org.eclipse.jgit.internal.storage.file.PackFile[]:1"];
    119078 -> 119079 [label="java.lang.Object:1"];
    119079 -> 119080 [label="org.eclipse.jgit.internal.storage.file.ObjectDirectory$PackList:1"];
}

