digraph {
    98238 [idx="92844",label="array index\n[line: 462]",class_name="org.eclipse.jgit.internal.storage.pack.DeltaIndex",type="block",end_line="462",end_column="-1",package_name="org.eclipse.jgit.internal.storage.pack",extra="Block 106:\n[preds: 105 ] [succs: 107 ]\n$b79 = r0[$i80];\n",source_file="DeltaIndex.java",method_name="<org.eclipse.jgit.internal.storage.pack.DeltaIndex: int hashBlock(byte[],int)>",start_line="462",start_column="-1"];
    98250 [idx="92895",label="array index\n[line: 463]",class_name="org.eclipse.jgit.internal.storage.pack.DeltaIndex",method_name="<org.eclipse.jgit.internal.storage.pack.DeltaIndex: int hashBlock(byte[],int)>",start_line="463",end_line="463",extra="Block 115:\n[preds: 114 ] [succs: 116 ]\n$b85 = r0[$i84];\n",package_name="org.eclipse.jgit.internal.storage.pack",start_column="-1",end_column="-1",source_file="DeltaIndex.java",type="block"];
    98252 [idx="92889",label="const '255'\n[line: 463]",class_name="org.eclipse.jgit.internal.storage.pack.DeltaIndex",source_file="DeltaIndex.java",method_name="<org.eclipse.jgit.internal.storage.pack.DeltaIndex: int hashBlock(byte[],int)>",type="int",end_column="-1",end_line="463",extra="255",package_name="org.eclipse.jgit.internal.storage.pack",start_line="463",start_column="-1"];
    98251 [idx="92894",label="&\n[line: 463]",start_line="463",start_column="-1",end_line="463",package_name="org.eclipse.jgit.internal.storage.pack",source_file="DeltaIndex.java",type="block",end_column="-1",extra="Block 116:\n[preds: 115 ] [succs: 117 ]\n$s96 = $b85 & 255;\n",class_name="org.eclipse.jgit.internal.storage.pack.DeltaIndex",method_name="<org.eclipse.jgit.internal.storage.pack.DeltaIndex: int hashBlock(byte[],int)>"];
    98267 [idx="92879",label=">>>\n[line: 464]",end_line="464",extra="Block 128:\n[preds: 127 ] [succs: 129 ]\n$i100 = i115 >>> 23;\n",package_name="org.eclipse.jgit.internal.storage.pack",class_name="org.eclipse.jgit.internal.storage.pack.DeltaIndex",source_file="DeltaIndex.java",type="block",end_column="-1",method_name="<org.eclipse.jgit.internal.storage.pack.DeltaIndex: int hashBlock(byte[],int)>",start_line="464",start_column="-1"];
    98253 [idx="92888",label="|\n[line: 463]",type="block",start_line="463",end_line="463",end_column="-1",extra="Block 117:\n[preds: 116 ] [succs: 118 ]\n$i94 = $i97 | $s96;\n",package_name="org.eclipse.jgit.internal.storage.pack",class_name="org.eclipse.jgit.internal.storage.pack.DeltaIndex",source_file="DeltaIndex.java",method_name="<org.eclipse.jgit.internal.storage.pack.DeltaIndex: int hashBlock(byte[],int)>",start_column="-1"];
    98246 [idx="92883",label="<<\n[line: 463]",end_column="-1",extra="Block 113:\n[preds: 112 ] [succs: 114 ]\n$i97 = i114 << 8;\n",class_name="org.eclipse.jgit.internal.storage.pack.DeltaIndex",source_file="DeltaIndex.java",start_line="463",package_name="org.eclipse.jgit.internal.storage.pack",method_name="<org.eclipse.jgit.internal.storage.pack.DeltaIndex: int hashBlock(byte[],int)>",type="block",start_column="-1",end_line="463"];
    98245 [idx="92880",label="^\n[line: 462]",extra="Block 112:\n[preds: 111 ] [succs: 113 ]\ni114 = $i87 ^ $i86;\n",package_name="org.eclipse.jgit.internal.storage.pack",class_name="org.eclipse.jgit.internal.storage.pack.DeltaIndex",source_file="DeltaIndex.java",start_line="462",end_line="462",end_column="-1",method_name="<org.eclipse.jgit.internal.storage.pack.DeltaIndex: int hashBlock(byte[],int)>",type="block",start_column="-1"];
    98257 [idx="92869",label="^\n[line: 463]",source_file="DeltaIndex.java",start_column="-1",type="block",start_line="463",end_line="463",extra="Block 121:\n[preds: 120 ] [succs: 122 ]\ni115 = $i94 ^ $i93;\n",package_name="org.eclipse.jgit.internal.storage.pack",class_name="org.eclipse.jgit.internal.storage.pack.DeltaIndex",method_name="<org.eclipse.jgit.internal.storage.pack.DeltaIndex: int hashBlock(byte[],int)>",end_column="-1"];
    98252 -> 98251 [label="int:2"];
    98238 -> 98245 [label="int:2"];
    98250 -> 98257 [label="int:2"];
    98246 -> 98253 [label="int:1"];
    98245 -> 98246 [label="int:1"];
    98253 -> 98257 [label="int:1"];
    98257 -> 98267 [label="int:1"];
    98251 -> 98253 [label="short:2"];
}

