digraph {
    25847 [idx="25207",label="cast\n[line: 228]",class_name="org.eclipse.jgit.transport.BundleFetchConnection",method_name="<org.eclipse.jgit.transport.BundleFetchConnection: void verifyPrerequisites()>",type="block",start_line="228",end_line="228",end_column="-1",extra="Block 26:\n[preds: 25 ] [succs: 27 ]\nr60 = (org.eclipse.jgit.lib.ObjectId) $r32;\n",source_file="BundleFetchConnection.java",start_column="-1",package_name="org.eclipse.jgit.transport"];
    25845 [idx="25205",label="cast\n[line: 244]",type="block",start_line="244",start_column="-1",extra="Block 24:\n[preds: 23 ] [succs: 25 ]\nr59 = (java.util.Map$Entry) $r33;\n",source_file="BundleFetchConnection.java",method_name="<org.eclipse.jgit.transport.BundleFetchConnection: void verifyPrerequisites()>",class_name="org.eclipse.jgit.transport.BundleFetchConnection",end_line="244",end_column="-1",package_name="org.eclipse.jgit.transport"];
    25843 [idx="25203",label="const '0'\n[line: 227]",extra="0",source_file="BundleFetchConnection.java",method_name="<org.eclipse.jgit.transport.BundleFetchConnection: void verifyPrerequisites()>",type="int",start_line="227",start_column="-1",end_line="227",end_column="-1",package_name="org.eclipse.jgit.transport",class_name="org.eclipse.jgit.transport.BundleFetchConnection"];
    25854 [idx="25214",label="goto\n[line: 241]",package_name="org.eclipse.jgit.transport",class_name="org.eclipse.jgit.transport.BundleFetchConnection",method_name="<org.eclipse.jgit.transport.BundleFetchConnection: void verifyPrerequisites()>",type="block",start_line="241",source_file="BundleFetchConnection.java",start_column="-1",end_line="241",end_column="-1",extra="Block 32:\n[preds: 29 31 ] [succs: 50 ]\ngoto [?= (branch)];\n"];
    25842 [idx="25202",label="==\n[line: 227]",type="control",end_line="227",end_column="-1",extra="Block 22:\n[preds: 21 ] [succs: 23 51 ]\nif $z2 == 0 goto $z1 = interfaceinvoke r4.<java.util.Map: boolean isEmpty()>();\n",source_file="BundleFetchConnection.java",package_name="org.eclipse.jgit.transport",class_name="org.eclipse.jgit.transport.BundleFetchConnection",method_name="<org.eclipse.jgit.transport.BundleFetchConnection: void verifyPrerequisites()>",start_line="227",start_column="-1"];
    25841 [idx="25201",label="call java.util.Iterator.hasNext\n[line: 227]",end_line="227",end_column="-1",package_name="org.eclipse.jgit.transport",start_column="-1",source_file="BundleFetchConnection.java",method_name="<org.eclipse.jgit.transport.BundleFetchConnection: void verifyPrerequisites()>",type="call",start_line="227",extra="Block 21:\n[preds: 20 50 ] [succs: 22 ]\n$z2 = interfaceinvoke r58.<java.util.Iterator: boolean hasNext()>();\n",class_name="org.eclipse.jgit.transport.BundleFetchConnection"];
    25840 [idx="25200",label="call java.util.Set.iterator\n[line: 227]",source_file="BundleFetchConnection.java",start_line="227",end_line="227",extra="Block 20:\n[preds: 19 ] [succs: 21 ]\nr58 = interfaceinvoke $r14.<java.util.Set: java.util.Iterator iterator()>();\n",package_name="org.eclipse.jgit.transport",class_name="org.eclipse.jgit.transport.BundleFetchConnection",method_name="<org.eclipse.jgit.transport.BundleFetchConnection: void verifyPrerequisites()>",type="call",start_column="-1",end_column="-1"];
    25846 [idx="25206",label="call java.util.Map$Entry.getKey\n[line: 228]",start_column="-1",extra="Block 25:\n[preds: 24 ] [succs: 26 ]\n$r32 = interfaceinvoke r59.<java.util.Map$Entry: java.lang.Object getKey()>();\n",class_name="org.eclipse.jgit.transport.BundleFetchConnection",method_name="<org.eclipse.jgit.transport.BundleFetchConnection: void verifyPrerequisites()>",type="call",start_line="228",package_name="org.eclipse.jgit.transport",source_file="BundleFetchConnection.java",end_line="228",end_column="-1"];
    25839 [idx="25198",label="call java.util.Map.entrySet\n[line: 227]",type="call",start_line="227",start_column="-1",end_line="227",extra="Block 19:\n[preds: 18 ] [succs: 20 ]\n$r14 = interfaceinvoke $r12.<java.util.Map: java.util.Set entrySet()>();\n",package_name="org.eclipse.jgit.transport",source_file="BundleFetchConnection.java",method_name="<org.eclipse.jgit.transport.BundleFetchConnection: void verifyPrerequisites()>",end_column="-1",class_name="org.eclipse.jgit.transport.BundleFetchConnection"];
    25842 -> 25854 [label=""];
    25842 -> 25846 [label=""];
    25841 -> 25842 [label="boolean:0"];
    25843 -> 25842 [label="int:1"];
    25839 -> 25840 [label="java.util.Set:1"];
    25845 -> 25846 [label="java.util.Map$Entry:1"];
    25840 -> 25841 [label="java.util.Iterator:1"];
    25846 -> 25847 [label="java.lang.Object:1"];
}

