digraph {
    69808 [idx="66442",label="this\n[line: -1]",source_file="RevCommitList.java",start_line="-1",end_line="-1",end_column="-1",package_name="org.eclipse.jgit.revwalk",class_name="org.eclipse.jgit.revwalk.RevCommitList",method_name="<org.eclipse.jgit.revwalk.RevCommitList: void applyFlag(org.eclipse.jgit.revwalk.filter.RevFilter,org.eclipse.jgit.revwalk.RevFlag,int,int)>",type="block",start_column="-1",extra="Block 0:\n[preds: ] [succs: 1 ]\nr0 := @this: org.eclipse.jgit.revwalk.RevCommitList;\n"];
    69829 [idx="66552",label="cast\n[line: 144]",source_file="RevCommitList.java",start_column="-1",end_line="144",end_column="-1",extra="Block 20:\n[preds: 19 ] [succs: 21 ]\nr8 = (org.eclipse.jgit.revwalk.RevObjectList$Block) $r7;\n",package_name="org.eclipse.jgit.revwalk",class_name="org.eclipse.jgit.revwalk.RevCommitList",type="block",start_line="144",method_name="<org.eclipse.jgit.revwalk.RevCommitList: void applyFlag(org.eclipse.jgit.revwalk.filter.RevFilter,org.eclipse.jgit.revwalk.RevFlag,int,int)>"];
    69828 [idx="66553",label="array index\n[line: 144]",extra="Block 19:\n[preds: 18 ] [succs: 20 ]\n$r7 = $r6[i11];\n",class_name="org.eclipse.jgit.revwalk.RevCommitList",source_file="RevCommitList.java",method_name="<org.eclipse.jgit.revwalk.RevCommitList: void applyFlag(org.eclipse.jgit.revwalk.filter.RevFilter,org.eclipse.jgit.revwalk.RevFlag,int,int)>",type="block",end_line="144",package_name="org.eclipse.jgit.revwalk",start_line="144",start_column="-1",end_column="-1"];
    69820 [idx="66438",label="<=\n[line: 141]",extra="Block 12:\n[preds: 11 ] [succs: 13 22 ]\nif $i1 <= 0 goto $i2 = i7;\n",package_name="org.eclipse.jgit.revwalk",class_name="org.eclipse.jgit.revwalk.RevCommitList",source_file="RevCommitList.java",method_name="<org.eclipse.jgit.revwalk.RevCommitList: void applyFlag(org.eclipse.jgit.revwalk.filter.RevFilter,org.eclipse.jgit.revwalk.RevFlag,int,int)>",type="control",start_line="141",end_column="-1",start_column="-1",end_line="141"];
    69823 [idx="66437",label=">>\n[line: 142]",end_column="-1",package_name="org.eclipse.jgit.revwalk",source_file="RevCommitList.java",type="block",end_line="142",method_name="<org.eclipse.jgit.revwalk.RevCommitList: void applyFlag(org.eclipse.jgit.revwalk.filter.RevFilter,org.eclipse.jgit.revwalk.RevFlag,int,int)>",start_line="142",start_column="-1",extra="Block 14:\n[preds: 13 ] [succs: 15 ]\ni11 = i10 >> $i5;\n",class_name="org.eclipse.jgit.revwalk.RevCommitList"];
    69825 [idx="66556",label="<<\n[line: 143]",class_name="org.eclipse.jgit.revwalk.RevCommitList",source_file="RevCommitList.java",method_name="<org.eclipse.jgit.revwalk.RevCommitList: void applyFlag(org.eclipse.jgit.revwalk.filter.RevFilter,org.eclipse.jgit.revwalk.RevFlag,int,int)>",end_column="-1",end_line="143",extra="Block 16:\n[preds: 15 ] [succs: 17 ]\n$i6 = i11 << $i4;\n",package_name="org.eclipse.jgit.revwalk",type="block",start_line="143",start_column="-1"];
    69824 [idx="66557",label="org.eclipse.jgit.revwalk.RevObjectList$Block.shift\n[line: 143]",start_column="-1",package_name="org.eclipse.jgit.revwalk",method_name="<org.eclipse.jgit.revwalk.RevCommitList: void applyFlag(org.eclipse.jgit.revwalk.filter.RevFilter,org.eclipse.jgit.revwalk.RevFlag,int,int)>",type="block",start_line="143",end_column="-1",extra="Block 15:\n[preds: 14 ] [succs: 16 ]\n$i4 = r8.<org.eclipse.jgit.revwalk.RevObjectList$Block: int shift>;\n",class_name="org.eclipse.jgit.revwalk.RevCommitList",source_file="RevCommitList.java",end_line="143"];
    69827 [idx="66558",label="org.eclipse.jgit.revwalk.RevObjectList$Block.contents\n[line: 144]",source_file="RevCommitList.java",end_line="144",class_name="org.eclipse.jgit.revwalk.RevCommitList",package_name="org.eclipse.jgit.revwalk",method_name="<org.eclipse.jgit.revwalk.RevCommitList: void applyFlag(org.eclipse.jgit.revwalk.filter.RevFilter,org.eclipse.jgit.revwalk.RevFlag,int,int)>",type="block",start_line="144",start_column="-1",end_column="-1",extra="Block 18:\n[preds: 17 ] [succs: 19 ]\n$r6 = r8.<org.eclipse.jgit.revwalk.RevObjectList$Block: java.lang.Object[] contents>;\n"];
    69818 [idx="66432",label="org.eclipse.jgit.revwalk.RevObjectList.contents\n[line: 140]",start_line="140",end_line="140",end_column="-1",extra="Block 10:\n[preds: 9 ] [succs: 11 ]\nr8 = r0.<org.eclipse.jgit.revwalk.RevCommitList: org.eclipse.jgit.revwalk.RevObjectList$Block contents>;\n",package_name="org.eclipse.jgit.revwalk",class_name="org.eclipse.jgit.revwalk.RevCommitList",source_file="RevCommitList.java",start_column="-1",method_name="<org.eclipse.jgit.revwalk.RevCommitList: void applyFlag(org.eclipse.jgit.revwalk.filter.RevFilter,org.eclipse.jgit.revwalk.RevFlag,int,int)>",type="block"];
    69820 -> 69825 [label=""];
    69820 -> 69824 [label=""];
    69820 -> 69827 [label=""];
    69823 -> 69828 [label="int:2"];
    69827 -> 69828 [label="java.lang.Object[]:1"];
    69829 -> 69824 [label="org.eclipse.jgit.revwalk.RevObjectList$Block:1"];
    69829 -> 69827 [label="org.eclipse.jgit.revwalk.RevObjectList$Block:1"];
    69818 -> 69827 [label="org.eclipse.jgit.revwalk.RevObjectList$Block:1"];
    69808 -> 69818 [label="org.eclipse.jgit.revwalk.RevCommitList:1"];
}

