digraph {
    98143 [idx="92738",label="array index\n[line: 452]",end_line="452",end_column="-1",class_name="org.eclipse.jgit.internal.storage.pack.DeltaIndex",source_file="DeltaIndex.java",start_line="452",start_column="-1",extra="Block 34:\n[preds: 33 ] [succs: 35 ]\n$b26 = r0[$i27];\n",package_name="org.eclipse.jgit.internal.storage.pack",method_name="<org.eclipse.jgit.internal.storage.pack.DeltaIndex: int hashBlock(byte[],int)>",type="block"];
    98131 [idx="92750",label="array index\n[line: 451]",start_column="-1",package_name="org.eclipse.jgit.internal.storage.pack",class_name="org.eclipse.jgit.internal.storage.pack.DeltaIndex",method_name="<org.eclipse.jgit.internal.storage.pack.DeltaIndex: int hashBlock(byte[],int)>",type="block",extra="Block 25:\n[preds: 24 ] [succs: 26 ]\n$b19 = r0[$i20];\n",source_file="DeltaIndex.java",start_line="451",end_line="451",end_column="-1"];
    98145 [idx="92799",label="const '255'\n[line: 452]",class_name="org.eclipse.jgit.internal.storage.pack.DeltaIndex",type="int",start_column="-1",end_column="-1",extra="255",package_name="org.eclipse.jgit.internal.storage.pack",source_file="DeltaIndex.java",method_name="<org.eclipse.jgit.internal.storage.pack.DeltaIndex: int hashBlock(byte[],int)>",start_line="452",end_line="452"];
    98144 [idx="92798",label="&\n[line: 452]",end_line="452",end_column="-1",package_name="org.eclipse.jgit.internal.storage.pack",class_name="org.eclipse.jgit.internal.storage.pack.DeltaIndex",source_file="DeltaIndex.java",type="block",extra="Block 35:\n[preds: 34 ] [succs: 36 ]\n$s29 = $b26 & 255;\n",method_name="<org.eclipse.jgit.internal.storage.pack.DeltaIndex: int hashBlock(byte[],int)>",start_line="452",start_column="-1"];
    98140 [idx="92737",label="const '8'\n[line: 452]",type="int",start_line="452",end_column="-1",extra="8",source_file="DeltaIndex.java",package_name="org.eclipse.jgit.internal.storage.pack",class_name="org.eclipse.jgit.internal.storage.pack.DeltaIndex",method_name="<org.eclipse.jgit.internal.storage.pack.DeltaIndex: int hashBlock(byte[],int)>",start_column="-1",end_line="452"];
    98146 [idx="92796",label="|\n[line: 452]",start_column="-1",end_column="-1",class_name="org.eclipse.jgit.internal.storage.pack.DeltaIndex",method_name="<org.eclipse.jgit.internal.storage.pack.DeltaIndex: int hashBlock(byte[],int)>",type="block",package_name="org.eclipse.jgit.internal.storage.pack",source_file="DeltaIndex.java",start_line="452",end_line="452",extra="Block 36:\n[preds: 35 ] [succs: 37 ]\n$i34 = $i30 | $s29;\n"];
    98139 [idx="92742",label="<<\n[line: 452]",package_name="org.eclipse.jgit.internal.storage.pack",class_name="org.eclipse.jgit.internal.storage.pack.DeltaIndex",source_file="DeltaIndex.java",type="block",start_line="452",extra="Block 32:\n[preds: 31 ] [succs: 33 ]\n$i30 = i105 << 8;\n",method_name="<org.eclipse.jgit.internal.storage.pack.DeltaIndex: int hashBlock(byte[],int)>",start_column="-1",end_line="452",end_column="-1"];
    98150 [idx="92792",label="^\n[line: 452]",package_name="org.eclipse.jgit.internal.storage.pack",class_name="org.eclipse.jgit.internal.storage.pack.DeltaIndex",source_file="DeltaIndex.java",method_name="<org.eclipse.jgit.internal.storage.pack.DeltaIndex: int hashBlock(byte[],int)>",end_column="-1",extra="Block 40:\n[preds: 39 ] [succs: 41 ]\ni106 = $i34 ^ $i33;\n",type="block",start_line="452",start_column="-1",end_line="452"];
    98138 [idx="92743",label="^\n[line: 451]",type="block",start_line="451",package_name="org.eclipse.jgit.internal.storage.pack",class_name="org.eclipse.jgit.internal.storage.pack.DeltaIndex",source_file="DeltaIndex.java",method_name="<org.eclipse.jgit.internal.storage.pack.DeltaIndex: int hashBlock(byte[],int)>",start_column="-1",end_line="451",end_column="-1",extra="Block 31:\n[preds: 30 ] [succs: 32 ]\ni105 = $i24 ^ $i25;\n"];
    98145 -> 98144 [label="int:2"];
    98140 -> 98139 [label="int:2"];
    98143 -> 98150 [label="int:2"];
    98131 -> 98138 [label="int:2"];
    98139 -> 98146 [label="int:1"];
    98146 -> 98150 [label="int:1"];
    98138 -> 98139 [label="int:1"];
    98144 -> 98146 [label="short:2"];
}

