digraph {
    91263 [idx="94439",label="const '0'\n[line: 1027]",type="int",end_column="-1",extra="0",method_name="<org.eclipse.jgit.internal.storage.dfs.DfsPackFile: long getObjectSize(org.eclipse.jgit.internal.storage.dfs.DfsReader,long)>",source_file="DfsPackFile.java",start_line="1027",start_column="-1",end_line="1027",package_name="org.eclipse.jgit.internal.storage.dfs",class_name="org.eclipse.jgit.internal.storage.dfs.DfsPackFile"];
    91265 [idx="94231",label="const '1'\n[line: 1027]",package_name="org.eclipse.jgit.internal.storage.dfs",source_file="DfsPackFile.java",method_name="<org.eclipse.jgit.internal.storage.dfs.DfsPackFile: long getObjectSize(org.eclipse.jgit.internal.storage.dfs.DfsReader,long)>",start_column="-1",end_column="-1",class_name="org.eclipse.jgit.internal.storage.dfs.DfsPackFile",type="int",start_line="1027",end_line="1027",extra="1"];
    91262 [idx="94438",label="array index\n[line: 1027]",type="block",end_column="-1",extra="Block 63:\n[preds: 62 ] [succs: 64 ]\n$r16[0] = $r15;\n",class_name="org.eclipse.jgit.internal.storage.dfs.DfsPackFile",method_name="<org.eclipse.jgit.internal.storage.dfs.DfsPackFile: long getObjectSize(org.eclipse.jgit.internal.storage.dfs.DfsReader,long)>",start_column="-1",end_line="1027",package_name="org.eclipse.jgit.internal.storage.dfs",source_file="DfsPackFile.java",start_line="1027"];
    91259 [idx="94435",label="new-array\n[line: 1027]",extra="Block 61:\n[preds: 60 ] [succs: 62 ]\n$r16 = newarray (java.lang.Object)[2];\n",class_name="org.eclipse.jgit.internal.storage.dfs.DfsPackFile",method_name="<org.eclipse.jgit.internal.storage.dfs.DfsPackFile: long getObjectSize(org.eclipse.jgit.internal.storage.dfs.DfsReader,long)>",start_line="1027",start_column="-1",end_column="-1",package_name="org.eclipse.jgit.internal.storage.dfs",source_file="DfsPackFile.java",type="block",end_line="1027"];
    91257 [idx="94433",label="call org.eclipse.jgit.internal.JGitText.get\n[line: 1027]",extra="Block 59:\n[preds: 58 ] [succs: 60 ]\n$r13 = staticinvoke <org.eclipse.jgit.internal.JGitText: org.eclipse.jgit.internal.JGitText get()>();\n",package_name="org.eclipse.jgit.internal.storage.dfs",class_name="org.eclipse.jgit.internal.storage.dfs.DfsPackFile",source_file="DfsPackFile.java",end_line="1027",end_column="-1",method_name="<org.eclipse.jgit.internal.storage.dfs.DfsPackFile: long getObjectSize(org.eclipse.jgit.internal.storage.dfs.DfsReader,long)>",type="call",start_line="1027",start_column="-1"];
    91266 [idx="94228",label="call java.text.MessageFormat.format\n[line: 1027]",type="call",start_line="1027",extra="Block 66:\n[preds: 65 ] [succs: 67 ]\n$r19 = staticinvoke <java.text.MessageFormat: java.lang.String format(java.lang.String,java.lang.Object[])>($r17, $r16);\n",package_name="org.eclipse.jgit.internal.storage.dfs",class_name="org.eclipse.jgit.internal.storage.dfs.DfsPackFile",source_file="DfsPackFile.java",method_name="<org.eclipse.jgit.internal.storage.dfs.DfsPackFile: long getObjectSize(org.eclipse.jgit.internal.storage.dfs.DfsReader,long)>",start_column="-1",end_line="1027",end_column="-1"];
    91261 [idx="94437",label="call java.lang.Long.valueOf\n[line: 1027]",type="call",start_line="1027",end_line="1027",end_column="-1",package_name="org.eclipse.jgit.internal.storage.dfs",source_file="DfsPackFile.java",method_name="<org.eclipse.jgit.internal.storage.dfs.DfsPackFile: long getObjectSize(org.eclipse.jgit.internal.storage.dfs.DfsReader,long)>",class_name="org.eclipse.jgit.internal.storage.dfs.DfsPackFile",start_column="-1",extra="Block 62:\n[preds: 61 ] [succs: 63 ]\n$r15 = staticinvoke <java.lang.Long: java.lang.Long valueOf(long)>(l0);\n"];
    91264 [idx="94230",label="call org.eclipse.jgit.internal.storage.dfs.DfsPackFile.getPackName\n[line: 1027]",extra="Block 64:\n[preds: 63 ] [succs: 65 ]\n$r20 = specialinvoke r0.<org.eclipse.jgit.internal.storage.dfs.DfsPackFile: java.lang.String getPackName()>();\n",package_name="org.eclipse.jgit.internal.storage.dfs",class_name="org.eclipse.jgit.internal.storage.dfs.DfsPackFile",start_line="1027",end_line="1027",source_file="DfsPackFile.java",method_name="<org.eclipse.jgit.internal.storage.dfs.DfsPackFile: long getObjectSize(org.eclipse.jgit.internal.storage.dfs.DfsReader,long)>",type="call",start_column="-1",end_column="-1"];
    91258 [idx="94434",label="org.eclipse.jgit.internal.JGitText.objectAtHasBadZlibStream\n[line: 1027]",start_line="1027",package_name="org.eclipse.jgit.internal.storage.dfs",source_file="DfsPackFile.java",type="block",class_name="org.eclipse.jgit.internal.storage.dfs.DfsPackFile",method_name="<org.eclipse.jgit.internal.storage.dfs.DfsPackFile: long getObjectSize(org.eclipse.jgit.internal.storage.dfs.DfsReader,long)>",start_column="-1",end_line="1027",end_column="-1",extra="Block 60:\n[preds: 59 ] [succs: 61 ]\n$r17 = $r13.<org.eclipse.jgit.internal.JGitText: java.lang.String objectAtHasBadZlibStream>;\n"];
    91261 -> 91262 [label="java.lang.Long:2"];
    91263 -> 91262 [label="int:1"];
    91265 -> 91262 [label="int:1"];
    91259 -> 91262 [label="java.lang.Object[]:0"];
    91259 -> 91266 [label="java.lang.Object[]:2"];
    91264 -> 91262 [label="java.lang.String:2"];
    91258 -> 91266 [label="java.lang.String:1"];
    91257 -> 91258 [label="org.eclipse.jgit.internal.JGitText:1"];
}

