digraph {
    66660 [idx="71227",label="cast\n[line: 114]",source_file="RevFlagSet.java",method_name="<org.eclipse.jgit.revwalk.RevFlagSet: boolean add(org.eclipse.jgit.revwalk.RevFlag)>",type="block",extra="Block 17:\n[preds: 16 ] [succs: 18 ]\n$r6 = (org.eclipse.jgit.revwalk.RevFlag) $r5;\n",package_name="org.eclipse.jgit.revwalk",class_name="org.eclipse.jgit.revwalk.RevFlagSet",end_column="-1",start_line="114",start_column="-1",end_line="114"];
    66654 [idx="71170",label="const '0'\n[line: 110]",class_name="org.eclipse.jgit.revwalk.RevFlagSet",source_file="RevFlagSet.java",type="block",start_column="-1",end_line="110",end_column="-1",extra="Block 11:\n[preds: 10 ] [succs: 12 ]\ni9 = 0;\n",package_name="org.eclipse.jgit.revwalk",method_name="<org.eclipse.jgit.revwalk.RevFlagSet: boolean add(org.eclipse.jgit.revwalk.RevFlag)>",start_line="110"];
    66664 [idx="71223",label="const '1'\n[line: 112]",source_file="RevFlagSet.java",start_line="112",start_column="-1",end_line="112",end_column="-1",extra="1",package_name="org.eclipse.jgit.revwalk",class_name="org.eclipse.jgit.revwalk.RevFlagSet",method_name="<org.eclipse.jgit.revwalk.RevFlagSet: boolean add(org.eclipse.jgit.revwalk.RevFlag)>",type="int"];
    66665 [idx="71222",label="goto\n[line: 112]",class_name="org.eclipse.jgit.revwalk.RevFlagSet",source_file="RevFlagSet.java",method_name="<org.eclipse.jgit.revwalk.RevFlagSet: boolean add(org.eclipse.jgit.revwalk.RevFlag)>",end_column="-1",start_line="112",start_column="-1",end_line="112",extra="Block 22:\n[preds: 21 ] [succs: 12 ]\ngoto [?= $r2 = r0.<org.eclipse.jgit.revwalk.RevFlagSet: java.util.List active>];\n",package_name="org.eclipse.jgit.revwalk",type="block"];
    66647 [idx="71179",label="==\n[line: 107]",package_name="org.eclipse.jgit.revwalk",source_file="RevFlagSet.java",method_name="<org.eclipse.jgit.revwalk.RevFlagSet: boolean add(org.eclipse.jgit.revwalk.RevFlag)>",type="control",start_line="107",start_column="-1",extra="Block 5:\n[preds: 4 ] [succs: 6 7 ]\nif $i2 == 0 goto $i4 = r0.<org.eclipse.jgit.revwalk.RevFlagSet: int mask>;\n",class_name="org.eclipse.jgit.revwalk.RevFlagSet",end_line="107",end_column="-1"];
    66662 [idx="71225",label=">=\n[line: 114]",end_column="-1",extra="Block 20:\n[preds: 19 ] [succs: 21 23 ]\nif $i8 >= $i7 goto $r3 = r0.<org.eclipse.jgit.revwalk.RevFlagSet: java.util.List active>;\n",class_name="org.eclipse.jgit.revwalk.RevFlagSet",method_name="<org.eclipse.jgit.revwalk.RevFlagSet: boolean add(org.eclipse.jgit.revwalk.RevFlag)>",start_line="114",end_line="114",package_name="org.eclipse.jgit.revwalk",source_file="RevFlagSet.java",type="control",start_column="-1"];
    66663 [idx="71224",label="+\n[line: 112]",start_column="-1",extra="Block 21:\n[preds: 20 ] [succs: 22 ]\ni9 = i9 + 1;\n",source_file="RevFlagSet.java",method_name="<org.eclipse.jgit.revwalk.RevFlagSet: boolean add(org.eclipse.jgit.revwalk.RevFlag)>",start_line="112",end_line="112",end_column="-1",package_name="org.eclipse.jgit.revwalk",class_name="org.eclipse.jgit.revwalk.RevFlagSet",type="block"];
    66656 [idx="71231",label="call java.util.List.size\n[line: 111]",class_name="org.eclipse.jgit.revwalk.RevFlagSet",source_file="RevFlagSet.java",type="call",start_line="111",start_column="-1",end_line="111",extra="Block 13:\n[preds: 12 ] [succs: 14 ]\n$i6 = interfaceinvoke $r2.<java.util.List: int size()>();\n",package_name="org.eclipse.jgit.revwalk",method_name="<org.eclipse.jgit.revwalk.RevFlagSet: boolean add(org.eclipse.jgit.revwalk.RevFlag)>",end_column="-1"];
    66659 [idx="71228",label="call java.util.List.get\n[line: 114]",package_name="org.eclipse.jgit.revwalk",class_name="org.eclipse.jgit.revwalk.RevFlagSet",source_file="RevFlagSet.java",method_name="<org.eclipse.jgit.revwalk.RevFlagSet: boolean add(org.eclipse.jgit.revwalk.RevFlag)>",type="call",start_line="114",end_column="-1",extra="Block 16:\n[preds: 15 ] [succs: 17 ]\n$r5 = interfaceinvoke $r4.<java.util.List: java.lang.Object get(int)>(i9);\n",start_column="-1",end_line="114"];
    66662 -> 66665 [label=""];
    66662 -> 66663 [label=""];
    66647 -> 66656 [label=""];
    66662 -> 66656 [label=""];
    66664 -> 66663 [label="int:2"];
    66663 -> 66663 [label="int:1"];
    66654 -> 66659 [label="int:1"];
    66663 -> 66659 [label="int:1"];
    66659 -> 66660 [label="java.lang.Object:1"];
}

