digraph {
    73873 [idx="78026",label="const '1'"];
    73850 [idx="77870",label=">="];
    73872 [idx="78027",label="+"];
    73842 [idx="77862",label="+"];
    73831 [idx="77874",label="+"];
    73844 [idx="77856",label="call org.eclipse.jgit.util.IntList.get"];
    73836 [idx="77881",label="call org.eclipse.jgit.util.IntList.get"];
    73847 [idx="77859",label="org.eclipse.jgit.diff.RawText.content"];
    73848 [idx="77868",label="call org.eclipse.jgit.util.RawCharUtil.trimTrailingWhitespace"];
    73873 -> 73872 [label="int:2"];
    73836 -> 73848 [label="int:2"];
    73842 -> 73844 [label="int:1"];
    73831 -> 73836 [label="int:1"];
    73836 -> 73872 [label="int:1"];
    73836 -> 73850 [label="int:0"];
    73844 -> 73848 [label="int:3"];
    73847 -> 73848 [label="byte[]:1"];
}

