digraph {
    98226 [idx="92832",label="array index\n[line: 461]",source_file="DeltaIndex.java",class_name="org.eclipse.jgit.internal.storage.pack.DeltaIndex",method_name="<org.eclipse.jgit.internal.storage.pack.DeltaIndex: int hashBlock(byte[],int)>",type="block",start_line="461",extra="Block 97:\n[preds: 96 ] [succs: 98 ]\n$b72 = r0[$i73];\n",package_name="org.eclipse.jgit.internal.storage.pack",start_column="-1",end_line="461",end_column="-1"];
    98224 [idx="92834",label="+\n[line: 461]",extra="Block 96:\n[preds: 95 ] [succs: 97 ]\n$i73 = i0 + 12;\n",class_name="org.eclipse.jgit.internal.storage.pack.DeltaIndex",source_file="DeltaIndex.java",method_name="<org.eclipse.jgit.internal.storage.pack.DeltaIndex: int hashBlock(byte[],int)>",start_line="461",end_line="461",package_name="org.eclipse.jgit.internal.storage.pack",type="block",start_column="-1",end_column="-1"];
    98227 [idx="92833",label="&\n[line: 461]",class_name="org.eclipse.jgit.internal.storage.pack.DeltaIndex",method_name="<org.eclipse.jgit.internal.storage.pack.DeltaIndex: int hashBlock(byte[],int)>",type="block",end_line="461",extra="Block 98:\n[preds: 97 ] [succs: 99 ]\n$s82 = $b72 & 255;\n",package_name="org.eclipse.jgit.internal.storage.pack",source_file="DeltaIndex.java",start_line="461",start_column="-1",end_column="-1"];
    98243 [idx="92886",label=">>>\n[line: 462]",start_column="-1",extra="Block 110:\n[preds: 109 ] [succs: 111 ]\n$i88 = i113 >>> 23;\n",package_name="org.eclipse.jgit.internal.storage.pack",class_name="org.eclipse.jgit.internal.storage.pack.DeltaIndex",source_file="DeltaIndex.java",method_name="<org.eclipse.jgit.internal.storage.pack.DeltaIndex: int hashBlock(byte[],int)>",start_line="462",type="block",end_line="462",end_column="-1"];
    98229 [idx="92839",label="|\n[line: 461]",extra="Block 99:\n[preds: 98 ] [succs: 100 ]\n$i77 = $i81 | $s82;\n",class_name="org.eclipse.jgit.internal.storage.pack.DeltaIndex",source_file="DeltaIndex.java",start_line="461",start_column="-1",end_line="461",end_column="-1",package_name="org.eclipse.jgit.internal.storage.pack",method_name="<org.eclipse.jgit.internal.storage.pack.DeltaIndex: int hashBlock(byte[],int)>",type="block"];
    98222 [idx="92861",label="<<\n[line: 461]",class_name="org.eclipse.jgit.internal.storage.pack.DeltaIndex",start_column="-1",end_column="-1",package_name="org.eclipse.jgit.internal.storage.pack",type="block",start_line="461",end_line="461",extra="Block 95:\n[preds: 94 ] [succs: 96 ]\n$i81 = i112 << 8;\n",source_file="DeltaIndex.java",method_name="<org.eclipse.jgit.internal.storage.pack.DeltaIndex: int hashBlock(byte[],int)>"];
    98233 [idx="92843",label="^\n[line: 461]",extra="Block 103:\n[preds: 102 ] [succs: 104 ]\ni113 = $i77 ^ $i78;\n",start_line="461",start_column="-1",package_name="org.eclipse.jgit.internal.storage.pack",class_name="org.eclipse.jgit.internal.storage.pack.DeltaIndex",source_file="DeltaIndex.java",method_name="<org.eclipse.jgit.internal.storage.pack.DeltaIndex: int hashBlock(byte[],int)>",type="block",end_line="461",end_column="-1"];
    98244 [idx="92881",label="const '23'\n[line: 462]",class_name="org.eclipse.jgit.internal.storage.pack.DeltaIndex",type="int",start_line="462",end_column="-1",source_file="DeltaIndex.java",method_name="<org.eclipse.jgit.internal.storage.pack.DeltaIndex: int hashBlock(byte[],int)>",start_column="-1",end_line="462",extra="23",package_name="org.eclipse.jgit.internal.storage.pack"];
    98230 [idx="92836",label="org.eclipse.jgit.internal.storage.pack.DeltaIndex.T\n[line: 461]",class_name="org.eclipse.jgit.internal.storage.pack.DeltaIndex",source_file="DeltaIndex.java",start_line="461",end_line="461",extra="Block 100:\n[preds: 99 ] [succs: 101 ]\n$r10 = <org.eclipse.jgit.internal.storage.pack.DeltaIndex: int[] T>;\n",package_name="org.eclipse.jgit.internal.storage.pack",method_name="<org.eclipse.jgit.internal.storage.pack.DeltaIndex: int hashBlock(byte[],int)>",type="block",start_column="-1",end_column="-1"];
    98224 -> 98226 [label="int:2"];
    98226 -> 98233 [label="int:2"];
    98244 -> 98243 [label="int:2"];
    98222 -> 98229 [label="int:1"];
    98229 -> 98233 [label="int:1"];
    98233 -> 98243 [label="int:1"];
    98230 -> 98226 [label="int[]:1"];
    98227 -> 98229 [label="short:2"];
}

