digraph {
    71877 [idx="68456",label="param 2\n[line: -1]",end_column="-1",extra="Block 3:\n[preds: 2 ] [succs: 4 ]\nr2 := @parameter2: org.eclipse.jgit.diff.RawText;\n",package_name="org.eclipse.jgit.diff",class_name="org.eclipse.jgit.diff.RawTextComparator$4",start_column="-1",end_line="-1",source_file="RawTextComparator.java",method_name="<org.eclipse.jgit.diff.RawTextComparator$4: boolean equals(org.eclipse.jgit.diff.RawText,int,org.eclipse.jgit.diff.RawText,int)>",type="block",start_line="-1"];
    71878 [idx="68459",label="param 3\n[line: -1]",start_line="-1",start_column="-1",end_line="-1",end_column="-1",source_file="RawTextComparator.java",method_name="<org.eclipse.jgit.diff.RawTextComparator$4: boolean equals(org.eclipse.jgit.diff.RawText,int,org.eclipse.jgit.diff.RawText,int)>",extra="Block 4:\n[preds: 3 ] [succs: 5 ]\ni9 := @parameter3: int;\n",package_name="org.eclipse.jgit.diff",class_name="org.eclipse.jgit.diff.RawTextComparator$4",type="block"];
    71882 [idx="68455",label="const '1'\n[line: 177]",extra="1",method_name="<org.eclipse.jgit.diff.RawTextComparator$4: boolean equals(org.eclipse.jgit.diff.RawText,int,org.eclipse.jgit.diff.RawText,int)>",start_column="-1",end_column="-1",package_name="org.eclipse.jgit.diff",class_name="org.eclipse.jgit.diff.RawTextComparator$4",source_file="RawTextComparator.java",type="int",start_line="177",end_line="177"];
    71892 [idx="68472",label="+\n[line: 182]",extra="Block 15:\n[preds: 14 ] [succs: 16 ]\n$i1 = i11 + 1;\n",source_file="RawTextComparator.java",method_name="<org.eclipse.jgit.diff.RawTextComparator$4: boolean equals(org.eclipse.jgit.diff.RawText,int,org.eclipse.jgit.diff.RawText,int)>",start_column="-1",end_line="182",end_column="-1",type="block",start_line="182",package_name="org.eclipse.jgit.diff",class_name="org.eclipse.jgit.diff.RawTextComparator$4"];
    71881 [idx="68452",label="+\n[line: 177]",type="block",start_line="177",end_line="177",end_column="-1",source_file="RawTextComparator.java",method_name="<org.eclipse.jgit.diff.RawTextComparator$4: boolean equals(org.eclipse.jgit.diff.RawText,int,org.eclipse.jgit.diff.RawText,int)>",start_column="-1",extra="Block 6:\n[preds: 5 ] [succs: 7 ]\ni11 = i9 + 1;\n",package_name="org.eclipse.jgit.diff",class_name="org.eclipse.jgit.diff.RawTextComparator$4"];
    71886 [idx="68451",label="call org.eclipse.jgit.util.IntList.get\n[line: 180]",package_name="org.eclipse.jgit.diff",class_name="org.eclipse.jgit.diff.RawTextComparator$4",method_name="<org.eclipse.jgit.diff.RawTextComparator$4: boolean equals(org.eclipse.jgit.diff.RawText,int,org.eclipse.jgit.diff.RawText,int)>",start_line="180",start_column="-1",end_line="180",extra="Block 10:\n[preds: 9 ] [succs: 11 ]\ni13 = virtualinvoke $r4.<org.eclipse.jgit.util.IntList: int get(int)>(i11);\n",type="call",end_column="-1",source_file="RawTextComparator.java"];
    71894 [idx="68474",label="call org.eclipse.jgit.util.IntList.get\n[line: 182]",end_line="182",class_name="org.eclipse.jgit.diff.RawTextComparator$4",source_file="RawTextComparator.java",type="call",start_line="182",method_name="<org.eclipse.jgit.diff.RawTextComparator$4: boolean equals(org.eclipse.jgit.diff.RawText,int,org.eclipse.jgit.diff.RawText,int)>",start_column="-1",end_column="-1",extra="Block 16:\n[preds: 15 ] [succs: 17 ]\ni15 = virtualinvoke $r6.<org.eclipse.jgit.util.IntList: int get(int)>($i1);\n",package_name="org.eclipse.jgit.diff"];
    71885 [idx="68448",label="org.eclipse.jgit.diff.RawText.lines\n[line: 180]",extra="Block 9:\n[preds: 8 ] [succs: 10 ]\n$r4 = r2.<org.eclipse.jgit.diff.RawText: org.eclipse.jgit.util.IntList lines>;\n",package_name="org.eclipse.jgit.diff",source_file="RawTextComparator.java",type="block",start_line="180",end_line="180",class_name="org.eclipse.jgit.diff.RawTextComparator$4",method_name="<org.eclipse.jgit.diff.RawTextComparator$4: boolean equals(org.eclipse.jgit.diff.RawText,int,org.eclipse.jgit.diff.RawText,int)>",start_column="-1",end_column="-1"];
    71891 [idx="68479",label="org.eclipse.jgit.diff.RawText.lines\n[line: 182]",class_name="org.eclipse.jgit.diff.RawTextComparator$4",start_column="-1",end_line="182",end_column="-1",extra="Block 14:\n[preds: 13 ] [succs: 15 ]\n$r6 = r2.<org.eclipse.jgit.diff.RawText: org.eclipse.jgit.util.IntList lines>;\n",package_name="org.eclipse.jgit.diff",source_file="RawTextComparator.java",method_name="<org.eclipse.jgit.diff.RawTextComparator$4: boolean equals(org.eclipse.jgit.diff.RawText,int,org.eclipse.jgit.diff.RawText,int)>",type="block",start_line="182"];
    71882 -> 71881 [label="int:2"];
    71892 -> 71894 [label="int:1"];
    71878 -> 71881 [label="int:1"];
    71881 -> 71886 [label="int:1"];
    71881 -> 71892 [label="int:1"];
    71877 -> 71885 [label="org.eclipse.jgit.diff.RawText:1"];
    71877 -> 71891 [label="org.eclipse.jgit.diff.RawText:1"];
    71885 -> 71886 [label="org.eclipse.jgit.util.IntList:2"];
    71891 -> 71894 [label="org.eclipse.jgit.util.IntList:2"];
}

