digraph {
    71603 [idx="66807",label="param 2\n[line: -1]",package_name="org.eclipse.jgit.diff",source_file="RawTextComparator.java",method_name="<org.eclipse.jgit.diff.RawTextComparator$2: boolean equals(org.eclipse.jgit.diff.RawText,int,org.eclipse.jgit.diff.RawText,int)>",type="block",start_column="-1",end_line="-1",end_column="-1",start_line="-1",extra="Block 3:\n[preds: 2 ] [succs: 4 ]\nr2 := @parameter2: org.eclipse.jgit.diff.RawText;\n",class_name="org.eclipse.jgit.diff.RawTextComparator$2"];
    71604 [idx="66800",label="param 3\n[line: -1]",source_file="RawTextComparator.java",method_name="<org.eclipse.jgit.diff.RawTextComparator$2: boolean equals(org.eclipse.jgit.diff.RawText,int,org.eclipse.jgit.diff.RawText,int)>",start_line="-1",extra="Block 4:\n[preds: 3 ] [succs: 5 ]\ni5 := @parameter3: int;\n",package_name="org.eclipse.jgit.diff",class_name="org.eclipse.jgit.diff.RawTextComparator$2",start_column="-1",end_line="-1",end_column="-1",type="block"];
    71608 [idx="66812",label="const '1'\n[line: 91]",class_name="org.eclipse.jgit.diff.RawTextComparator$2",type="int",start_column="-1",start_line="91",end_line="91",end_column="-1",extra="1",package_name="org.eclipse.jgit.diff",source_file="RawTextComparator.java",method_name="<org.eclipse.jgit.diff.RawTextComparator$2: boolean equals(org.eclipse.jgit.diff.RawText,int,org.eclipse.jgit.diff.RawText,int)>"];
    71618 [idx="66689",label="+\n[line: 96]",source_file="RawTextComparator.java",method_name="<org.eclipse.jgit.diff.RawTextComparator$2: boolean equals(org.eclipse.jgit.diff.RawText,int,org.eclipse.jgit.diff.RawText,int)>",type="block",start_line="96",start_column="-1",package_name="org.eclipse.jgit.diff",end_line="96",extra="Block 15:\n[preds: 14 ] [succs: 16 ]\n$i1 = i7 + 1;\n",class_name="org.eclipse.jgit.diff.RawTextComparator$2",end_column="-1"];
    71607 [idx="66803",label="+\n[line: 91]",end_column="-1",package_name="org.eclipse.jgit.diff",source_file="RawTextComparator.java",method_name="<org.eclipse.jgit.diff.RawTextComparator$2: boolean equals(org.eclipse.jgit.diff.RawText,int,org.eclipse.jgit.diff.RawText,int)>",start_line="91",start_column="-1",end_line="91",extra="Block 6:\n[preds: 5 ] [succs: 7 ]\ni7 = i5 + 1;\n",class_name="org.eclipse.jgit.diff.RawTextComparator$2",type="block"];
    71620 [idx="66695",label="call org.eclipse.jgit.util.IntList.get\n[line: 96]",type="call",start_line="96",start_column="-1",source_file="RawTextComparator.java",method_name="<org.eclipse.jgit.diff.RawTextComparator$2: boolean equals(org.eclipse.jgit.diff.RawText,int,org.eclipse.jgit.diff.RawText,int)>",end_column="-1",extra="Block 16:\n[preds: 15 ] [succs: 17 ]\ni11 = virtualinvoke $r6.<org.eclipse.jgit.util.IntList: int get(int)>($i1);\n",package_name="org.eclipse.jgit.diff",class_name="org.eclipse.jgit.diff.RawTextComparator$2",end_line="96"];
    71612 [idx="66808",label="call org.eclipse.jgit.util.IntList.get\n[line: 94]",extra="Block 10:\n[preds: 9 ] [succs: 11 ]\ni9 = virtualinvoke $r4.<org.eclipse.jgit.util.IntList: int get(int)>(i7);\n",package_name="org.eclipse.jgit.diff",class_name="org.eclipse.jgit.diff.RawTextComparator$2",method_name="<org.eclipse.jgit.diff.RawTextComparator$2: boolean equals(org.eclipse.jgit.diff.RawText,int,org.eclipse.jgit.diff.RawText,int)>",type="call",start_line="94",source_file="RawTextComparator.java",start_column="-1",end_line="94",end_column="-1"];
    71617 [idx="66690",label="org.eclipse.jgit.diff.RawText.lines\n[line: 96]",start_column="-1",extra="Block 14:\n[preds: 13 ] [succs: 15 ]\n$r6 = r2.<org.eclipse.jgit.diff.RawText: org.eclipse.jgit.util.IntList lines>;\n",package_name="org.eclipse.jgit.diff",class_name="org.eclipse.jgit.diff.RawTextComparator$2",source_file="RawTextComparator.java",start_line="96",end_line="96",end_column="-1",method_name="<org.eclipse.jgit.diff.RawTextComparator$2: boolean equals(org.eclipse.jgit.diff.RawText,int,org.eclipse.jgit.diff.RawText,int)>",type="block"];
    71611 [idx="66815",label="org.eclipse.jgit.diff.RawText.lines\n[line: 94]",package_name="org.eclipse.jgit.diff",source_file="RawTextComparator.java",method_name="<org.eclipse.jgit.diff.RawTextComparator$2: boolean equals(org.eclipse.jgit.diff.RawText,int,org.eclipse.jgit.diff.RawText,int)>",start_line="94",start_column="-1",extra="Block 9:\n[preds: 8 ] [succs: 10 ]\n$r4 = r2.<org.eclipse.jgit.diff.RawText: org.eclipse.jgit.util.IntList lines>;\n",class_name="org.eclipse.jgit.diff.RawTextComparator$2",type="block",end_line="94",end_column="-1"];
    71608 -> 71607 [label="int:2"];
    71618 -> 71620 [label="int:1"];
    71604 -> 71607 [label="int:1"];
    71607 -> 71618 [label="int:1"];
    71607 -> 71612 [label="int:1"];
    71603 -> 71611 [label="org.eclipse.jgit.diff.RawText:1"];
    71617 -> 71620 [label="org.eclipse.jgit.util.IntList:2"];
    71611 -> 71612 [label="org.eclipse.jgit.util.IntList:2"];
}

