digraph {
    71474 [idx="66687",label="param 2\n[line: -1]",package_name="org.eclipse.jgit.diff",source_file="RawTextComparator.java",start_line="-1",start_column="-1",end_line="-1",end_column="-1",extra="Block 3:\n[preds: 2 ] [succs: 4 ]\nr2 := @parameter2: org.eclipse.jgit.diff.RawText;\n",class_name="org.eclipse.jgit.diff.RawTextComparator$1",method_name="<org.eclipse.jgit.diff.RawTextComparator$1: boolean equals(org.eclipse.jgit.diff.RawText,int,org.eclipse.jgit.diff.RawText,int)>",type="block"];
    71475 [idx="66686",label="param 3\n[line: -1]",package_name="org.eclipse.jgit.diff",method_name="<org.eclipse.jgit.diff.RawTextComparator$1: boolean equals(org.eclipse.jgit.diff.RawText,int,org.eclipse.jgit.diff.RawText,int)>",start_line="-1",start_column="-1",end_line="-1",end_column="-1",class_name="org.eclipse.jgit.diff.RawTextComparator$1",source_file="RawTextComparator.java",type="block",extra="Block 4:\n[preds: 3 ] [succs: 5 ]\ni11 := @parameter3: int;\n"];
    71490 [idx="66568",label="const '1'\n[line: 65]",start_line="65",start_column="-1",class_name="org.eclipse.jgit.diff.RawTextComparator$1",method_name="<org.eclipse.jgit.diff.RawTextComparator$1: boolean equals(org.eclipse.jgit.diff.RawText,int,org.eclipse.jgit.diff.RawText,int)>",source_file="RawTextComparator.java",type="int",end_line="65",end_column="-1",extra="1",package_name="org.eclipse.jgit.diff"];
    71479 [idx="66682",label="const '1'\n[line: 60]",type="int",end_line="60",start_column="-1",end_column="-1",extra="1",package_name="org.eclipse.jgit.diff",class_name="org.eclipse.jgit.diff.RawTextComparator$1",source_file="RawTextComparator.java",method_name="<org.eclipse.jgit.diff.RawTextComparator$1: boolean equals(org.eclipse.jgit.diff.RawText,int,org.eclipse.jgit.diff.RawText,int)>",start_line="60"];
    71489 [idx="66571",label="+\n[line: 65]",source_file="RawTextComparator.java",end_line="65",extra="Block 15:\n[preds: 14 ] [succs: 16 ]\n$i3 = i13 + 1;\n",package_name="org.eclipse.jgit.diff",class_name="org.eclipse.jgit.diff.RawTextComparator$1",type="block",start_line="65",start_column="-1",end_column="-1",method_name="<org.eclipse.jgit.diff.RawTextComparator$1: boolean equals(org.eclipse.jgit.diff.RawText,int,org.eclipse.jgit.diff.RawText,int)>"];
    71478 [idx="66683",label="+\n[line: 60]",extra="Block 6:\n[preds: 5 ] [succs: 7 ]\ni13 = i11 + 1;\n",source_file="RawTextComparator.java",end_column="-1",package_name="org.eclipse.jgit.diff",class_name="org.eclipse.jgit.diff.RawTextComparator$1",method_name="<org.eclipse.jgit.diff.RawTextComparator$1: boolean equals(org.eclipse.jgit.diff.RawText,int,org.eclipse.jgit.diff.RawText,int)>",type="block",start_line="60",start_column="-1",end_line="60"];
    71491 [idx="66569",label="call org.eclipse.jgit.util.IntList.get\n[line: 65]",package_name="org.eclipse.jgit.diff",class_name="org.eclipse.jgit.diff.RawTextComparator$1",source_file="RawTextComparator.java",start_column="-1",end_line="65",extra="Block 16:\n[preds: 15 ] [succs: 17 ]\ni1 = virtualinvoke $r6.<org.eclipse.jgit.util.IntList: int get(int)>($i3);\n",method_name="<org.eclipse.jgit.diff.RawTextComparator$1: boolean equals(org.eclipse.jgit.diff.RawText,int,org.eclipse.jgit.diff.RawText,int)>",type="call",start_line="65",end_column="-1"];
    71483 [idx="66678",label="call org.eclipse.jgit.util.IntList.get\n[line: 63]",source_file="RawTextComparator.java",end_line="63",end_column="-1",extra="Block 10:\n[preds: 9 ] [succs: 11 ]\ni15 = virtualinvoke $r4.<org.eclipse.jgit.util.IntList: int get(int)>(i13);\n",type="call",start_line="63",start_column="-1",package_name="org.eclipse.jgit.diff",class_name="org.eclipse.jgit.diff.RawTextComparator$1",method_name="<org.eclipse.jgit.diff.RawTextComparator$1: boolean equals(org.eclipse.jgit.diff.RawText,int,org.eclipse.jgit.diff.RawText,int)>"];
    71482 [idx="66679",label="org.eclipse.jgit.diff.RawText.lines\n[line: 63]",class_name="org.eclipse.jgit.diff.RawTextComparator$1",start_line="63",start_column="-1",end_column="-1",extra="Block 9:\n[preds: 8 ] [succs: 10 ]\n$r4 = r2.<org.eclipse.jgit.diff.RawText: org.eclipse.jgit.util.IntList lines>;\n",package_name="org.eclipse.jgit.diff",source_file="RawTextComparator.java",method_name="<org.eclipse.jgit.diff.RawTextComparator$1: boolean equals(org.eclipse.jgit.diff.RawText,int,org.eclipse.jgit.diff.RawText,int)>",type="block",end_line="63"];
    71490 -> 71489 [label="int:2"];
    71479 -> 71478 [label="int:2"];
    71475 -> 71478 [label="int:1"];
    71478 -> 71489 [label="int:1"];
    71489 -> 71491 [label="int:1"];
    71478 -> 71483 [label="int:1"];
    71474 -> 71482 [label="org.eclipse.jgit.diff.RawText:1"];
    71482 -> 71483 [label="org.eclipse.jgit.util.IntList:2"];
}

