digraph {
    71768 [idx="68605",label="param 2\n[line: -1]",package_name="org.eclipse.jgit.diff",source_file="RawTextComparator.java",method_name="<org.eclipse.jgit.diff.RawTextComparator$3: boolean equals(org.eclipse.jgit.diff.RawText,int,org.eclipse.jgit.diff.RawText,int)>",start_line="-1",end_line="-1",end_column="-1",extra="Block 3:\n[preds: 2 ] [succs: 4 ]\nr2 := @parameter2: org.eclipse.jgit.diff.RawText;\n",class_name="org.eclipse.jgit.diff.RawTextComparator$3",type="block",start_column="-1"];
    71769 [idx="68604",label="param 3\n[line: -1]",extra="Block 4:\n[preds: 3 ] [succs: 5 ]\ni11 := @parameter3: int;\n",start_line="-1",end_line="-1",start_column="-1",end_column="-1",package_name="org.eclipse.jgit.diff",class_name="org.eclipse.jgit.diff.RawTextComparator$3",source_file="RawTextComparator.java",method_name="<org.eclipse.jgit.diff.RawTextComparator$3: boolean equals(org.eclipse.jgit.diff.RawText,int,org.eclipse.jgit.diff.RawText,int)>",type="block"];
    71773 [idx="68600",label="const '1'\n[line: 142]",class_name="org.eclipse.jgit.diff.RawTextComparator$3",start_line="142",end_line="142",package_name="org.eclipse.jgit.diff",source_file="RawTextComparator.java",method_name="<org.eclipse.jgit.diff.RawTextComparator$3: boolean equals(org.eclipse.jgit.diff.RawText,int,org.eclipse.jgit.diff.RawText,int)>",type="int",start_column="-1",extra="1",end_column="-1"];
    71783 [idx="68545",label="+\n[line: 147]",end_line="147",end_column="-1",package_name="org.eclipse.jgit.diff",type="block",start_line="147",start_column="-1",extra="Block 15:\n[preds: 14 ] [succs: 16 ]\n$i3 = i13 + 1;\n",class_name="org.eclipse.jgit.diff.RawTextComparator$3",source_file="RawTextComparator.java",method_name="<org.eclipse.jgit.diff.RawTextComparator$3: boolean equals(org.eclipse.jgit.diff.RawText,int,org.eclipse.jgit.diff.RawText,int)>"];
    71772 [idx="68601",label="+\n[line: 142]",end_column="-1",extra="Block 6:\n[preds: 5 ] [succs: 7 ]\ni13 = i11 + 1;\n",type="block",start_line="142",method_name="<org.eclipse.jgit.diff.RawTextComparator$3: boolean equals(org.eclipse.jgit.diff.RawText,int,org.eclipse.jgit.diff.RawText,int)>",start_column="-1",end_line="142",package_name="org.eclipse.jgit.diff",class_name="org.eclipse.jgit.diff.RawTextComparator$3",source_file="RawTextComparator.java"];
    71785 [idx="68559",label="call org.eclipse.jgit.util.IntList.get\n[line: 147]",package_name="org.eclipse.jgit.diff",source_file="RawTextComparator.java",type="call",start_column="-1",end_line="147",extra="Block 16:\n[preds: 15 ] [succs: 17 ]\ni1 = virtualinvoke $r6.<org.eclipse.jgit.util.IntList: int get(int)>($i3);\n",class_name="org.eclipse.jgit.diff.RawTextComparator$3",method_name="<org.eclipse.jgit.diff.RawTextComparator$3: boolean equals(org.eclipse.jgit.diff.RawText,int,org.eclipse.jgit.diff.RawText,int)>",start_line="147",end_column="-1"];
    71777 [idx="68551",label="call org.eclipse.jgit.util.IntList.get\n[line: 145]",extra="Block 10:\n[preds: 9 ] [succs: 11 ]\ni15 = virtualinvoke $r4.<org.eclipse.jgit.util.IntList: int get(int)>(i13);\n",source_file="RawTextComparator.java",end_line="145",end_column="-1",package_name="org.eclipse.jgit.diff",class_name="org.eclipse.jgit.diff.RawTextComparator$3",method_name="<org.eclipse.jgit.diff.RawTextComparator$3: boolean equals(org.eclipse.jgit.diff.RawText,int,org.eclipse.jgit.diff.RawText,int)>",type="call",start_line="145",start_column="-1"];
    71782 [idx="68544",label="org.eclipse.jgit.diff.RawText.lines\n[line: 147]",class_name="org.eclipse.jgit.diff.RawTextComparator$3",source_file="RawTextComparator.java",method_name="<org.eclipse.jgit.diff.RawTextComparator$3: boolean equals(org.eclipse.jgit.diff.RawText,int,org.eclipse.jgit.diff.RawText,int)>",start_line="147",end_line="147",extra="Block 14:\n[preds: 13 ] [succs: 15 ]\n$r6 = r2.<org.eclipse.jgit.diff.RawText: org.eclipse.jgit.util.IntList lines>;\n",package_name="org.eclipse.jgit.diff",type="block",start_column="-1",end_column="-1"];
    71776 [idx="68550",label="org.eclipse.jgit.diff.RawText.lines\n[line: 145]",extra="Block 9:\n[preds: 8 ] [succs: 10 ]\n$r4 = r2.<org.eclipse.jgit.diff.RawText: org.eclipse.jgit.util.IntList lines>;\n",class_name="org.eclipse.jgit.diff.RawTextComparator$3",method_name="<org.eclipse.jgit.diff.RawTextComparator$3: boolean equals(org.eclipse.jgit.diff.RawText,int,org.eclipse.jgit.diff.RawText,int)>",type="block",start_column="-1",end_line="145",end_column="-1",package_name="org.eclipse.jgit.diff",source_file="RawTextComparator.java",start_line="145"];
    71773 -> 71772 [label="int:2"];
    71783 -> 71785 [label="int:1"];
    71769 -> 71772 [label="int:1"];
    71772 -> 71783 [label="int:1"];
    71772 -> 71777 [label="int:1"];
    71768 -> 71776 [label="org.eclipse.jgit.diff.RawText:1"];
    71782 -> 71785 [label="org.eclipse.jgit.util.IntList:2"];
    71776 -> 71777 [label="org.eclipse.jgit.util.IntList:2"];
}

