digraph {
    91367 [idx="94327",label="array index\n[line: 1083]",end_line="1083",end_column="-1",method_name="<org.eclipse.jgit.internal.storage.dfs.DfsPackFile: void representation(org.eclipse.jgit.internal.storage.dfs.DfsObjectRepresentation,long,org.eclipse.jgit.internal.storage.dfs.DfsReader,org.eclipse.jgit.internal.storage.file.PackReverseIndex)>",start_line="1083",start_column="-1",package_name="org.eclipse.jgit.internal.storage.dfs",class_name="org.eclipse.jgit.internal.storage.dfs.DfsPackFile",source_file="DfsPackFile.java",type="block",extra="Block 72:\n[preds: 71 ] [succs: 73 ]\n$r7[0] = $r12;\n"];
    91371 [idx="94331",label="throw\n[line: 1083]",end_column="-1",package_name="org.eclipse.jgit.internal.storage.dfs",method_name="<org.eclipse.jgit.internal.storage.dfs.DfsPackFile: void representation(org.eclipse.jgit.internal.storage.dfs.DfsObjectRepresentation,long,org.eclipse.jgit.internal.storage.dfs.DfsReader,org.eclipse.jgit.internal.storage.file.PackReverseIndex)>",type="block",start_line="1083",start_column="-1",extra="Block 75:\n[preds: 74 ] [succs: ]\nthrow $r9;\n",class_name="org.eclipse.jgit.internal.storage.dfs.DfsPackFile",source_file="DfsPackFile.java",end_line="1083"];
    91310 [idx="94266",label="-\n[line: 1056]",start_line="1056",end_line="1056",end_column="-1",extra="Block 28:\n[preds: 27 ] [succs: 29 ]\n$l9 = l2 - $l10;\n",class_name="org.eclipse.jgit.internal.storage.dfs.DfsPackFile",source_file="DfsPackFile.java",start_column="-1",package_name="org.eclipse.jgit.internal.storage.dfs",method_name="<org.eclipse.jgit.internal.storage.dfs.DfsPackFile: void representation(org.eclipse.jgit.internal.storage.dfs.DfsObjectRepresentation,long,org.eclipse.jgit.internal.storage.dfs.DfsReader,org.eclipse.jgit.internal.storage.file.PackReverseIndex)>",type="block"];
    91362 [idx="94322",label="call org.eclipse.jgit.internal.JGitText.get\n[line: 1083]",extra="Block 68:\n[preds: 67 ] [succs: 69 ]\n$r10 = staticinvoke <org.eclipse.jgit.internal.JGitText: org.eclipse.jgit.internal.JGitText get()>();\n",class_name="org.eclipse.jgit.internal.storage.dfs.DfsPackFile",source_file="DfsPackFile.java",type="call",package_name="org.eclipse.jgit.internal.storage.dfs",method_name="<org.eclipse.jgit.internal.storage.dfs.DfsPackFile: void representation(org.eclipse.jgit.internal.storage.dfs.DfsObjectRepresentation,long,org.eclipse.jgit.internal.storage.dfs.DfsReader,org.eclipse.jgit.internal.storage.file.PackReverseIndex)>",start_line="1083",start_column="-1",end_line="1083",end_column="-1"];
    91313 [idx="94244",label="+\n[line: 1060]",extra="Block 31:\n[preds: 24 ] [succs: 32 ]\ni30 = i29 + 1;\n",package_name="org.eclipse.jgit.internal.storage.dfs",source_file="DfsPackFile.java",end_line="1060",end_column="-1",class_name="org.eclipse.jgit.internal.storage.dfs.DfsPackFile",method_name="<org.eclipse.jgit.internal.storage.dfs.DfsPackFile: void representation(org.eclipse.jgit.internal.storage.dfs.DfsObjectRepresentation,long,org.eclipse.jgit.internal.storage.dfs.DfsReader,org.eclipse.jgit.internal.storage.file.PackReverseIndex)>",type="block",start_line="1060",start_column="-1"];
    91296 [idx="94260",label="+\n[line: 1046]",class_name="org.eclipse.jgit.internal.storage.dfs.DfsPackFile",source_file="DfsPackFile.java",end_line="1046",end_column="-1",extra="Block 16:\n[preds: 15 ] [succs: 17 ]\ni29 = i29 + 1;\n",package_name="org.eclipse.jgit.internal.storage.dfs",method_name="<org.eclipse.jgit.internal.storage.dfs.DfsPackFile: void representation(org.eclipse.jgit.internal.storage.dfs.DfsObjectRepresentation,long,org.eclipse.jgit.internal.storage.dfs.DfsReader,org.eclipse.jgit.internal.storage.file.PackReverseIndex)>",type="block",start_line="1046",start_column="-1"];
    91321 [idx="94252",label="&\n[line: 1062]",extra="Block 36:\n[preds: 35 47 ] [succs: 37 ]\n$s17 = s31 & 128;\n",class_name="org.eclipse.jgit.internal.storage.dfs.DfsPackFile",start_column="-1",end_line="1062",end_column="-1",package_name="org.eclipse.jgit.internal.storage.dfs",source_file="DfsPackFile.java",method_name="<org.eclipse.jgit.internal.storage.dfs.DfsPackFile: void representation(org.eclipse.jgit.internal.storage.dfs.DfsObjectRepresentation,long,org.eclipse.jgit.internal.storage.dfs.DfsReader,org.eclipse.jgit.internal.storage.file.PackReverseIndex)>",type="block",start_line="1062"];
    91289 [idx="94222",label="&\n[line: 1044]",package_name="org.eclipse.jgit.internal.storage.dfs",source_file="DfsPackFile.java",method_name="<org.eclipse.jgit.internal.storage.dfs.DfsPackFile: void representation(org.eclipse.jgit.internal.storage.dfs.DfsObjectRepresentation,long,org.eclipse.jgit.internal.storage.dfs.DfsReader,org.eclipse.jgit.internal.storage.file.PackReverseIndex)>",start_line="1044",start_column="-1",end_line="1044",extra="Block 12:\n[preds: 11 ] [succs: 13 ]\ns1 = $s4 & 7;\n",class_name="org.eclipse.jgit.internal.storage.dfs.DfsPackFile",type="block",end_column="-1"];
    91306 [idx="94270",label="switch\n[line: 1049]",method_name="<org.eclipse.jgit.internal.storage.dfs.DfsPackFile: void representation(org.eclipse.jgit.internal.storage.dfs.DfsObjectRepresentation,long,org.eclipse.jgit.internal.storage.dfs.DfsReader,org.eclipse.jgit.internal.storage.file.PackReverseIndex)>",end_column="-1",class_name="org.eclipse.jgit.internal.storage.dfs.DfsPackFile",source_file="DfsPackFile.java",type="block",start_line="1049",start_column="-1",end_line="1049",extra="Block 24:\n[preds: 23 ] [succs: 25 67 31 56 ]\ntableswitch(s1) {     case 1: goto r1.<org.eclipse.jgit.internal.storage.dfs.DfsObjectRepresentation: int format> = 1;     case 2: goto r1.<org.eclipse.jgit.internal.storage.dfs.DfsObjectRepresentation: int format> = 1;     case 3: goto r1.<org.eclipse.jgit.internal.storage.dfs.DfsObjectRepresentation: int format> = 1;     case 4: goto r1.<org.eclipse.jgit.internal.storage.dfs.DfsObjectRepresentation: int format> = 1;     case 5: goto $r9 = new java.io.IOException;     case 6: goto i30 = i29 + 1;     case 7: goto $l12 = (long) i29;     default: goto $r9 = new java.io.IOException; };\n",package_name="org.eclipse.jgit.internal.storage.dfs"];
    91306 -> 91367 [label=""];
    91306 -> 91371 [label=""];
    91306 -> 91310 [label=""];
    91306 -> 91362 [label=""];
    91306 -> 91313 [label=""];
    91306 -> 91321 [label=""];
    91296 -> 91313 [label="int:1"];
    91289 -> 91306 [label="short:0"];
}

