digraph {
    100002 [idx="105948",label="cast"];
    100012 [idx="105938",label="new"];
    100000 [idx="105950",label="const '0'"];
    99999 [idx="105954",label="=="];
    99964 [idx="105742",label="=="];
    100001 [idx="105951",label="call java.util.Iterator.next"];
    99998 [idx="105955",label="call java.util.Iterator.hasNext"];
    100015 [idx="105937",label="call java.util.List.iterator"];
    100013 [idx="105939",label="call java.util.ArrayList.<init>"];
    99999 -> 100002 [label=""];
    99999 -> 99998 [label=""];
    99964 -> 99998 [label=""];
    99964 -> 100015 [label=""];
    99964 -> 100013 [label=""];
    99998 -> 99999 [label="boolean:0"];
    100000 -> 99999 [label="int:1"];
    100012 -> 100013 [label="java.util.ArrayList:0"];
    100001 -> 100002 [label="java.lang.Object:1"];
}

