digraph {
    52170 [idx="50925",label="return\n[line: 153]",type="block",start_column="-1",class_name="org.eclipse.jgit.api.ListBranchCommand",source_file="ListBranchCommand.java",method_name="<org.eclipse.jgit.api.ListBranchCommand: java.util.Collection filterRefs(java.util.Collection)>",end_line="153",end_column="-1",extra="Block 25:\n[preds: 24 ] [succs: ]\nreturn r5;\n",package_name="org.eclipse.jgit.api",start_line="153"];
    52156 [idx="50844",label="new\n[line: 146]",extra="Block 13:\n[preds: 12 ] [succs: 14 ]\n$r12 = new org.eclipse.jgit.api.errors.RefNotFoundException;\n",package_name="org.eclipse.jgit.api",class_name="org.eclipse.jgit.api.ListBranchCommand",method_name="<org.eclipse.jgit.api.ListBranchCommand: java.util.Collection filterRefs(java.util.Collection)>",type="block",source_file="ListBranchCommand.java",start_line="146",start_column="-1",end_line="146",end_column="-1"];
    52166 [idx="50913",label="throw\n[line: 146]",start_column="-1",package_name="org.eclipse.jgit.api",class_name="org.eclipse.jgit.api.ListBranchCommand",source_file="ListBranchCommand.java",method_name="<org.eclipse.jgit.api.ListBranchCommand: java.util.Collection filterRefs(java.util.Collection)>",type="block",start_line="146",end_line="146",end_column="-1",extra="Block 21:\n[preds: 20 ] [succs: ]\nthrow $r12;\n"];
    52154 [idx="50842",label="!=\n[line: 145]",method_name="<org.eclipse.jgit.api.ListBranchCommand: java.util.Collection filterRefs(java.util.Collection)>",start_column="-1",end_line="145",end_column="-1",extra="Block 12:\n[preds: 11 ] [succs: 13 22 ]\nif r3 != null goto r4 = virtualinvoke r2.<org.eclipse.jgit.revwalk.RevWalk: org.eclipse.jgit.revwalk.RevCommit parseCommit(org.eclipse.jgit.lib.AnyObjectId)>(r3);\n",package_name="org.eclipse.jgit.api",class_name="org.eclipse.jgit.api.ListBranchCommand",source_file="ListBranchCommand.java",type="control",start_line="145"];
    52164 [idx="50915",label="call java.text.MessageFormat.format\n[line: 146]",method_name="<org.eclipse.jgit.api.ListBranchCommand: java.util.Collection filterRefs(java.util.Collection)>",start_line="146",start_column="-1",end_line="146",type="call",end_column="-1",extra="Block 19:\n[preds: 18 ] [succs: 20 ]\n$r18 = staticinvoke <java.text.MessageFormat: java.lang.String format(java.lang.String,java.lang.Object[])>($r15, $r13);\n",package_name="org.eclipse.jgit.api",class_name="org.eclipse.jgit.api.ListBranchCommand",source_file="ListBranchCommand.java"];
    52153 [idx="50841",label="call org.eclipse.jgit.lib.Repository.resolve\n[line: 144]",extra="Block 11:\n[preds: 10 ] [succs: 12 ]\nr3 = virtualinvoke $r11.<org.eclipse.jgit.lib.Repository: org.eclipse.jgit.lib.ObjectId resolve(java.lang.String)>($r10);\n",package_name="org.eclipse.jgit.api",type="call",method_name="<org.eclipse.jgit.api.ListBranchCommand: java.util.Collection filterRefs(java.util.Collection)>",start_line="144",start_column="-1",end_line="144",class_name="org.eclipse.jgit.api.ListBranchCommand",source_file="ListBranchCommand.java",end_column="-1"];
    52151 [idx="50839",label="org.eclipse.jgit.api.GitCommand.repo\n[line: 144]",class_name="org.eclipse.jgit.api.ListBranchCommand",method_name="<org.eclipse.jgit.api.ListBranchCommand: java.util.Collection filterRefs(java.util.Collection)>",type="block",start_line="144",end_column="-1",extra="Block 9:\n[preds: 8 ] [succs: 10 ]\n$r11 = r0.<org.eclipse.jgit.api.ListBranchCommand: org.eclipse.jgit.lib.Repository repo>;\n",package_name="org.eclipse.jgit.api",source_file="ListBranchCommand.java",start_column="-1",end_line="144"];
    52158 [idx="50846",label="org.eclipse.jgit.internal.JGitText.refNotResolved\n[line: 146]",package_name="org.eclipse.jgit.api",type="block",start_line="146",start_column="-1",end_line="146",extra="Block 15:\n[preds: 14 ] [succs: 16 ]\n$r15 = $r14.<org.eclipse.jgit.internal.JGitText: java.lang.String refNotResolved>;\n",class_name="org.eclipse.jgit.api.ListBranchCommand",source_file="ListBranchCommand.java",method_name="<org.eclipse.jgit.api.ListBranchCommand: java.util.Collection filterRefs(java.util.Collection)>",end_column="-1"];
    52165 [idx="50914",label="call org.eclipse.jgit.api.errors.RefNotFoundException.<init>\n[line: 146]",type="call",extra="Block 20:\n[preds: 19 ] [succs: 21 ]\nspecialinvoke $r12.<org.eclipse.jgit.api.errors.RefNotFoundException: void <init>(java.lang.String)>($r18);\n",package_name="org.eclipse.jgit.api",class_name="org.eclipse.jgit.api.ListBranchCommand",method_name="<org.eclipse.jgit.api.ListBranchCommand: java.util.Collection filterRefs(java.util.Collection)>",source_file="ListBranchCommand.java",start_line="146",start_column="-1",end_line="146",end_column="-1"];
    52154 -> 52170 [label=""];
    52154 -> 52166 [label=""];
    52154 -> 52165 [label=""];
    52153 -> 52154 [label="org.eclipse.jgit.lib.ObjectId:0"];
    52156 -> 52165 [label="org.eclipse.jgit.api.errors.RefNotFoundException:1"];
    52151 -> 52153 [label="org.eclipse.jgit.lib.Repository:2"];
    52164 -> 52165 [label="java.lang.String:0"];
    52158 -> 52164 [label="java.lang.String:1"];
}

