digraph {
    49842 [idx="53008",label="new\n[line: 160]",extra="Block 12:\n[preds: 11 ] [succs: 13 ]\n$r70 = new org.eclipse.jgit.api.errors.WrongRepositoryStateException;\n",package_name="org.eclipse.jgit.api",class_name="org.eclipse.jgit.api.CommitCommand",source_file="CommitCommand.java",type="block",start_column="-1",end_column="-1",method_name="<org.eclipse.jgit.api.CommitCommand: org.eclipse.jgit.revwalk.RevCommit call()>",start_line="160",end_line="160"];
    49849 [idx="53019",label="const '0'\n[line: 160]",package_name="org.eclipse.jgit.api",method_name="<org.eclipse.jgit.api.CommitCommand: org.eclipse.jgit.revwalk.RevCommit call()>",type="int",start_column="-1",extra="0",class_name="org.eclipse.jgit.api.CommitCommand",source_file="CommitCommand.java",start_line="160",end_line="160",end_column="-1"];
    49846 [idx="53012",label="const '1'\n[line: 160]",source_file="CommitCommand.java",type="int",end_line="160",end_column="-1",extra="1",package_name="org.eclipse.jgit.api",class_name="org.eclipse.jgit.api.CommitCommand",method_name="<org.eclipse.jgit.api.CommitCommand: org.eclipse.jgit.revwalk.RevCommit call()>",start_line="160",start_column="-1"];
    49848 [idx="53018",label="array index\n[line: 160]",class_name="org.eclipse.jgit.api.CommitCommand",method_name="<org.eclipse.jgit.api.CommitCommand: org.eclipse.jgit.revwalk.RevCommit call()>",start_column="-1",extra="Block 17:\n[preds: 16 ] [succs: 18 ]\n$r68[0] = $r82;\n",source_file="CommitCommand.java",type="block",start_line="160",end_line="160",end_column="-1",package_name="org.eclipse.jgit.api"];
    49845 [idx="53015",label="new-array\n[line: 160]",start_column="-1",end_column="-1",extra="Block 15:\n[preds: 14 ] [succs: 16 ]\n$r68 = newarray (java.lang.Object)[1];\n",source_file="CommitCommand.java",type="block",start_line="160",end_line="160",package_name="org.eclipse.jgit.api",class_name="org.eclipse.jgit.api.CommitCommand",method_name="<org.eclipse.jgit.api.CommitCommand: org.eclipse.jgit.revwalk.RevCommit call()>"];
    49850 [idx="53016",label="call java.text.MessageFormat.format\n[line: 160]",extra="Block 18:\n[preds: 17 ] [succs: 19 ]\n$r81 = staticinvoke <java.text.MessageFormat: java.lang.String format(java.lang.String,java.lang.Object[])>($r69, $r68);\n",start_column="-1",end_line="160",end_column="-1",package_name="org.eclipse.jgit.api",class_name="org.eclipse.jgit.api.CommitCommand",source_file="CommitCommand.java",method_name="<org.eclipse.jgit.api.CommitCommand: org.eclipse.jgit.revwalk.RevCommit call()>",type="call",start_line="160"];
    49838 [idx="53005",label="call org.eclipse.jgit.lib.Repository.getRepositoryState\n[line: 158]",extra="Block 9:\n[preds: 8 ] [succs: 10 ]\nr90 = virtualinvoke $r11.<org.eclipse.jgit.lib.Repository: org.eclipse.jgit.lib.RepositoryState getRepositoryState()>();\n",package_name="org.eclipse.jgit.api",method_name="<org.eclipse.jgit.api.CommitCommand: org.eclipse.jgit.revwalk.RevCommit call()>",type="call",end_column="-1",class_name="org.eclipse.jgit.api.CommitCommand",source_file="CommitCommand.java",start_line="158",start_column="-1",end_line="158"];
    49847 [idx="53013",label="call org.eclipse.jgit.lib.RepositoryState.name\n[line: 160]",source_file="CommitCommand.java",method_name="<org.eclipse.jgit.api.CommitCommand: org.eclipse.jgit.revwalk.RevCommit call()>",start_line="160",end_line="160",end_column="-1",extra="Block 16:\n[preds: 15 ] [succs: 17 ]\n$r82 = virtualinvoke r90.<org.eclipse.jgit.lib.RepositoryState: java.lang.String name()>();\n",package_name="org.eclipse.jgit.api",class_name="org.eclipse.jgit.api.CommitCommand",type="call",start_column="-1"];
    49851 [idx="53017",label="call org.eclipse.jgit.api.errors.WrongRepositoryStateException.<init>\n[line: 160]",class_name="org.eclipse.jgit.api.CommitCommand",method_name="<org.eclipse.jgit.api.CommitCommand: org.eclipse.jgit.revwalk.RevCommit call()>",package_name="org.eclipse.jgit.api",source_file="CommitCommand.java",type="call",start_line="160",start_column="-1",extra="Block 19:\n[preds: 18 ] [succs: 20 ]\nspecialinvoke $r70.<org.eclipse.jgit.api.errors.WrongRepositoryStateException: void <init>(java.lang.String)>($r81);\n",end_line="160",end_column="-1"];
    49842 -> 49851 [label="org.eclipse.jgit.api.errors.WrongRepositoryStateException:1"];
    49838 -> 49847 [label="org.eclipse.jgit.lib.RepositoryState:1"];
    49849 -> 49848 [label="int:1"];
    49846 -> 49845 [label="int:1"];
    49845 -> 49848 [label="java.lang.Object[]:0"];
    49845 -> 49850 [label="java.lang.Object[]:2"];
    49850 -> 49851 [label="java.lang.String:0"];
    49847 -> 49848 [label="java.lang.String:2"];
}

