digraph {
    33018 [idx="35324",label="new\n[line: 367]",package_name="org.eclipse.jgit.transport",class_name="org.eclipse.jgit.transport.TransportSftp$SftpObjectDB",method_name="<org.eclipse.jgit.transport.TransportSftp$SftpObjectDB: void mkdir_p(java.lang.String)>",start_line="367",end_column="-1",extra="Block 20:\n[preds: 12 19 ] [succs: 21 ]\n$r4 = new org.eclipse.jgit.errors.TransportException;\n",source_file="TransportSftp.java",type="block",start_column="-1",end_line="367"];
    33017 [idx="35327",label="=\n[line: 363]",method_name="<org.eclipse.jgit.transport.TransportSftp$SftpObjectDB: void mkdir_p(java.lang.String)>",type="block",class_name="org.eclipse.jgit.transport.TransportSftp$SftpObjectDB",start_line="363",start_column="-1",end_line="363",end_column="-1",extra="Block 19:\n[preds: 18 ] [succs: 20 ]\nr19 = r1;\n",package_name="org.eclipse.jgit.transport",source_file="TransportSftp.java"];
    33020 [idx="35322",label="call java.lang.StringBuilder.append\n[line: 367]",package_name="org.eclipse.jgit.transport",class_name="org.eclipse.jgit.transport.TransportSftp$SftpObjectDB",method_name="<org.eclipse.jgit.transport.TransportSftp$SftpObjectDB: void mkdir_p(java.lang.String)>",start_line="367",end_line="367",extra="Block 23:\n[preds: 22 ] [succs: 24 ]\n$r6 = virtualinvoke $r5.<java.lang.StringBuilder: java.lang.StringBuilder append(java.lang.String)>(\"Can\'t mkdir \");\n",source_file="TransportSftp.java",type="call",start_column="-1",end_column="-1"];
    33026 [idx="34840",label="call java.lang.StringBuilder.toString\n[line: 367]",extra="Block 31:\n[preds: 30 ] [succs: 32 ]\n$r13 = virtualinvoke $r14.<java.lang.StringBuilder: java.lang.String toString()>();\n",start_line="367",start_column="-1",end_line="367",package_name="org.eclipse.jgit.transport",class_name="org.eclipse.jgit.transport.TransportSftp$SftpObjectDB",source_file="TransportSftp.java",method_name="<org.eclipse.jgit.transport.TransportSftp$SftpObjectDB: void mkdir_p(java.lang.String)>",type="call",end_column="-1"];
    33024 [idx="34842",label="const '\": \"'\n[line: 367]",package_name="org.eclipse.jgit.transport",method_name="<org.eclipse.jgit.transport.TransportSftp$SftpObjectDB: void mkdir_p(java.lang.String)>",type="java.lang.String",end_line="367",end_column="-1",start_column="-1",extra="\": \"",class_name="org.eclipse.jgit.transport.TransportSftp$SftpObjectDB",source_file="TransportSftp.java",start_line="367"];
    33023 [idx="35321",label="const '\"/\"'\n[line: 367]",end_line="367",package_name="org.eclipse.jgit.transport",class_name="org.eclipse.jgit.transport.TransportSftp$SftpObjectDB",method_name="<org.eclipse.jgit.transport.TransportSftp$SftpObjectDB: void mkdir_p(java.lang.String)>",start_line="367",start_column="-1",end_column="-1",extra="\"/\"",source_file="TransportSftp.java",type="java.lang.String"];
    33027 [idx="34841",label="call org.eclipse.jgit.errors.TransportException.<init>\n[line: 367]",package_name="org.eclipse.jgit.transport",source_file="TransportSftp.java",method_name="<org.eclipse.jgit.transport.TransportSftp$SftpObjectDB: void mkdir_p(java.lang.String)>",end_line="367",extra="Block 32:\n[preds: 31 ] [succs: 33 ]\nspecialinvoke $r4.<org.eclipse.jgit.errors.TransportException: void <init>(java.lang.String,java.lang.Throwable)>($r13, r19);\n",class_name="org.eclipse.jgit.transport.TransportSftp$SftpObjectDB",type="call",start_line="367",start_column="-1",end_column="-1"];
    33022 [idx="35320",label="org.eclipse.jgit.transport.TransportSftp$SftpObjectDB.objectsPath\n[line: 367]",extra="Block 24:\n[preds: 23 ] [succs: 25 ]\n$r7 = r0.<org.eclipse.jgit.transport.TransportSftp$SftpObjectDB: java.lang.String objectsPath>;\n",package_name="org.eclipse.jgit.transport",source_file="TransportSftp.java",end_line="367",class_name="org.eclipse.jgit.transport.TransportSftp$SftpObjectDB",method_name="<org.eclipse.jgit.transport.TransportSftp$SftpObjectDB: void mkdir_p(java.lang.String)>",type="block",start_line="367",start_column="-1",end_column="-1"];
    33025 [idx="34843",label="call com.jcraft.jsch.SftpException.getMessage\n[line: 367]",package_name="org.eclipse.jgit.transport",method_name="<org.eclipse.jgit.transport.TransportSftp$SftpObjectDB: void mkdir_p(java.lang.String)>",start_line="367",end_line="367",extra="Block 29:\n[preds: 28 ] [succs: 30 ]\n$r11 = virtualinvoke r19.<com.jcraft.jsch.SftpException: java.lang.String getMessage()>();\n",class_name="org.eclipse.jgit.transport.TransportSftp$SftpObjectDB",source_file="TransportSftp.java",type="call",start_column="-1",end_column="-1"];
    33017 -> 33025 [label="com.jcraft.jsch.SftpException:1"];
    33018 -> 33020 [label="java.lang.StringBuilder:2"];
    33020 -> 33026 [label="java.lang.StringBuilder:1"];
    33026 -> 33027 [label="java.lang.String:0"];
    33024 -> 33020 [label="java.lang.String:1"];
    33023 -> 33020 [label="java.lang.String:1"];
    33022 -> 33020 [label="java.lang.String:1"];
    33025 -> 33020 [label="java.lang.String:1"];
}

