digraph {
    109784 [idx="111959",label="-"];
    109835 [idx="111770",label="call org.eclipse.jgit.internal.JGitText.get"];
    109843 [idx="111747",label="call java.io.IOException.<init>"];
    109842 [idx="111746",label="call java.text.MessageFormat.format"];
    109782 [idx="111961",label="+"];
    109810 [idx="111999",label="call org.eclipse.jgit.lib.ObjectId.fromRaw"];
    109839 [idx="111774",label="call java.lang.Integer.valueOf"];
    109735 [idx="111919",label="switch"];
    109836 [idx="111773",label="org.eclipse.jgit.internal.JGitText.unknownObjectType"];
    109735 -> 109784 [label=""];
    109735 -> 109842 [label=""];
    109735 -> 109810 [label=""];
    109735 -> 109839 [label=""];
    109735 -> 109836 [label=""];
    109782 -> 109784 [label="long:2"];
    109842 -> 109843 [label="java.lang.String:0"];
    109835 -> 109836 [label="org.eclipse.jgit.internal.JGitText:1"];
}

