digraph {
    53828 [idx="57033",label="new"];
    53837 [idx="57024",label="const '0'"];
    53832 [idx="57029",label="const '1'"];
    53836 [idx="57025",label="array index"];
    53831 [idx="57034",label="new-array"];
    53838 [idx="57027",label="call java.text.MessageFormat.format"];
    53834 [idx="57031",label="call org.eclipse.jgit.lib.Repository.getRepositoryState"];
    53835 [idx="57030",label="call org.eclipse.jgit.lib.RepositoryState.name"];
    53839 [idx="57026",label="call org.eclipse.jgit.api.errors.WrongRepositoryStateException.<init>"];
    53828 -> 53839 [label="org.eclipse.jgit.api.errors.WrongRepositoryStateException:1"];
    53834 -> 53835 [label="org.eclipse.jgit.lib.RepositoryState:1"];
    53837 -> 53836 [label="int:1"];
    53832 -> 53831 [label="int:1"];
    53831 -> 53836 [label="java.lang.Object[]:0"];
    53831 -> 53838 [label="java.lang.Object[]:2"];
    53838 -> 53839 [label="java.lang.String:0"];
    53835 -> 53836 [label="java.lang.String:2"];
}

