digraph {
    53925 [idx="56871",label="const '0'\n[line: 1113]",extra="0",package_name="org.eclipse.jgit.api",source_file="RebaseCommand.java",type="int",class_name="org.eclipse.jgit.api.RebaseCommand",method_name="<org.eclipse.jgit.api.RebaseCommand: org.eclipse.jgit.api.RebaseResult abort(org.eclipse.jgit.api.RebaseResult)>",start_line="1113",start_column="-1",end_line="1113",end_column="-1"];
    53938 [idx="56881",label="array index\n[line: 1122]",package_name="org.eclipse.jgit.api",class_name="org.eclipse.jgit.api.RebaseCommand",source_file="RebaseCommand.java",method_name="<org.eclipse.jgit.api.RebaseCommand: org.eclipse.jgit.api.RebaseResult abort(org.eclipse.jgit.api.RebaseResult)>",end_line="1122",type="block",start_line="1122",start_column="-1",end_column="-1",extra="Block 84:\n[preds: 83 ] [succs: 85 ]\n$i1 = $r31[$i0];\n"];
    53928 [idx="56874",label="==\n[line: 1114]",method_name="<org.eclipse.jgit.api.RebaseCommand: org.eclipse.jgit.api.RebaseResult abort(org.eclipse.jgit.api.RebaseResult)>",type="control",start_column="-1",extra="Block 75:\n[preds: 74 ] [succs: 76 78 ]\nif $z1 == 0 goto $r29 = r0.<org.eclipse.jgit.api.RebaseCommand: org.eclipse.jgit.lib.Repository repo>;\n",start_line="1114",end_line="1114",end_column="-1",package_name="org.eclipse.jgit.api",class_name="org.eclipse.jgit.api.RebaseCommand",source_file="RebaseCommand.java"];
    53939 [idx="56880",label="switch\n[line: 1122]",end_line="1122",end_column="-1",package_name="org.eclipse.jgit.api",type="block",start_line="1122",start_column="-1",extra="Block 85:\n[preds: 84 ] [succs: 86 87 ]\ntableswitch($i1) {     case 1: goto goto [?= z2 = specialinvoke r0.<org.eclipse.jgit.api.RebaseCommand: boolean autoStashApply()>()];     case 2: goto goto [?= z2 = specialinvoke r0.<org.eclipse.jgit.api.RebaseCommand: boolean autoStashApply()>()];     case 3: goto goto [?= z2 = specialinvoke r0.<org.eclipse.jgit.api.RebaseCommand: boolean autoStashApply()>()];     default: goto $r36 = new org.eclipse.jgit.api.errors.JGitInternalException; };\n",class_name="org.eclipse.jgit.api.RebaseCommand",source_file="RebaseCommand.java",method_name="<org.eclipse.jgit.api.RebaseCommand: org.eclipse.jgit.api.RebaseResult abort(org.eclipse.jgit.api.RebaseResult)>"];
    53934 [idx="56876",label="call org.eclipse.jgit.lib.RefUpdate.setNewObjectId\n[line: 1118]",start_line="1118",end_line="1118",class_name="org.eclipse.jgit.api.RebaseCommand",method_name="<org.eclipse.jgit.api.RebaseCommand: org.eclipse.jgit.api.RebaseResult abort(org.eclipse.jgit.api.RebaseResult)>",type="call",start_column="-1",end_column="-1",extra="Block 80:\n[preds: 79 ] [succs: 81 ]\nvirtualinvoke r63.<org.eclipse.jgit.lib.RefUpdate: void setNewObjectId(org.eclipse.jgit.lib.AnyObjectId)>($r30);\n",package_name="org.eclipse.jgit.api",source_file="RebaseCommand.java"];
    53920 [idx="56866",label="call org.eclipse.jgit.lib.Repository.updateRef\n[line: 1112]",extra="Block 72:\n[preds: 71 ] [succs: 73 ]\nr63 = virtualinvoke $r26.<org.eclipse.jgit.lib.Repository: org.eclipse.jgit.lib.RefUpdate updateRef(java.lang.String,boolean)>(\"HEAD\", 0);\n",class_name="org.eclipse.jgit.api.RebaseCommand",type="call",start_column="-1",package_name="org.eclipse.jgit.api",source_file="RebaseCommand.java",method_name="<org.eclipse.jgit.api.RebaseCommand: org.eclipse.jgit.api.RebaseResult abort(org.eclipse.jgit.api.RebaseResult)>",start_line="1112",end_line="1112",end_column="-1"];
    53923 [idx="56865",label="call org.eclipse.jgit.lib.RefUpdate.setRefLogMessage\n[line: 1113]",start_column="-1",end_line="1113",end_column="-1",type="call",extra="Block 73:\n[preds: 72 ] [succs: 74 ]\nvirtualinvoke r63.<org.eclipse.jgit.lib.RefUpdate: void setRefLogMessage(java.lang.String,boolean)>(\"rebase: aborting\", 0);\n",package_name="org.eclipse.jgit.api",class_name="org.eclipse.jgit.api.RebaseCommand",source_file="RebaseCommand.java",method_name="<org.eclipse.jgit.api.RebaseCommand: org.eclipse.jgit.api.RebaseResult abort(org.eclipse.jgit.api.RebaseResult)>",start_line="1113"];
    53937 [idx="56882",label="call org.eclipse.jgit.lib.RefUpdate$Result.ordinal\n[line: 1122]",extra="Block 83:\n[preds: 82 ] [succs: 84 ]\n$i0 = virtualinvoke r64.<org.eclipse.jgit.lib.RefUpdate$Result: int ordinal()>();\n",method_name="<org.eclipse.jgit.api.RebaseCommand: org.eclipse.jgit.api.RebaseResult abort(org.eclipse.jgit.api.RebaseResult)>",type="call",end_column="-1",package_name="org.eclipse.jgit.api",class_name="org.eclipse.jgit.api.RebaseCommand",source_file="RebaseCommand.java",start_line="1122",start_column="-1",end_line="1122"];
    53935 [idx="56877",label="call org.eclipse.jgit.lib.RefUpdate.forceUpdate\n[line: 1119]",extra="Block 81:\n[preds: 80 ] [succs: 82 ]\nr64 = virtualinvoke r63.<org.eclipse.jgit.lib.RefUpdate: org.eclipse.jgit.lib.RefUpdate$Result forceUpdate()>();\n",class_name="org.eclipse.jgit.api.RebaseCommand",start_line="1119",end_line="1119",package_name="org.eclipse.jgit.api",source_file="RebaseCommand.java",method_name="<org.eclipse.jgit.api.RebaseCommand: org.eclipse.jgit.api.RebaseResult abort(org.eclipse.jgit.api.RebaseResult)>",type="call",start_column="-1",end_column="-1"];
    53928 -> 53934 [label=""];
    53937 -> 53938 [label="int:2"];
    53925 -> 53923 [label="int:1"];
    53938 -> 53939 [label="int:0"];
    53920 -> 53934 [label="org.eclipse.jgit.lib.RefUpdate:1"];
    53920 -> 53935 [label="org.eclipse.jgit.lib.RefUpdate:1"];
    53920 -> 53923 [label="org.eclipse.jgit.lib.RefUpdate:2"];
    53935 -> 53937 [label="org.eclipse.jgit.lib.RefUpdate$Result:1"];
}

