digraph {
    91286 [idx="94209",label="const '1'\n[line: 1043]",start_column="-1",end_line="1043",package_name="org.eclipse.jgit.internal.storage.dfs",type="block",start_line="1043",method_name="<org.eclipse.jgit.internal.storage.dfs.DfsPackFile: void representation(org.eclipse.jgit.internal.storage.dfs.DfsObjectRepresentation,long,org.eclipse.jgit.internal.storage.dfs.DfsReader,org.eclipse.jgit.internal.storage.file.PackReverseIndex)>",end_column="-1",extra="Block 10:\n[preds: 9 ] [succs: 11 ]\ni29 = 1;\n",class_name="org.eclipse.jgit.internal.storage.dfs.DfsPackFile",source_file="DfsPackFile.java"];
    91310 [idx="94266",label="-\n[line: 1056]",extra="Block 28:\n[preds: 27 ] [succs: 29 ]\n$l9 = l2 - $l10;\n",package_name="org.eclipse.jgit.internal.storage.dfs",source_file="DfsPackFile.java",type="block",end_column="-1",class_name="org.eclipse.jgit.internal.storage.dfs.DfsPackFile",method_name="<org.eclipse.jgit.internal.storage.dfs.DfsPackFile: void representation(org.eclipse.jgit.internal.storage.dfs.DfsObjectRepresentation,long,org.eclipse.jgit.internal.storage.dfs.DfsReader,org.eclipse.jgit.internal.storage.file.PackReverseIndex)>",start_line="1056",start_column="-1",end_line="1056"];
    91370 [idx="94330",label="call java.io.IOException.<init>\n[line: 1083]",package_name="org.eclipse.jgit.internal.storage.dfs",source_file="DfsPackFile.java",method_name="<org.eclipse.jgit.internal.storage.dfs.DfsPackFile: void representation(org.eclipse.jgit.internal.storage.dfs.DfsObjectRepresentation,long,org.eclipse.jgit.internal.storage.dfs.DfsReader,org.eclipse.jgit.internal.storage.file.PackReverseIndex)>",type="call",start_column="-1",end_column="-1",extra="Block 74:\n[preds: 73 ] [succs: 75 ]\nspecialinvoke $r9.<java.io.IOException: void <init>(java.lang.String)>($r11);\n",class_name="org.eclipse.jgit.internal.storage.dfs.DfsPackFile",start_line="1083",end_line="1083"];
    91369 [idx="94329",label="call java.text.MessageFormat.format\n[line: 1083]",extra="Block 73:\n[preds: 72 ] [succs: 74 ]\n$r11 = staticinvoke <java.text.MessageFormat: java.lang.String format(java.lang.String,java.lang.Object[])>($r8, $r7);\n",package_name="org.eclipse.jgit.internal.storage.dfs",source_file="DfsPackFile.java",type="call",end_line="1083",end_column="-1",class_name="org.eclipse.jgit.internal.storage.dfs.DfsPackFile",method_name="<org.eclipse.jgit.internal.storage.dfs.DfsPackFile: void representation(org.eclipse.jgit.internal.storage.dfs.DfsObjectRepresentation,long,org.eclipse.jgit.internal.storage.dfs.DfsReader,org.eclipse.jgit.internal.storage.file.PackReverseIndex)>",start_line="1083",start_column="-1"];
    91313 [idx="94244",label="+\n[line: 1060]",class_name="org.eclipse.jgit.internal.storage.dfs.DfsPackFile",source_file="DfsPackFile.java",method_name="<org.eclipse.jgit.internal.storage.dfs.DfsPackFile: void representation(org.eclipse.jgit.internal.storage.dfs.DfsObjectRepresentation,long,org.eclipse.jgit.internal.storage.dfs.DfsReader,org.eclipse.jgit.internal.storage.file.PackReverseIndex)>",type="block",end_line="1060",end_column="-1",extra="Block 31:\n[preds: 24 ] [succs: 32 ]\ni30 = i29 + 1;\n",package_name="org.eclipse.jgit.internal.storage.dfs",start_line="1060",start_column="-1"];
    91321 [idx="94252",label="&\n[line: 1062]",extra="Block 36:\n[preds: 35 47 ] [succs: 37 ]\n$s17 = s31 & 128;\n",package_name="org.eclipse.jgit.internal.storage.dfs",method_name="<org.eclipse.jgit.internal.storage.dfs.DfsPackFile: void representation(org.eclipse.jgit.internal.storage.dfs.DfsObjectRepresentation,long,org.eclipse.jgit.internal.storage.dfs.DfsReader,org.eclipse.jgit.internal.storage.file.PackReverseIndex)>",type="block",start_column="-1",end_column="-1",source_file="DfsPackFile.java",start_line="1062",end_line="1062",class_name="org.eclipse.jgit.internal.storage.dfs.DfsPackFile"];
    91354 [idx="94281",label="call org.eclipse.jgit.lib.ObjectId.fromRaw\n[line: 1077]",start_line="1077",end_column="-1",extra="Block 60:\n[preds: 59 ] [succs: 61 ]\n$r5 = staticinvoke <org.eclipse.jgit.lib.ObjectId: org.eclipse.jgit.lib.ObjectId fromRaw(byte[])>(r4);\n",source_file="DfsPackFile.java",method_name="<org.eclipse.jgit.internal.storage.dfs.DfsPackFile: void representation(org.eclipse.jgit.internal.storage.dfs.DfsObjectRepresentation,long,org.eclipse.jgit.internal.storage.dfs.DfsReader,org.eclipse.jgit.internal.storage.file.PackReverseIndex)>",type="call",package_name="org.eclipse.jgit.internal.storage.dfs",class_name="org.eclipse.jgit.internal.storage.dfs.DfsPackFile",start_column="-1",end_line="1077"];
    91306 [idx="94270",label="switch\n[line: 1049]",method_name="<org.eclipse.jgit.internal.storage.dfs.DfsPackFile: void representation(org.eclipse.jgit.internal.storage.dfs.DfsObjectRepresentation,long,org.eclipse.jgit.internal.storage.dfs.DfsReader,org.eclipse.jgit.internal.storage.file.PackReverseIndex)>",type="block",start_line="1049",end_line="1049",extra="Block 24:\n[preds: 23 ] [succs: 25 67 31 56 ]\ntableswitch(s1) {     case 1: goto r1.<org.eclipse.jgit.internal.storage.dfs.DfsObjectRepresentation: int format> = 1;     case 2: goto r1.<org.eclipse.jgit.internal.storage.dfs.DfsObjectRepresentation: int format> = 1;     case 3: goto r1.<org.eclipse.jgit.internal.storage.dfs.DfsObjectRepresentation: int format> = 1;     case 4: goto r1.<org.eclipse.jgit.internal.storage.dfs.DfsObjectRepresentation: int format> = 1;     case 5: goto $r9 = new java.io.IOException;     case 6: goto i30 = i29 + 1;     case 7: goto $l12 = (long) i29;     default: goto $r9 = new java.io.IOException; };\n",class_name="org.eclipse.jgit.internal.storage.dfs.DfsPackFile",source_file="DfsPackFile.java",package_name="org.eclipse.jgit.internal.storage.dfs",start_column="-1",end_column="-1"];
    91363 [idx="94323",label="org.eclipse.jgit.internal.JGitText.unknownObjectType\n[line: 1083]",extra="Block 69:\n[preds: 68 ] [succs: 70 ]\n$r8 = $r10.<org.eclipse.jgit.internal.JGitText: java.lang.String unknownObjectType>;\n",package_name="org.eclipse.jgit.internal.storage.dfs",class_name="org.eclipse.jgit.internal.storage.dfs.DfsPackFile",source_file="DfsPackFile.java",start_line="1083",end_column="-1",start_column="-1",end_line="1083",method_name="<org.eclipse.jgit.internal.storage.dfs.DfsPackFile: void representation(org.eclipse.jgit.internal.storage.dfs.DfsObjectRepresentation,long,org.eclipse.jgit.internal.storage.dfs.DfsReader,org.eclipse.jgit.internal.storage.file.PackReverseIndex)>",type="block"];
    91306 -> 91310 [label=""];
    91306 -> 91370 [label=""];
    91306 -> 91313 [label=""];
    91306 -> 91321 [label=""];
    91306 -> 91354 [label=""];
    91286 -> 91313 [label="int:1"];
    91369 -> 91370 [label="java.lang.String:0"];
    91363 -> 91369 [label="java.lang.String:1"];
}

