digraph {
    60525 [idx="58237",label="return\n[line: 294]",class_name="org.eclipse.jgit.api.CreateBranchCommand",method_name="<org.eclipse.jgit.api.CreateBranchCommand: org.eclipse.jgit.lib.ObjectId getStartPoint()>",type="block",source_file="CreateBranchCommand.java",start_line="294",start_column="-1",end_line="294",end_column="-1",extra="Block 31:\n[preds: 17 ] [succs: ]\nreturn r15;\n",package_name="org.eclipse.jgit.api"];
    60512 [idx="58224",label="new\n[line: 291]",package_name="org.eclipse.jgit.api",start_line="291",start_column="-1",end_column="-1",type="block",end_line="291",extra="Block 18:\n[preds: 17 ] [succs: 19 ]\n$r5 = new org.eclipse.jgit.api.errors.RefNotFoundException;\n",class_name="org.eclipse.jgit.api.CreateBranchCommand",source_file="CreateBranchCommand.java",method_name="<org.eclipse.jgit.api.CreateBranchCommand: org.eclipse.jgit.lib.ObjectId getStartPoint()>"];
    60524 [idx="58236",label="throw\n[line: 291]",start_line="291",end_line="291",end_column="-1",package_name="org.eclipse.jgit.api",source_file="CreateBranchCommand.java",method_name="<org.eclipse.jgit.api.CreateBranchCommand: org.eclipse.jgit.lib.ObjectId getStartPoint()>",extra="Block 30:\n[preds: 29 ] [succs: ]\nthrow $r5;\n",class_name="org.eclipse.jgit.api.CreateBranchCommand",type="block",start_column="-1"];
    60510 [idx="58189",label="!=\n[line: 290]",type="control",start_line="290",package_name="org.eclipse.jgit.api",method_name="<org.eclipse.jgit.api.CreateBranchCommand: org.eclipse.jgit.lib.ObjectId getStartPoint()>",source_file="CreateBranchCommand.java",start_column="-1",end_line="290",end_column="-1",extra="Block 17:\n[preds: 13 ] [succs: 18 31 ]\nif r15 != null goto return r15;\n",class_name="org.eclipse.jgit.api.CreateBranchCommand"];
    60522 [idx="58234",label="call java.text.MessageFormat.format\n[line: 291]",extra="Block 28:\n[preds: 27 ] [succs: 29 ]\n$r10 = staticinvoke <java.text.MessageFormat: java.lang.String format(java.lang.String,java.lang.Object[])>($r9, $r7);\n",class_name="org.eclipse.jgit.api.CreateBranchCommand",source_file="CreateBranchCommand.java",type="call",start_column="-1",end_column="-1",package_name="org.eclipse.jgit.api",method_name="<org.eclipse.jgit.api.CreateBranchCommand: org.eclipse.jgit.lib.ObjectId getStartPoint()>",start_line="291",end_line="291"];
    60505 [idx="58186",label="call org.eclipse.jgit.lib.Repository.resolve\n[line: 285]",class_name="org.eclipse.jgit.api.CreateBranchCommand",type="call",start_line="285",start_column="-1",end_line="285",end_column="-1",extra="Block 12:\n[preds: 10 11 ] [succs: 13 ]\nr15 = virtualinvoke $r4.<org.eclipse.jgit.lib.Repository: org.eclipse.jgit.lib.ObjectId resolve(java.lang.String)>($r14);\n",package_name="org.eclipse.jgit.api",source_file="CreateBranchCommand.java",method_name="<org.eclipse.jgit.api.CreateBranchCommand: org.eclipse.jgit.lib.ObjectId getStartPoint()>"];
    60499 [idx="58176",label="org.eclipse.jgit.api.GitCommand.repo\n[line: 285]",package_name="org.eclipse.jgit.api",method_name="<org.eclipse.jgit.api.CreateBranchCommand: org.eclipse.jgit.lib.ObjectId getStartPoint()>",type="block",end_line="285",extra="Block 6:\n[preds: 2 ] [succs: 7 ]\n$r4 = r0.<org.eclipse.jgit.api.CreateBranchCommand: org.eclipse.jgit.lib.Repository repo>;\n",class_name="org.eclipse.jgit.api.CreateBranchCommand",source_file="CreateBranchCommand.java",start_line="285",start_column="-1",end_column="-1"];
    60514 [idx="58226",label="org.eclipse.jgit.internal.JGitText.refNotResolved\n[line: 291]",extra="Block 20:\n[preds: 19 ] [succs: 21 ]\n$r9 = $r6.<org.eclipse.jgit.internal.JGitText: java.lang.String refNotResolved>;\n",package_name="org.eclipse.jgit.api",class_name="org.eclipse.jgit.api.CreateBranchCommand",source_file="CreateBranchCommand.java",method_name="<org.eclipse.jgit.api.CreateBranchCommand: org.eclipse.jgit.lib.ObjectId getStartPoint()>",start_line="291",start_column="-1",end_line="291",type="block",end_column="-1"];
    60523 [idx="58235",label="call org.eclipse.jgit.api.errors.RefNotFoundException.<init>\n[line: 291]",package_name="org.eclipse.jgit.api",class_name="org.eclipse.jgit.api.CreateBranchCommand",start_column="-1",end_column="-1",extra="Block 29:\n[preds: 28 ] [succs: 30 ]\nspecialinvoke $r5.<org.eclipse.jgit.api.errors.RefNotFoundException: void <init>(java.lang.String)>($r10);\n",source_file="CreateBranchCommand.java",method_name="<org.eclipse.jgit.api.CreateBranchCommand: org.eclipse.jgit.lib.ObjectId getStartPoint()>",type="call",start_line="291",end_line="291"];
    60510 -> 60525 [label=""];
    60510 -> 60524 [label=""];
    60510 -> 60523 [label=""];
    60505 -> 60510 [label="org.eclipse.jgit.lib.ObjectId:0"];
    60512 -> 60523 [label="org.eclipse.jgit.api.errors.RefNotFoundException:1"];
    60499 -> 60505 [label="org.eclipse.jgit.lib.Repository:2"];
    60522 -> 60523 [label="java.lang.String:0"];
    60514 -> 60522 [label="java.lang.String:1"];
}

