digraph {
    59555 [idx="59382",label="const '0'\n[line: 67]",end_line="67",source_file="MergeResult.java",type="int",start_line="67",method_name="<org.eclipse.jgit.api.MergeResult$MergeStatus: void <clinit>()>",start_column="-1",end_column="-1",extra="0",package_name="org.eclipse.jgit.api",class_name="org.eclipse.jgit.api.MergeResult$MergeStatus"];
    59557 [idx="59376",label="const '1'\n[line: 67]",class_name="org.eclipse.jgit.api.MergeResult$MergeStatus",method_name="<org.eclipse.jgit.api.MergeResult$MergeStatus: void <clinit>()>",type="int",start_column="-1",end_line="67",extra="1",package_name="org.eclipse.jgit.api",source_file="MergeResult.java",start_line="67",end_column="-1"];
    59554 [idx="59383",label="array index\n[line: 67]",package_name="org.eclipse.jgit.api",source_file="MergeResult.java",start_line="67",start_column="-1",extra="Block 38:\n[preds: 37 ] [succs: 39 ]\n$r12[0] = $r13;\n",class_name="org.eclipse.jgit.api.MergeResult$MergeStatus",method_name="<org.eclipse.jgit.api.MergeResult$MergeStatus: void <clinit>()>",type="block",end_line="67",end_column="-1"];
    59561 [idx="59388",label="const '3'\n[line: 67]",class_name="org.eclipse.jgit.api.MergeResult$MergeStatus",source_file="MergeResult.java",method_name="<org.eclipse.jgit.api.MergeResult$MergeStatus: void <clinit>()>",type="int",start_column="-1",end_column="-1",extra="3",package_name="org.eclipse.jgit.api",start_line="67",end_line="67"];
    59563 [idx="59390",label="const '4'\n[line: 67]",start_column="-1",end_line="67",end_column="-1",source_file="MergeResult.java",method_name="<org.eclipse.jgit.api.MergeResult$MergeStatus: void <clinit>()>",start_line="67",package_name="org.eclipse.jgit.api",class_name="org.eclipse.jgit.api.MergeResult$MergeStatus",type="int",extra="4"];
    59565 [idx="59384",label="const '5'\n[line: 67]",source_file="MergeResult.java",method_name="<org.eclipse.jgit.api.MergeResult$MergeStatus: void <clinit>()>",type="int",end_line="67",extra="5",package_name="org.eclipse.jgit.api",class_name="org.eclipse.jgit.api.MergeResult$MergeStatus",start_line="67",start_column="-1",end_column="-1"];
    59567 [idx="59386",label="const '6'\n[line: 67]",package_name="org.eclipse.jgit.api",source_file="MergeResult.java",method_name="<org.eclipse.jgit.api.MergeResult$MergeStatus: void <clinit>()>",type="int",end_column="-1",extra="6",class_name="org.eclipse.jgit.api.MergeResult$MergeStatus",start_line="67",start_column="-1",end_line="67"];
    59569 [idx="59365",label="const '7'\n[line: 67]",end_column="-1",class_name="org.eclipse.jgit.api.MergeResult$MergeStatus",start_line="67",end_line="67",method_name="<org.eclipse.jgit.api.MergeResult$MergeStatus: void <clinit>()>",type="int",start_column="-1",extra="7",package_name="org.eclipse.jgit.api",source_file="MergeResult.java"];
    59571 [idx="59367",label="const '8'\n[line: 67]",extra="8",package_name="org.eclipse.jgit.api",class_name="org.eclipse.jgit.api.MergeResult$MergeStatus",type="int",start_column="-1",source_file="MergeResult.java",method_name="<org.eclipse.jgit.api.MergeResult$MergeStatus: void <clinit>()>",start_line="67",end_line="67",end_column="-1"];
    59555 -> 59554 [label="int:1"];
    59557 -> 59554 [label="int:1"];
    59561 -> 59554 [label="int:1"];
    59563 -> 59554 [label="int:1"];
    59565 -> 59554 [label="int:1"];
    59567 -> 59554 [label="int:1"];
    59569 -> 59554 [label="int:1"];
    59571 -> 59554 [label="int:1"];
}

