digraph {
    98202 [idx="92810",label="array index\n[line: 458]",package_name="org.eclipse.jgit.internal.storage.pack",class_name="org.eclipse.jgit.internal.storage.pack.DeltaIndex",source_file="DeltaIndex.java",method_name="<org.eclipse.jgit.internal.storage.pack.DeltaIndex: int hashBlock(byte[],int)>",start_line="458",end_line="458",extra="Block 79:\n[preds: 78 ] [succs: 80 ]\n$b59 = r0[$i58];\n",end_column="-1",start_column="-1",type="block"];
    98227 [idx="92833",label="&\n[line: 461]",package_name="org.eclipse.jgit.internal.storage.pack",class_name="org.eclipse.jgit.internal.storage.pack.DeltaIndex",type="block",start_column="-1",start_line="461",end_line="461",end_column="-1",extra="Block 98:\n[preds: 97 ] [succs: 99 ]\n$s82 = $b72 & 255;\n",source_file="DeltaIndex.java",method_name="<org.eclipse.jgit.internal.storage.pack.DeltaIndex: int hashBlock(byte[],int)>"];
    98223 [idx="92860",label="const '8'\n[line: 461]",package_name="org.eclipse.jgit.internal.storage.pack",source_file="DeltaIndex.java",type="int",start_column="-1",end_line="461",extra="8",method_name="<org.eclipse.jgit.internal.storage.pack.DeltaIndex: int hashBlock(byte[],int)>",start_line="461",end_column="-1",class_name="org.eclipse.jgit.internal.storage.pack.DeltaIndex"];
    98229 [idx="92839",label="|\n[line: 461]",method_name="<org.eclipse.jgit.internal.storage.pack.DeltaIndex: int hashBlock(byte[],int)>",start_column="-1",end_column="-1",extra="Block 99:\n[preds: 98 ] [succs: 100 ]\n$i77 = $i81 | $s82;\n",package_name="org.eclipse.jgit.internal.storage.pack",type="block",start_line="461",end_line="461",class_name="org.eclipse.jgit.internal.storage.pack.DeltaIndex",source_file="DeltaIndex.java"];
    98217 [idx="92858",label="|\n[line: 459]",class_name="org.eclipse.jgit.internal.storage.pack.DeltaIndex",method_name="<org.eclipse.jgit.internal.storage.pack.DeltaIndex: int hashBlock(byte[],int)>",start_line="459",end_line="459",extra="Block 90:\n[preds: 89 ] [succs: 91 ]\n$i70 = $i74 | $s75;\n",package_name="org.eclipse.jgit.internal.storage.pack",source_file="DeltaIndex.java",type="block",start_column="-1",end_column="-1"];
    98210 [idx="92849",label="<<\n[line: 459]",package_name="org.eclipse.jgit.internal.storage.pack",class_name="org.eclipse.jgit.internal.storage.pack.DeltaIndex",method_name="<org.eclipse.jgit.internal.storage.pack.DeltaIndex: int hashBlock(byte[],int)>",type="block",start_line="459",extra="Block 86:\n[preds: 85 ] [succs: 87 ]\n$i74 = i111 << 8;\n",source_file="DeltaIndex.java",start_column="-1",end_line="459",end_column="-1"];
    98222 [idx="92861",label="<<\n[line: 461]",start_column="-1",end_line="461",end_column="-1",extra="Block 95:\n[preds: 94 ] [succs: 96 ]\n$i81 = i112 << 8;\n",package_name="org.eclipse.jgit.internal.storage.pack",source_file="DeltaIndex.java",method_name="<org.eclipse.jgit.internal.storage.pack.DeltaIndex: int hashBlock(byte[],int)>",class_name="org.eclipse.jgit.internal.storage.pack.DeltaIndex",type="block",start_line="461"];
    98209 [idx="92850",label="^\n[line: 458]",end_column="-1",method_name="<org.eclipse.jgit.internal.storage.pack.DeltaIndex: int hashBlock(byte[],int)>",type="block",start_column="-1",source_file="DeltaIndex.java",start_line="458",end_line="458",extra="Block 85:\n[preds: 84 ] [succs: 86 ]\ni111 = $i64 ^ $i63;\n",package_name="org.eclipse.jgit.internal.storage.pack",class_name="org.eclipse.jgit.internal.storage.pack.DeltaIndex"];
    98221 [idx="92862",label="^\n[line: 459]",package_name="org.eclipse.jgit.internal.storage.pack",start_line="459",end_line="459",start_column="-1",end_column="-1",extra="Block 94:\n[preds: 93 ] [succs: 95 ]\ni112 = $i70 ^ $i71;\n",class_name="org.eclipse.jgit.internal.storage.pack.DeltaIndex",source_file="DeltaIndex.java",method_name="<org.eclipse.jgit.internal.storage.pack.DeltaIndex: int hashBlock(byte[],int)>",type="block"];
    98202 -> 98209 [label="int:2"];
    98223 -> 98222 [label="int:2"];
    98209 -> 98210 [label="int:1"];
    98210 -> 98217 [label="int:1"];
    98217 -> 98221 [label="int:1"];
    98221 -> 98222 [label="int:1"];
    98222 -> 98229 [label="int:1"];
    98227 -> 98229 [label="short:2"];
}

