digraph {
    75527 [idx="79658",label="cast\n[line: 582]",type="block",start_line="582",start_column="-1",end_line="582",class_name="org.eclipse.jgit.diff.RenameDetector",source_file="RenameDetector.java",method_name="<org.eclipse.jgit.diff.RenameDetector: void findExactRenames(org.eclipse.jgit.lib.ProgressMonitor)>",package_name="org.eclipse.jgit.diff",end_column="-1",extra="Block 135:\n[preds: 134 ] [succs: 136 ]\n$r41 = (org.eclipse.jgit.diff.DiffEntry) $r42;\n"];
    75523 [idx="79662",label="const '0'\n[line: 581]",extra="Block 131:\n[preds: 130 ] [succs: 132 ]\ni19 = 0;\n",package_name="org.eclipse.jgit.diff",class_name="org.eclipse.jgit.diff.RenameDetector",start_column="-1",end_line="581",end_column="-1",method_name="<org.eclipse.jgit.diff.RenameDetector: void findExactRenames(org.eclipse.jgit.lib.ProgressMonitor)>",type="block",start_line="581",source_file="RenameDetector.java"];
    75544 [idx="79668",label="const '1'\n[line: 581]",end_line="581",package_name="org.eclipse.jgit.diff",source_file="RenameDetector.java",method_name="<org.eclipse.jgit.diff.RenameDetector: void findExactRenames(org.eclipse.jgit.lib.ProgressMonitor)>",type="int",start_line="581",start_column="-1",end_column="-1",extra="1",class_name="org.eclipse.jgit.diff.RenameDetector"];
    75545 [idx="79669",label="goto\n[line: 581]",package_name="org.eclipse.jgit.diff",source_file="RenameDetector.java",type="block",start_line="581",end_column="-1",extra="Block 150:\n[preds: 149 ] [succs: 132 ]\ngoto [?= $i15 = interfaceinvoke r84.<java.util.List: int size()>()];\n",class_name="org.eclipse.jgit.diff.RenameDetector",method_name="<org.eclipse.jgit.diff.RenameDetector: void findExactRenames(org.eclipse.jgit.lib.ProgressMonitor)>",start_column="-1",end_line="581"];
    75485 [idx="79598",label="==\n[line: 553]",end_column="-1",class_name="org.eclipse.jgit.diff.RenameDetector",method_name="<org.eclipse.jgit.diff.RenameDetector: void findExactRenames(org.eclipse.jgit.lib.ProgressMonitor)>",type="control",end_line="553",start_column="-1",extra="Block 96:\n[preds: 95 ] [succs: 97 124 ]\nif $z8 == 0 goto (branch);\n",package_name="org.eclipse.jgit.diff",source_file="RenameDetector.java",start_line="553"];
    75525 [idx="79656",label=">=\n[line: 581]",class_name="org.eclipse.jgit.diff.RenameDetector",method_name="<org.eclipse.jgit.diff.RenameDetector: void findExactRenames(org.eclipse.jgit.lib.ProgressMonitor)>",type="control",extra="Block 133:\n[preds: 132 ] [succs: 134 151 ]\nif i19 >= $i15 goto staticinvoke <java.util.Arrays: void sort(long[])>(r85);\n",package_name="org.eclipse.jgit.diff",start_column="-1",end_line="581",end_column="-1",source_file="RenameDetector.java",start_line="581"];
    75543 [idx="79675",label="+\n[line: 581]",end_column="-1",extra="Block 149:\n[preds: 139 ] [succs: 150 ]\ni19 = i19 + 1;\n",class_name="org.eclipse.jgit.diff.RenameDetector",source_file="RenameDetector.java",type="block",start_line="581",package_name="org.eclipse.jgit.diff",method_name="<org.eclipse.jgit.diff.RenameDetector: void findExactRenames(org.eclipse.jgit.lib.ProgressMonitor)>",start_column="-1",end_line="581"];
    75524 [idx="79657",label="call java.util.List.size\n[line: 581]",start_column="-1",extra="Block 132:\n[preds: 131 150 ] [succs: 133 ]\n$i15 = interfaceinvoke r84.<java.util.List: int size()>();\n",method_name="<org.eclipse.jgit.diff.RenameDetector: void findExactRenames(org.eclipse.jgit.lib.ProgressMonitor)>",type="call",class_name="org.eclipse.jgit.diff.RenameDetector",source_file="RenameDetector.java",start_line="581",end_line="581",end_column="-1",package_name="org.eclipse.jgit.diff"];
    75526 [idx="79659",label="call java.util.List.get\n[line: 582]",extra="Block 134:\n[preds: 133 ] [succs: 135 ]\n$r42 = interfaceinvoke r84.<java.util.List: java.lang.Object get(int)>(i19);\n",class_name="org.eclipse.jgit.diff.RenameDetector",method_name="<org.eclipse.jgit.diff.RenameDetector: void findExactRenames(org.eclipse.jgit.lib.ProgressMonitor)>",end_line="582",package_name="org.eclipse.jgit.diff",source_file="RenameDetector.java",type="call",start_line="582",start_column="-1",end_column="-1"];
    75525 -> 75545 [label=""];
    75525 -> 75543 [label=""];
    75485 -> 75524 [label=""];
    75525 -> 75524 [label=""];
    75544 -> 75543 [label="int:2"];
    75543 -> 75543 [label="int:1"];
    75523 -> 75526 [label="int:1"];
    75543 -> 75526 [label="int:1"];
    75526 -> 75527 [label="java.lang.Object:1"];
}

