digraph {
    110172 [idx="112638",label="array index"];
    110224 [idx="112447",label="throw"];
    110167 [idx="112629",label="-"];
    110215 [idx="112425",label="call org.eclipse.jgit.internal.JGitText.get"];
    110170 [idx="112632",label="+"];
    110157 [idx="112622",label="+"];
    110173 [idx="112639",label="&"];
    110150 [idx="112613",label="&"];
    110165 [idx="112631",label="switch"];
    110165 -> 110172 [label=""];
    110165 -> 110224 [label=""];
    110165 -> 110167 [label=""];
    110165 -> 110215 [label=""];
    110165 -> 110170 [label=""];
    110165 -> 110173 [label=""];
    110157 -> 110170 [label="int:1"];
    110150 -> 110165 [label="short:0"];
}

