digraph {
    90916 [idx="96199",label="-\n[line: 797]",extra="Block 70:\n[preds: 59 ] [succs: 71 ]\nl55 = l43 - l52;\n",class_name="org.eclipse.jgit.internal.storage.dfs.DfsPackFile",start_column="-1",end_line="797",end_column="-1",package_name="org.eclipse.jgit.internal.storage.dfs",source_file="DfsPackFile.java",method_name="<org.eclipse.jgit.internal.storage.dfs.DfsPackFile: org.eclipse.jgit.lib.ObjectLoader load(org.eclipse.jgit.internal.storage.dfs.DfsReader,long)>",type="block",start_line="797"];
    90969 [idx="96189",label="call org.eclipse.jgit.internal.JGitText.get\n[line: 832]",type="call",start_line="832",end_column="-1",class_name="org.eclipse.jgit.internal.storage.dfs.DfsPackFile",method_name="<org.eclipse.jgit.internal.storage.dfs.DfsPackFile: org.eclipse.jgit.lib.ObjectLoader load(org.eclipse.jgit.internal.storage.dfs.DfsReader,long)>",source_file="DfsPackFile.java",start_column="-1",end_line="832",extra="Block 116:\n[preds: 115 ] [succs: 117 ]\n$r23 = staticinvoke <org.eclipse.jgit.internal.JGitText: org.eclipse.jgit.internal.JGitText get()>();\n",package_name="org.eclipse.jgit.internal.storage.dfs"];
    90893 [idx="96236",label="const '255'\n[line: 789]",extra="255",start_line="789",end_line="789",end_column="-1",type="int",start_column="-1",package_name="org.eclipse.jgit.internal.storage.dfs",class_name="org.eclipse.jgit.internal.storage.dfs.DfsPackFile",source_file="DfsPackFile.java",method_name="<org.eclipse.jgit.internal.storage.dfs.DfsPackFile: org.eclipse.jgit.lib.ObjectLoader load(org.eclipse.jgit.internal.storage.dfs.DfsReader,long)>"];
    90894 [idx="96239",label="&\n[line: 790]",start_column="-1",extra="Block 56:\n[preds: 55 ] [succs: 57 ]\n$s27 = s51 & 127;\n",package_name="org.eclipse.jgit.internal.storage.dfs",method_name="<org.eclipse.jgit.internal.storage.dfs.DfsPackFile: org.eclipse.jgit.lib.ObjectLoader load(org.eclipse.jgit.internal.storage.dfs.DfsReader,long)>",type="block",start_line="790",end_line="790",end_column="-1",class_name="org.eclipse.jgit.internal.storage.dfs.DfsPackFile",source_file="DfsPackFile.java"];
    90892 [idx="96237",label="&\n[line: 789]",package_name="org.eclipse.jgit.internal.storage.dfs",start_column="-1",end_line="789",end_column="-1",start_line="789",extra="Block 55:\n[preds: 54 ] [succs: 56 ]\ns51 = $b30 & 255;\n",class_name="org.eclipse.jgit.internal.storage.dfs.DfsPackFile",source_file="DfsPackFile.java",method_name="<org.eclipse.jgit.internal.storage.dfs.DfsPackFile: org.eclipse.jgit.lib.ObjectLoader load(org.eclipse.jgit.internal.storage.dfs.DfsReader,long)>",type="block"];
    90943 [idx="96221",label="call org.eclipse.jgit.lib.ObjectId.fromRaw\n[line: 815]",class_name="org.eclipse.jgit.internal.storage.dfs.DfsPackFile",source_file="DfsPackFile.java",start_line="815",start_column="-1",end_column="-1",extra="Block 93:\n[preds: 92 ] [succs: 94 ]\n$r12 = staticinvoke <org.eclipse.jgit.lib.ObjectId: org.eclipse.jgit.lib.ObjectId fromRaw(byte[])>(r36);\n",package_name="org.eclipse.jgit.internal.storage.dfs",method_name="<org.eclipse.jgit.internal.storage.dfs.DfsPackFile: org.eclipse.jgit.lib.ObjectLoader load(org.eclipse.jgit.internal.storage.dfs.DfsReader,long)>",type="call",end_line="815"];
    90973 [idx="96185",label="call java.lang.Integer.valueOf\n[line: 832]",method_name="<org.eclipse.jgit.internal.storage.dfs.DfsPackFile: org.eclipse.jgit.lib.ObjectLoader load(org.eclipse.jgit.internal.storage.dfs.DfsReader,long)>",type="call",start_line="832",start_column="-1",class_name="org.eclipse.jgit.internal.storage.dfs.DfsPackFile",end_line="832",end_column="-1",extra="Block 119:\n[preds: 118 ] [succs: 120 ]\n$r22 = staticinvoke <java.lang.Integer: java.lang.Integer valueOf(int)>(s46);\n",package_name="org.eclipse.jgit.internal.storage.dfs",source_file="DfsPackFile.java"];
    90864 [idx="95757",label="switch\n[line: 769]",extra="Block 29:\n[preds: 18 ] [succs: 30 115 53 90 ]\ntableswitch(s46) {     case 1: goto if r37 == null goto $i5 = virtualinvoke r1.<org.eclipse.jgit.internal.storage.dfs.DfsReader: int getStreamFileThreshold()>();     case 2: goto if r37 == null goto $i5 = virtualinvoke r1.<org.eclipse.jgit.internal.storage.dfs.DfsReader: int getStreamFileThreshold()>();     case 3: goto if r37 == null goto $i5 = virtualinvoke r1.<org.eclipse.jgit.internal.storage.dfs.DfsReader: int getStreamFileThreshold()>();     case 4: goto if r37 == null goto $i5 = virtualinvoke r1.<org.eclipse.jgit.internal.storage.dfs.DfsReader: int getStreamFileThreshold()>();     case 5: goto $r24 = new java.io.IOException;     case 6: goto i50 = i49 + 1;     case 7: goto $l21 = (long) i49;     default: goto $r24 = new java.io.IOException; };\n",class_name="org.eclipse.jgit.internal.storage.dfs.DfsPackFile",source_file="DfsPackFile.java",method_name="<org.eclipse.jgit.internal.storage.dfs.DfsPackFile: org.eclipse.jgit.lib.ObjectLoader load(org.eclipse.jgit.internal.storage.dfs.DfsReader,long)>",start_line="769",start_column="-1",package_name="org.eclipse.jgit.internal.storage.dfs",type="block",end_line="769",end_column="-1"];
    90970 [idx="96190",label="org.eclipse.jgit.internal.JGitText.unknownObjectType\n[line: 832]",extra="Block 117:\n[preds: 116 ] [succs: 118 ]\n$r20 = $r23.<org.eclipse.jgit.internal.JGitText: java.lang.String unknownObjectType>;\n",package_name="org.eclipse.jgit.internal.storage.dfs",start_line="832",class_name="org.eclipse.jgit.internal.storage.dfs.DfsPackFile",source_file="DfsPackFile.java",method_name="<org.eclipse.jgit.internal.storage.dfs.DfsPackFile: org.eclipse.jgit.lib.ObjectLoader load(org.eclipse.jgit.internal.storage.dfs.DfsReader,long)>",type="block",start_column="-1",end_line="832",end_column="-1"];
    90864 -> 90916 [label=""];
    90864 -> 90892 [label=""];
    90864 -> 90943 [label=""];
    90864 -> 90973 [label=""];
    90864 -> 90970 [label=""];
    90893 -> 90892 [label="int:2"];
    90892 -> 90894 [label="short:1"];
    90969 -> 90970 [label="org.eclipse.jgit.internal.JGitText:1"];
}

