digraph {
    91367 [idx="94327",label="array index\n[line: 1083]",package_name="org.eclipse.jgit.internal.storage.dfs",source_file="DfsPackFile.java",method_name="<org.eclipse.jgit.internal.storage.dfs.DfsPackFile: void representation(org.eclipse.jgit.internal.storage.dfs.DfsObjectRepresentation,long,org.eclipse.jgit.internal.storage.dfs.DfsReader,org.eclipse.jgit.internal.storage.file.PackReverseIndex)>",start_line="1083",end_line="1083",end_column="-1",type="block",start_column="-1",extra="Block 72:\n[preds: 71 ] [succs: 73 ]\n$r7[0] = $r12;\n",class_name="org.eclipse.jgit.internal.storage.dfs.DfsPackFile"];
    91371 [idx="94331",label="throw\n[line: 1083]",method_name="<org.eclipse.jgit.internal.storage.dfs.DfsPackFile: void representation(org.eclipse.jgit.internal.storage.dfs.DfsObjectRepresentation,long,org.eclipse.jgit.internal.storage.dfs.DfsReader,org.eclipse.jgit.internal.storage.file.PackReverseIndex)>",type="block",start_column="-1",end_line="1083",class_name="org.eclipse.jgit.internal.storage.dfs.DfsPackFile",source_file="DfsPackFile.java",end_column="-1",extra="Block 75:\n[preds: 74 ] [succs: ]\nthrow $r9;\n",package_name="org.eclipse.jgit.internal.storage.dfs",start_line="1083"];
    91323 [idx="94254",label="==\n[line: 1062]",extra="Block 37:\n[preds: 36 ] [succs: 38 48 ]\nif $s17 == 0 goto r1.<org.eclipse.jgit.internal.storage.dfs.DfsObjectRepresentation: int format> = 0;\n",source_file="DfsPackFile.java",end_line="1062",end_column="-1",package_name="org.eclipse.jgit.internal.storage.dfs",class_name="org.eclipse.jgit.internal.storage.dfs.DfsPackFile",method_name="<org.eclipse.jgit.internal.storage.dfs.DfsPackFile: void representation(org.eclipse.jgit.internal.storage.dfs.DfsObjectRepresentation,long,org.eclipse.jgit.internal.storage.dfs.DfsReader,org.eclipse.jgit.internal.storage.file.PackReverseIndex)>",type="control",start_line="1062",start_column="-1"];
    91341 [idx="94303",label="-\n[line: 1069]",package_name="org.eclipse.jgit.internal.storage.dfs",class_name="org.eclipse.jgit.internal.storage.dfs.DfsPackFile",source_file="DfsPackFile.java",start_line="1069",start_column="-1",end_line="1069",end_column="-1",extra="Block 49:\n[preds: 48 ] [succs: 50 ]\n$l21 = l0 - l32;\n",method_name="<org.eclipse.jgit.internal.storage.dfs.DfsPackFile: void representation(org.eclipse.jgit.internal.storage.dfs.DfsObjectRepresentation,long,org.eclipse.jgit.internal.storage.dfs.DfsReader,org.eclipse.jgit.internal.storage.file.PackReverseIndex)>",type="block"];
    91325 [idx="94248",label="+\n[line: 1063]",extra="Block 38:\n[preds: 37 ] [succs: 39 ]\nl33 = l32 + 1L;\n",package_name="org.eclipse.jgit.internal.storage.dfs",class_name="org.eclipse.jgit.internal.storage.dfs.DfsPackFile",start_column="-1",end_line="1063",source_file="DfsPackFile.java",method_name="<org.eclipse.jgit.internal.storage.dfs.DfsPackFile: void representation(org.eclipse.jgit.internal.storage.dfs.DfsObjectRepresentation,long,org.eclipse.jgit.internal.storage.dfs.DfsReader,org.eclipse.jgit.internal.storage.file.PackReverseIndex)>",type="block",start_line="1063",end_column="-1"];
    91338 [idx="94296",label="+\n[line: 1066]",class_name="org.eclipse.jgit.internal.storage.dfs.DfsPackFile",source_file="DfsPackFile.java",method_name="<org.eclipse.jgit.internal.storage.dfs.DfsPackFile: void representation(org.eclipse.jgit.internal.storage.dfs.DfsObjectRepresentation,long,org.eclipse.jgit.internal.storage.dfs.DfsReader,org.eclipse.jgit.internal.storage.file.PackReverseIndex)>",type="block",start_line="1066",end_column="-1",extra="Block 46:\n[preds: 45 ] [succs: 47 ]\nl32 = l34 + $l23;\n",package_name="org.eclipse.jgit.internal.storage.dfs",start_column="-1",end_line="1066"];
    91289 [idx="94222",label="&\n[line: 1044]",end_line="1044",end_column="-1",extra="Block 12:\n[preds: 11 ] [succs: 13 ]\ns1 = $s4 & 7;\n",source_file="DfsPackFile.java",method_name="<org.eclipse.jgit.internal.storage.dfs.DfsPackFile: void representation(org.eclipse.jgit.internal.storage.dfs.DfsObjectRepresentation,long,org.eclipse.jgit.internal.storage.dfs.DfsReader,org.eclipse.jgit.internal.storage.file.PackReverseIndex)>",type="block",start_column="-1",package_name="org.eclipse.jgit.internal.storage.dfs",class_name="org.eclipse.jgit.internal.storage.dfs.DfsPackFile",start_line="1044"];
    91326 [idx="94251",label="const '1L'\n[line: 1063]",method_name="<org.eclipse.jgit.internal.storage.dfs.DfsPackFile: void representation(org.eclipse.jgit.internal.storage.dfs.DfsObjectRepresentation,long,org.eclipse.jgit.internal.storage.dfs.DfsReader,org.eclipse.jgit.internal.storage.file.PackReverseIndex)>",end_line="1063",package_name="org.eclipse.jgit.internal.storage.dfs",class_name="org.eclipse.jgit.internal.storage.dfs.DfsPackFile",source_file="DfsPackFile.java",type="long",start_line="1063",start_column="-1",end_column="-1",extra="1L"];
    91306 [idx="94270",label="switch\n[line: 1049]",start_line="1049",start_column="-1",end_line="1049",extra="Block 24:\n[preds: 23 ] [succs: 25 67 31 56 ]\ntableswitch(s1) {     case 1: goto r1.<org.eclipse.jgit.internal.storage.dfs.DfsObjectRepresentation: int format> = 1;     case 2: goto r1.<org.eclipse.jgit.internal.storage.dfs.DfsObjectRepresentation: int format> = 1;     case 3: goto r1.<org.eclipse.jgit.internal.storage.dfs.DfsObjectRepresentation: int format> = 1;     case 4: goto r1.<org.eclipse.jgit.internal.storage.dfs.DfsObjectRepresentation: int format> = 1;     case 5: goto $r9 = new java.io.IOException;     case 6: goto i30 = i29 + 1;     case 7: goto $l12 = (long) i29;     default: goto $r9 = new java.io.IOException; };\n",package_name="org.eclipse.jgit.internal.storage.dfs",source_file="DfsPackFile.java",method_name="<org.eclipse.jgit.internal.storage.dfs.DfsPackFile: void representation(org.eclipse.jgit.internal.storage.dfs.DfsObjectRepresentation,long,org.eclipse.jgit.internal.storage.dfs.DfsReader,org.eclipse.jgit.internal.storage.file.PackReverseIndex)>",type="block",end_column="-1",class_name="org.eclipse.jgit.internal.storage.dfs.DfsPackFile"];
    91323 -> 91325 [label=""];
    91306 -> 91367 [label=""];
    91306 -> 91371 [label=""];
    91306 -> 91341 [label=""];
    91338 -> 91341 [label="long:2"];
    91326 -> 91325 [label="long:2"];
    91338 -> 91325 [label="long:1"];
    91289 -> 91306 [label="short:0"];
}

