digraph {
    48881 [idx="46184",label="cast\n[line: 354]",source_file="NameRevCommand.java",method_name="<org.eclipse.jgit.api.NameRevCommand: int minCommitTime()>",start_column="-1",end_column="-1",extra="Block 19:\n[preds: 18 ] [succs: 20 ]\nr3 = (org.eclipse.jgit.revwalk.RevCommit) r9;\n",package_name="org.eclipse.jgit.api",start_line="354",end_line="354",class_name="org.eclipse.jgit.api.NameRevCommand",type="block"];
    48873 [idx="46193",label="cast\n[line: 350]",type="block",start_column="-1",extra="Block 12:\n[preds: 11 ] [succs: 13 ]\n$r7 = (org.eclipse.jgit.revwalk.RevTag) r9;\n",package_name="org.eclipse.jgit.api",class_name="org.eclipse.jgit.api.NameRevCommand",source_file="NameRevCommand.java",method_name="<org.eclipse.jgit.api.NameRevCommand: int minCommitTime()>",end_line="350",end_column="-1",start_line="350"];
    48880 [idx="46185",label="const '0'\n[line: 353]",extra="0",type="int",end_line="353",source_file="NameRevCommand.java",method_name="<org.eclipse.jgit.api.NameRevCommand: int minCommitTime()>",start_line="353",start_column="-1",package_name="org.eclipse.jgit.api",class_name="org.eclipse.jgit.api.NameRevCommand",end_column="-1"];
    48872 [idx="46192",label="const '0'\n[line: 349]",extra="0",class_name="org.eclipse.jgit.api.NameRevCommand",method_name="<org.eclipse.jgit.api.NameRevCommand: int minCommitTime()>",type="int",start_line="349",package_name="org.eclipse.jgit.api",source_file="NameRevCommand.java",start_column="-1",end_line="349",end_column="-1"];
    48879 [idx="46199",label="==\n[line: 353]",extra="Block 18:\n[preds: 17 ] [succs: 19 23 ]\nif $z2 == 0 goto (branch);\n",type="control",start_column="-1",end_line="353",package_name="org.eclipse.jgit.api",class_name="org.eclipse.jgit.api.NameRevCommand",source_file="NameRevCommand.java",method_name="<org.eclipse.jgit.api.NameRevCommand: int minCommitTime()>",start_line="353",end_column="-1"];
    48871 [idx="46207",label="==\n[line: 349]",package_name="org.eclipse.jgit.api",method_name="<org.eclipse.jgit.api.NameRevCommand: int minCommitTime()>",type="control",start_line="349",start_column="-1",end_line="349",extra="Block 11:\n[preds: 10 ] [succs: 12 17 ]\nif $z1 == 0 goto $z2 = r9 instanceof org.eclipse.jgit.revwalk.RevCommit;\n",class_name="org.eclipse.jgit.api.NameRevCommand",source_file="NameRevCommand.java",end_column="-1"];
    48878 [idx="46198",label="instanceof\n[line: 353]",end_column="-1",class_name="org.eclipse.jgit.api.NameRevCommand",source_file="NameRevCommand.java",method_name="<org.eclipse.jgit.api.NameRevCommand: int minCommitTime()>",end_line="353",extra="Block 17:\n[preds: 11 ] [succs: 18 ]\n$z2 = r9 instanceof org.eclipse.jgit.revwalk.RevCommit;\n",package_name="org.eclipse.jgit.api",type="block",start_line="353",start_column="-1"];
    48870 [idx="46206",label="instanceof\n[line: 349]",source_file="NameRevCommand.java",start_line="349",start_column="-1",end_line="349",extra="Block 10:\n[preds: 9 16 ] [succs: 11 ]\n$z1 = r9 instanceof org.eclipse.jgit.revwalk.RevTag;\n",package_name="org.eclipse.jgit.api",class_name="org.eclipse.jgit.api.NameRevCommand",method_name="<org.eclipse.jgit.api.NameRevCommand: int minCommitTime()>",type="block",end_column="-1"];
    48874 [idx="46194",label="call org.eclipse.jgit.revwalk.RevTag.getObject\n[line: 350]",start_column="-1",end_line="350",end_column="-1",start_line="350",extra="Block 13:\n[preds: 12 ] [succs: 14 ]\nr9 = virtualinvoke $r7.<org.eclipse.jgit.revwalk.RevTag: org.eclipse.jgit.revwalk.RevObject getObject()>();\n",package_name="org.eclipse.jgit.api",class_name="org.eclipse.jgit.api.NameRevCommand",source_file="NameRevCommand.java",method_name="<org.eclipse.jgit.api.NameRevCommand: int minCommitTime()>",type="call"];
    48879 -> 48881 [label=""];
    48871 -> 48873 [label=""];
    48870 -> 48871 [label="boolean:0"];
    48880 -> 48879 [label="int:1"];
    48872 -> 48871 [label="int:1"];
    48874 -> 48881 [label="org.eclipse.jgit.revwalk.RevObject:1"];
    48874 -> 48873 [label="org.eclipse.jgit.revwalk.RevObject:1"];
    48874 -> 48878 [label="org.eclipse.jgit.revwalk.RevObject:1"];
    48874 -> 48870 [label="org.eclipse.jgit.revwalk.RevObject:1"];
}

