digraph {
    87755 [idx="82206",label="return\n[line: 112]",class_name="org.eclipse.jgit.util.RelativeDateFormatter",source_file="RelativeDateFormatter.java",method_name="<org.eclipse.jgit.util.RelativeDateFormatter: java.lang.String format(java.util.Date)>",end_column="-1",extra="Block 72:\n[preds: 71 ] [succs: ]\nreturn $r23;\n",package_name="org.eclipse.jgit.util",type="block",start_line="112",start_column="-1",end_line="112"];
    87753 [idx="82204",label="const '0'\n[line: 112]",extra="0",class_name="org.eclipse.jgit.util.RelativeDateFormatter",source_file="RelativeDateFormatter.java",method_name="<org.eclipse.jgit.util.RelativeDateFormatter: java.lang.String format(java.util.Date)>",type="int",start_line="112",package_name="org.eclipse.jgit.util",start_column="-1",end_line="112",end_column="-1"];
    87748 [idx="82193",label="const '1'\n[line: 112]",end_line="112",end_column="-1",package_name="org.eclipse.jgit.util",method_name="<org.eclipse.jgit.util.RelativeDateFormatter: java.lang.String format(java.util.Date)>",type="int",start_column="-1",extra="1",class_name="org.eclipse.jgit.util.RelativeDateFormatter",source_file="RelativeDateFormatter.java",start_line="112"];
    87752 [idx="82205",label="array index\n[line: 112]",start_column="-1",end_line="112",end_column="-1",extra="Block 70:\n[preds: 69 ] [succs: 71 ]\n$r20[0] = $r24;\n",package_name="org.eclipse.jgit.util",source_file="RelativeDateFormatter.java",method_name="<org.eclipse.jgit.util.RelativeDateFormatter: java.lang.String format(java.util.Date)>",type="block",start_line="112",class_name="org.eclipse.jgit.util.RelativeDateFormatter"];
    87747 [idx="82198",label="new-array\n[line: 112]",source_file="RelativeDateFormatter.java",type="block",start_column="-1",class_name="org.eclipse.jgit.util.RelativeDateFormatter",extra="Block 67:\n[preds: 66 ] [succs: 68 ]\n$r20 = newarray (java.lang.Object)[1];\n",package_name="org.eclipse.jgit.util",method_name="<org.eclipse.jgit.util.RelativeDateFormatter: java.lang.String format(java.util.Date)>",start_line="112",end_line="112",end_column="-1"];
    87743 [idx="82285",label=">=\n[line: 111]",end_column="-1",package_name="org.eclipse.jgit.util",source_file="RelativeDateFormatter.java",type="control",end_line="111",method_name="<org.eclipse.jgit.util.RelativeDateFormatter: java.lang.String format(java.util.Date)>",start_line="111",start_column="-1",extra="Block 64:\n[preds: 63 ] [succs: 65 73 ]\nif $b13 >= 0 goto $b15 = l0 cmp 157680000000L;\n",class_name="org.eclipse.jgit.util.RelativeDateFormatter"];
    87754 [idx="82207",label="call java.text.MessageFormat.format\n[line: 112]",extra="Block 71:\n[preds: 70 ] [succs: 72 ]\n$r23 = staticinvoke <java.text.MessageFormat: java.lang.String format(java.lang.String,java.lang.Object[])>($r19, $r20);\n",class_name="org.eclipse.jgit.util.RelativeDateFormatter",start_line="112",end_line="112",end_column="-1",package_name="org.eclipse.jgit.util",source_file="RelativeDateFormatter.java",method_name="<org.eclipse.jgit.util.RelativeDateFormatter: java.lang.String format(java.util.Date)>",type="call",start_column="-1"];
    87751 [idx="82194",label="call java.lang.Long.valueOf\n[line: 112]",source_file="RelativeDateFormatter.java",method_name="<org.eclipse.jgit.util.RelativeDateFormatter: java.lang.String format(java.util.Date)>",type="call",extra="Block 69:\n[preds: 68 ] [succs: 70 ]\n$r24 = staticinvoke <java.lang.Long: java.lang.Long valueOf(long)>($l22);\n",package_name="org.eclipse.jgit.util",class_name="org.eclipse.jgit.util.RelativeDateFormatter",start_line="112",end_line="112",start_column="-1",end_column="-1"];
    87749 [idx="82192",label="call org.eclipse.jgit.util.RelativeDateFormatter.round\n[line: 112]",extra="Block 68:\n[preds: 67 ] [succs: 69 ]\n$l22 = staticinvoke <org.eclipse.jgit.util.RelativeDateFormatter: long round(long,long)>(l0, 2592000000L);\n",source_file="RelativeDateFormatter.java",method_name="<org.eclipse.jgit.util.RelativeDateFormatter: java.lang.String format(java.util.Date)>",type="call",start_line="112",start_column="-1",end_line="112",package_name="org.eclipse.jgit.util",class_name="org.eclipse.jgit.util.RelativeDateFormatter",end_column="-1"];
    87743 -> 87752 [label=""];
    87743 -> 87754 [label=""];
    87751 -> 87752 [label="java.lang.Long:2"];
    87753 -> 87752 [label="int:1"];
    87748 -> 87747 [label="int:1"];
    87749 -> 87751 [label="long:1"];
    87747 -> 87752 [label="java.lang.Object[]:0"];
    87747 -> 87754 [label="java.lang.Object[]:2"];
    87754 -> 87755 [label="java.lang.String:0"];
}

