digraph {
    91080 [idx="96036",label="array index\n[line: 938]",package_name="org.eclipse.jgit.internal.storage.dfs",source_file="DfsPackFile.java",start_line="938",start_column="-1",extra="Block 5:\n[preds: 4 ] [succs: 6 ]\n$b1 = r2[0];\n",class_name="org.eclipse.jgit.internal.storage.dfs.DfsPackFile",method_name="<org.eclipse.jgit.internal.storage.dfs.DfsPackFile: int getObjectType(org.eclipse.jgit.internal.storage.dfs.DfsReader,long)>",type="block",end_line="938",end_column="-1"];
    91161 [idx="94343",label="throw\n[line: 974]",package_name="org.eclipse.jgit.internal.storage.dfs",source_file="DfsPackFile.java",method_name="<org.eclipse.jgit.internal.storage.dfs.DfsPackFile: int getObjectType(org.eclipse.jgit.internal.storage.dfs.DfsReader,long)>",start_column="-1",end_line="974",extra="Block 60:\n[preds: 59 ] [succs: ]\nthrow $r5;\n",class_name="org.eclipse.jgit.internal.storage.dfs.DfsPackFile",type="block",start_line="974",end_column="-1"];
    91112 [idx="96006",label="==\n[line: 954]",class_name="org.eclipse.jgit.internal.storage.dfs.DfsPackFile",method_name="<org.eclipse.jgit.internal.storage.dfs.DfsPackFile: int getObjectType(org.eclipse.jgit.internal.storage.dfs.DfsReader,long)>",type="control",start_line="954",start_column="-1",extra="Block 25:\n[preds: 24 ] [succs: 26 36 ]\nif $s10 == 0 goto l18 = l18 - l23;\n",package_name="org.eclipse.jgit.internal.storage.dfs",source_file="DfsPackFile.java",end_line="954",end_column="-1"];
    91129 [idx="96022",label="-\n[line: 960]",extra="Block 36:\n[preds: 25 ] [succs: 37 ]\nl18 = l18 - l23;\n",package_name="org.eclipse.jgit.internal.storage.dfs",class_name="org.eclipse.jgit.internal.storage.dfs.DfsPackFile",type="block",start_column="-1",end_column="-1",source_file="DfsPackFile.java",method_name="<org.eclipse.jgit.internal.storage.dfs.DfsPackFile: int getObjectType(org.eclipse.jgit.internal.storage.dfs.DfsReader,long)>",start_line="960",end_line="960"];
    91114 [idx="96004",label="+\n[line: 955]",extra="Block 26:\n[preds: 25 ] [succs: 27 ]\nl24 = l23 + 1L;\n",package_name="org.eclipse.jgit.internal.storage.dfs",class_name="org.eclipse.jgit.internal.storage.dfs.DfsPackFile",source_file="DfsPackFile.java",method_name="<org.eclipse.jgit.internal.storage.dfs.DfsPackFile: int getObjectType(org.eclipse.jgit.internal.storage.dfs.DfsReader,long)>",end_line="955",end_column="-1",type="block",start_line="955",start_column="-1"];
    91127 [idx="96024",label="+\n[line: 958]",package_name="org.eclipse.jgit.internal.storage.dfs",type="block",start_line="958",start_column="-1",end_line="958",end_column="-1",extra="Block 34:\n[preds: 33 ] [succs: 35 ]\nl23 = l25 + $l14;\n",source_file="DfsPackFile.java",method_name="<org.eclipse.jgit.internal.storage.dfs.DfsPackFile: int getObjectType(org.eclipse.jgit.internal.storage.dfs.DfsReader,long)>",class_name="org.eclipse.jgit.internal.storage.dfs.DfsPackFile"];
    91086 [idx="96034",label="&\n[line: 939]",start_line="939",end_line="939",extra="Block 8:\n[preds: 7 ] [succs: 9 ]\ns0 = $s2 & 7;\n",method_name="<org.eclipse.jgit.internal.storage.dfs.DfsPackFile: int getObjectType(org.eclipse.jgit.internal.storage.dfs.DfsReader,long)>",source_file="DfsPackFile.java",type="block",start_column="-1",end_column="-1",package_name="org.eclipse.jgit.internal.storage.dfs",class_name="org.eclipse.jgit.internal.storage.dfs.DfsPackFile"];
    91115 [idx="96005",label="const '1L'\n[line: 955]",extra="1L",package_name="org.eclipse.jgit.internal.storage.dfs",method_name="<org.eclipse.jgit.internal.storage.dfs.DfsPackFile: int getObjectType(org.eclipse.jgit.internal.storage.dfs.DfsReader,long)>",type="long",start_column="-1",class_name="org.eclipse.jgit.internal.storage.dfs.DfsPackFile",source_file="DfsPackFile.java",start_line="955",end_line="955",end_column="-1"];
    91088 [idx="96061",label="switch\n[line: 941]",package_name="org.eclipse.jgit.internal.storage.dfs",source_file="DfsPackFile.java",start_line="941",end_line="941",extra="Block 9:\n[preds: 8 ] [succs: 10 52 11 38 ]\ntableswitch(s0) {     case 1: goto return s0;     case 2: goto return s0;     case 3: goto return s0;     case 4: goto return s0;     case 5: goto $r5 = new java.io.IOException;     case 6: goto i20 = 1;     case 7: goto i26 = 1;     default: goto $r5 = new java.io.IOException; };\n",class_name="org.eclipse.jgit.internal.storage.dfs.DfsPackFile",method_name="<org.eclipse.jgit.internal.storage.dfs.DfsPackFile: int getObjectType(org.eclipse.jgit.internal.storage.dfs.DfsReader,long)>",type="block",start_column="-1",end_column="-1"];
    91112 -> 91114 [label=""];
    91088 -> 91080 [label=""];
    91088 -> 91161 [label=""];
    91088 -> 91129 [label=""];
    91127 -> 91129 [label="long:2"];
    91115 -> 91114 [label="long:2"];
    91127 -> 91114 [label="long:1"];
    91086 -> 91088 [label="short:0"];
}

