digraph {
    56202 [idx="55176",label="const '0'\n[line: 59]",extra="0",method_name="<org.eclipse.jgit.api.RebaseResult$Status: void <clinit>()>",type="int",start_column="-1",package_name="org.eclipse.jgit.api",class_name="org.eclipse.jgit.api.RebaseResult$Status",source_file="RebaseResult.java",start_line="59",end_line="59",end_column="-1"];
    56204 [idx="55182",label="const '1'\n[line: 59]",extra="1",package_name="org.eclipse.jgit.api",class_name="org.eclipse.jgit.api.RebaseResult$Status",method_name="<org.eclipse.jgit.api.RebaseResult$Status: void <clinit>()>",end_line="59",source_file="RebaseResult.java",type="int",start_line="59",start_column="-1",end_column="-1"];
    56206 [idx="55180",label="const '2'\n[line: 59]",package_name="org.eclipse.jgit.api",start_line="59",class_name="org.eclipse.jgit.api.RebaseResult$Status",source_file="RebaseResult.java",method_name="<org.eclipse.jgit.api.RebaseResult$Status: void <clinit>()>",type="int",start_column="-1",end_line="59",end_column="-1",extra="2"];
    56201 [idx="55179",label="array index\n[line: 59]",package_name="org.eclipse.jgit.api",class_name="org.eclipse.jgit.api.RebaseResult$Status",method_name="<org.eclipse.jgit.api.RebaseResult$Status: void <clinit>()>",type="block",start_column="-1",end_line="59",extra="Block 38:\n[preds: 37 ] [succs: 39 ]\n$r12[0] = $r13;\n",end_column="-1",start_line="59",source_file="RebaseResult.java"];
    56208 [idx="55187",label="const '3'\n[line: 59]",start_column="-1",source_file="RebaseResult.java",start_line="59",class_name="org.eclipse.jgit.api.RebaseResult$Status",method_name="<org.eclipse.jgit.api.RebaseResult$Status: void <clinit>()>",type="int",end_line="59",end_column="-1",extra="3",package_name="org.eclipse.jgit.api"];
    56210 [idx="55185",label="const '4'\n[line: 59]",class_name="org.eclipse.jgit.api.RebaseResult$Status",method_name="<org.eclipse.jgit.api.RebaseResult$Status: void <clinit>()>",start_line="59",end_line="59",end_column="-1",extra="4",package_name="org.eclipse.jgit.api",source_file="RebaseResult.java",type="int",start_column="-1"];
    56214 [idx="55189",label="const '6'\n[line: 59]",method_name="<org.eclipse.jgit.api.RebaseResult$Status: void <clinit>()>",start_line="59",start_column="-1",end_line="59",end_column="-1",package_name="org.eclipse.jgit.api",class_name="org.eclipse.jgit.api.RebaseResult$Status",source_file="RebaseResult.java",type="int",extra="6"];
    56216 [idx="55195",label="const '7'\n[line: 59]",start_line="59",start_column="-1",source_file="RebaseResult.java",method_name="<org.eclipse.jgit.api.RebaseResult$Status: void <clinit>()>",end_line="59",end_column="-1",extra="7",package_name="org.eclipse.jgit.api",class_name="org.eclipse.jgit.api.RebaseResult$Status",type="int"];
    56218 [idx="55193",label="const '8'\n[line: 59]",source_file="RebaseResult.java",type="int",start_column="-1",end_line="59",extra="8",package_name="org.eclipse.jgit.api",class_name="org.eclipse.jgit.api.RebaseResult$Status",method_name="<org.eclipse.jgit.api.RebaseResult$Status: void <clinit>()>",start_line="59",end_column="-1"];
    56202 -> 56201 [label="int:1"];
    56204 -> 56201 [label="int:1"];
    56206 -> 56201 [label="int:1"];
    56208 -> 56201 [label="int:1"];
    56210 -> 56201 [label="int:1"];
    56214 -> 56201 [label="int:1"];
    56216 -> 56201 [label="int:1"];
    56218 -> 56201 [label="int:1"];
}

