digraph {
    8404 [idx="8858",label="const '0'\n[line: 404]",type="int",start_line="404",end_line="404",end_column="-1",package_name="org.eclipse.jgit.lib",source_file="AnyObjectId.java",extra="0",class_name="org.eclipse.jgit.lib.AnyObjectId",method_name="<org.eclipse.jgit.lib.AnyObjectId: void <clinit>()>",start_column="-1"];
    8406 [idx="8856",label="const '1'\n[line: 404]",end_column="-1",package_name="org.eclipse.jgit.lib",start_line="404",end_line="404",start_column="-1",extra="1",class_name="org.eclipse.jgit.lib.AnyObjectId",source_file="AnyObjectId.java",method_name="<org.eclipse.jgit.lib.AnyObjectId: void <clinit>()>",type="int"];
    8410 [idx="8852",label="const '3'\n[line: 404]",class_name="org.eclipse.jgit.lib.AnyObjectId",method_name="<org.eclipse.jgit.lib.AnyObjectId: void <clinit>()>",type="int",start_column="-1",end_line="404",end_column="-1",source_file="AnyObjectId.java",start_line="404",extra="3",package_name="org.eclipse.jgit.lib"];
    8401 [idx="8863",label="new-array\n[line: 404]",end_line="404",end_column="-1",source_file="AnyObjectId.java",method_name="<org.eclipse.jgit.lib.AnyObjectId: void <clinit>()>",type="block",start_line="404",extra="Block 0:\n[preds: ] [succs: 1 ]\n$r0 = newarray (byte)[16];\n",package_name="org.eclipse.jgit.lib",class_name="org.eclipse.jgit.lib.AnyObjectId",start_column="-1"];
    8409 [idx="8855",label="array indexconst '51'\n[line: 404]",package_name="org.eclipse.jgit.lib",class_name="org.eclipse.jgit.lib.AnyObjectId",method_name="<org.eclipse.jgit.lib.AnyObjectId: void <clinit>()>",type="block",start_line="404",start_column="-1",extra="Block 4:\n[preds: 3 ] [succs: 5 ]\n$r0[3] = 51;\n",source_file="AnyObjectId.java",end_line="404",end_column="-1"];
    8403 [idx="8861",label="array indexconst '48'\n[line: 404]",source_file="AnyObjectId.java",type="block",extra="Block 1:\n[preds: 0 ] [succs: 2 ]\n$r0[0] = 48;\n",package_name="org.eclipse.jgit.lib",class_name="org.eclipse.jgit.lib.AnyObjectId",method_name="<org.eclipse.jgit.lib.AnyObjectId: void <clinit>()>",start_line="404",start_column="-1",end_line="404",end_column="-1"];
    8405 [idx="8859",label="array indexconst '49'\n[line: 404]",end_column="-1",extra="Block 2:\n[preds: 1 ] [succs: 3 ]\n$r0[1] = 49;\n",class_name="org.eclipse.jgit.lib.AnyObjectId",method_name="<org.eclipse.jgit.lib.AnyObjectId: void <clinit>()>",type="block",start_line="404",end_line="404",package_name="org.eclipse.jgit.lib",source_file="AnyObjectId.java",start_column="-1"];
    8415 [idx="8849",label="array indexconst '54'\n[line: 404]",package_name="org.eclipse.jgit.lib",class_name="org.eclipse.jgit.lib.AnyObjectId",method_name="<org.eclipse.jgit.lib.AnyObjectId: void <clinit>()>",type="block",start_line="404",start_column="-1",end_line="404",end_column="-1",extra="Block 7:\n[preds: 6 ] [succs: 8 ]\n$r0[6] = 54;\n",source_file="AnyObjectId.java"];
    8416 [idx="8877",label="const '6'\n[line: 404]",start_line="404",start_column="-1",extra="6",package_name="org.eclipse.jgit.lib",class_name="org.eclipse.jgit.lib.AnyObjectId",source_file="AnyObjectId.java",type="int",end_line="404",method_name="<org.eclipse.jgit.lib.AnyObjectId: void <clinit>()>",end_column="-1"];
    8410 -> 8409 [label="int:1"];
    8404 -> 8403 [label="int:1"];
    8406 -> 8405 [label="int:1"];
    8416 -> 8415 [label="int:1"];
    8401 -> 8409 [label="byte[]:0"];
    8401 -> 8403 [label="byte[]:0"];
    8401 -> 8405 [label="byte[]:0"];
    8401 -> 8415 [label="byte[]:0"];
}

