digraph {
    90554 [idx="95605",label="new\n[line: 587]",end_line="587",end_column="-1",extra="Block 174:\n[preds: 173 ] [succs: 175 ]\n$r40 = new org.eclipse.jgit.errors.CorruptObjectException;\n",package_name="org.eclipse.jgit.internal.storage.dfs",class_name="org.eclipse.jgit.internal.storage.dfs.DfsPackFile",start_column="-1",type="block",start_line="587",source_file="DfsPackFile.java",method_name="<org.eclipse.jgit.internal.storage.dfs.DfsPackFile: void copyAsIs(org.eclipse.jgit.internal.storage.pack.PackOutputStream,org.eclipse.jgit.internal.storage.dfs.DfsObjectToPack,boolean,org.eclipse.jgit.internal.storage.dfs.DfsReader)>"];
    90562 [idx="95498",label="const '0'\n[line: 587]",source_file="DfsPackFile.java",method_name="<org.eclipse.jgit.internal.storage.dfs.DfsPackFile: void copyAsIs(org.eclipse.jgit.internal.storage.pack.PackOutputStream,org.eclipse.jgit.internal.storage.dfs.DfsObjectToPack,boolean,org.eclipse.jgit.internal.storage.dfs.DfsReader)>",start_column="-1",end_line="587",end_column="-1",package_name="org.eclipse.jgit.internal.storage.dfs",class_name="org.eclipse.jgit.internal.storage.dfs.DfsPackFile",type="int",start_line="587",extra="0"];
    90561 [idx="95497",label="array index\n[line: 587]",type="block",end_line="587",package_name="org.eclipse.jgit.internal.storage.dfs",class_name="org.eclipse.jgit.internal.storage.dfs.DfsPackFile",source_file="DfsPackFile.java",method_name="<org.eclipse.jgit.internal.storage.dfs.DfsPackFile: void copyAsIs(org.eclipse.jgit.internal.storage.pack.PackOutputStream,org.eclipse.jgit.internal.storage.dfs.DfsObjectToPack,boolean,org.eclipse.jgit.internal.storage.dfs.DfsReader)>",start_line="587",start_column="-1",end_column="-1",extra="Block 180:\n[preds: 179 ] [succs: 181 ]\n$r41[0] = $r32;\n"];
    90557 [idx="95602",label="new-array\n[line: 587]",class_name="org.eclipse.jgit.internal.storage.dfs.DfsPackFile",type="block",end_line="587",end_column="-1",extra="Block 177:\n[preds: 176 ] [succs: 178 ]\n$r41 = newarray (java.lang.Object)[2];\n",package_name="org.eclipse.jgit.internal.storage.dfs",start_line="587",start_column="-1",source_file="DfsPackFile.java",method_name="<org.eclipse.jgit.internal.storage.dfs.DfsPackFile: void copyAsIs(org.eclipse.jgit.internal.storage.pack.PackOutputStream,org.eclipse.jgit.internal.storage.dfs.DfsObjectToPack,boolean,org.eclipse.jgit.internal.storage.dfs.DfsReader)>"];
    90565 [idx="95501",label="call java.text.MessageFormat.format\n[line: 587]",package_name="org.eclipse.jgit.internal.storage.dfs",class_name="org.eclipse.jgit.internal.storage.dfs.DfsPackFile",source_file="DfsPackFile.java",method_name="<org.eclipse.jgit.internal.storage.dfs.DfsPackFile: void copyAsIs(org.eclipse.jgit.internal.storage.pack.PackOutputStream,org.eclipse.jgit.internal.storage.dfs.DfsObjectToPack,boolean,org.eclipse.jgit.internal.storage.dfs.DfsReader)>",start_line="587",start_column="-1",extra="Block 183:\n[preds: 182 ] [succs: 184 ]\n$r35 = staticinvoke <java.text.MessageFormat: java.lang.String format(java.lang.String,java.lang.Object[])>($r43, $r41);\n",type="call",end_line="587",end_column="-1"];
    90560 [idx="95496",label="call java.lang.Long.valueOf\n[line: 587]",package_name="org.eclipse.jgit.internal.storage.dfs",class_name="org.eclipse.jgit.internal.storage.dfs.DfsPackFile",end_line="587",end_column="-1",start_line="587",start_column="-1",extra="Block 179:\n[preds: 178 ] [succs: 180 ]\n$r32 = staticinvoke <java.lang.Long: java.lang.Long valueOf(long)>($l66);\n",source_file="DfsPackFile.java",method_name="<org.eclipse.jgit.internal.storage.dfs.DfsPackFile: void copyAsIs(org.eclipse.jgit.internal.storage.pack.PackOutputStream,org.eclipse.jgit.internal.storage.dfs.DfsObjectToPack,boolean,org.eclipse.jgit.internal.storage.dfs.DfsReader)>",type="call"];
    90566 [idx="95502",label="call org.eclipse.jgit.errors.CorruptObjectException.<init>\n[line: 587]",package_name="org.eclipse.jgit.internal.storage.dfs",source_file="DfsPackFile.java",method_name="<org.eclipse.jgit.internal.storage.dfs.DfsPackFile: void copyAsIs(org.eclipse.jgit.internal.storage.pack.PackOutputStream,org.eclipse.jgit.internal.storage.dfs.DfsObjectToPack,boolean,org.eclipse.jgit.internal.storage.dfs.DfsReader)>",start_column="-1",end_column="-1",type="call",start_line="587",end_line="587",extra="Block 184:\n[preds: 183 ] [succs: 185 ]\nspecialinvoke $r40.<org.eclipse.jgit.errors.CorruptObjectException: void <init>(java.lang.String)>($r35);\n",class_name="org.eclipse.jgit.internal.storage.dfs.DfsPackFile"];
    90563 [idx="95499",label="call org.eclipse.jgit.internal.storage.dfs.DfsPackFile.getPackName\n[line: 587]",source_file="DfsPackFile.java",method_name="<org.eclipse.jgit.internal.storage.dfs.DfsPackFile: void copyAsIs(org.eclipse.jgit.internal.storage.pack.PackOutputStream,org.eclipse.jgit.internal.storage.dfs.DfsObjectToPack,boolean,org.eclipse.jgit.internal.storage.dfs.DfsReader)>",end_line="587",extra="Block 181:\n[preds: 180 ] [succs: 182 ]\n$r33 = specialinvoke r0.<org.eclipse.jgit.internal.storage.dfs.DfsPackFile: java.lang.String getPackName()>();\n",package_name="org.eclipse.jgit.internal.storage.dfs",class_name="org.eclipse.jgit.internal.storage.dfs.DfsPackFile",end_column="-1",type="call",start_line="587",start_column="-1"];
    90556 [idx="95603",label="org.eclipse.jgit.internal.JGitText.objectAtHasBadZlibStream\n[line: 587]",start_column="-1",end_line="587",extra="Block 176:\n[preds: 175 ] [succs: 177 ]\n$r43 = $r42.<org.eclipse.jgit.internal.JGitText: java.lang.String objectAtHasBadZlibStream>;\n",class_name="org.eclipse.jgit.internal.storage.dfs.DfsPackFile",source_file="DfsPackFile.java",package_name="org.eclipse.jgit.internal.storage.dfs",method_name="<org.eclipse.jgit.internal.storage.dfs.DfsPackFile: void copyAsIs(org.eclipse.jgit.internal.storage.pack.PackOutputStream,org.eclipse.jgit.internal.storage.dfs.DfsObjectToPack,boolean,org.eclipse.jgit.internal.storage.dfs.DfsReader)>",type="block",start_line="587",end_column="-1"];
    90560 -> 90561 [label="java.lang.Long:2"];
    90562 -> 90561 [label="int:1"];
    90554 -> 90566 [label="org.eclipse.jgit.errors.CorruptObjectException:1"];
    90557 -> 90561 [label="java.lang.Object[]:0"];
    90557 -> 90565 [label="java.lang.Object[]:2"];
    90565 -> 90566 [label="java.lang.String:0"];
    90563 -> 90561 [label="java.lang.String:2"];
    90556 -> 90565 [label="java.lang.String:1"];
}

