digraph {
    60105 [idx="58814",label="new"];
    60095 [idx="58831",label="new"];
    60103 [idx="58800",label="const '1'"];
    60101 [idx="58802",label="="];
    60092 [idx="58828",label="=="];
    60098 [idx="58805",label="call org.eclipse.jgit.lib.Repository.lockDirCache"];
    60096 [idx="58807",label="org.eclipse.jgit.api.GitCommand.repo"];
    60102 [idx="58801",label="call org.eclipse.jgit.dircache.DirCacheCheckout.setFailOnConflict"];
    60100 [idx="58803",label="call org.eclipse.jgit.dircache.DirCacheCheckout.<init>"];
    60092 -> 60105 [label=""];
    60092 -> 60101 [label=""];
    60092 -> 60096 [label=""];
    60092 -> 60102 [label=""];
    60092 -> 60100 [label=""];
    60095 -> 60100 [label="org.eclipse.jgit.dircache.DirCacheCheckout:4"];
    60098 -> 60100 [label="org.eclipse.jgit.dircache.DirCache:2"];
    60103 -> 60102 [label="int:0"];
}

