digraph {
    63323 [idx="63951",label="cast"];
    63319 [idx="63939",label="cast"];
    63333 [idx="63986",label="goto"];
    63316 [idx="63936",label="=="];
    63318 [idx="63938",label="call java.util.Iterator.next"];
    63315 [idx="63943",label="call java.util.Iterator.hasNext"];
    63314 [idx="63942",label="call java.util.Set.iterator"];
    63326 [idx="63946",label="call java.util.Map$Entry.getValue"];
    63322 [idx="63950",label="call java.util.Map$Entry.getKey"];
    63316 -> 63333 [label=""];
    63316 -> 63326 [label=""];
    63316 -> 63322 [label=""];
    63315 -> 63316 [label="boolean:0"];
    63319 -> 63322 [label="java.util.Map$Entry:1"];
    63314 -> 63318 [label="java.util.Iterator:1"];
    63314 -> 63315 [label="java.util.Iterator:1"];
    63322 -> 63323 [label="java.lang.Object:1"];
}

