digraph {
    100020 [idx="105931",label="cast\n[line: 200]",class_name="org.eclipse.jgit.internal.storage.pack.PackWriterBitmapPreparer",source_file="PackWriterBitmapPreparer.java",method_name="<org.eclipse.jgit.internal.storage.pack.PackWriterBitmapPreparer: java.util.Collection doCommitSelection(int)>",type="block",start_column="-1",extra="Block 129:\n[preds: 128 ] [succs: 130 ]\nr60 = (java.util.List) $r39;\n",end_column="-1",package_name="org.eclipse.jgit.internal.storage.pack",start_line="200",end_line="200"];
    99930 [idx="105770",label="=\n[line: 137]",end_line="137",extra="Block 55:\n[preds: 54 ] [succs: 56 ]\nr4 = $r24;\n",source_file="PackWriterBitmapPreparer.java",method_name="<org.eclipse.jgit.internal.storage.pack.PackWriterBitmapPreparer: java.util.Collection doCommitSelection(int)>",type="block",start_line="137",start_column="-1",end_column="-1",package_name="org.eclipse.jgit.internal.storage.pack",class_name="org.eclipse.jgit.internal.storage.pack.PackWriterBitmapPreparer"];
    100011 [idx="105941",label="goto\n[line: 186]",extra="Block 121:\n[preds: 120 ] [succs: 119 ]\ngoto [?= $r34 = virtualinvoke r1.<org.eclipse.jgit.revwalk.RevWalk: org.eclipse.jgit.revwalk.RevCommit next()>()];\n",package_name="org.eclipse.jgit.internal.storage.pack",type="block",start_column="-1",class_name="org.eclipse.jgit.internal.storage.pack.PackWriterBitmapPreparer",source_file="PackWriterBitmapPreparer.java",method_name="<org.eclipse.jgit.internal.storage.pack.PackWriterBitmapPreparer: java.util.Collection doCommitSelection(int)>",start_line="186",end_line="186",end_column="-1"];
    100009 [idx="105943",label="==\n[line: 176]",method_name="<org.eclipse.jgit.internal.storage.pack.PackWriterBitmapPreparer: java.util.Collection doCommitSelection(int)>",start_line="176",end_line="176",class_name="org.eclipse.jgit.internal.storage.pack.PackWriterBitmapPreparer",type="control",start_column="-1",end_column="-1",extra="Block 120:\n[preds: 119 ] [succs: 121 122 ]\nif $r34 == null goto $r35 = new java.util.ArrayList;\n",package_name="org.eclipse.jgit.internal.storage.pack",source_file="PackWriterBitmapPreparer.java"];
    100017 [idx="105934",label="==\n[line: 182]",type="control",start_line="182",extra="Block 127:\n[preds: 126 ] [succs: 128 138 ]\nif $z9 == 0 goto $z10 = interfaceinvoke r58.<java.util.List: boolean isEmpty()>();\n",package_name="org.eclipse.jgit.internal.storage.pack",class_name="org.eclipse.jgit.internal.storage.pack.PackWriterBitmapPreparer",method_name="<org.eclipse.jgit.internal.storage.pack.PackWriterBitmapPreparer: java.util.Collection doCommitSelection(int)>",start_column="-1",end_column="-1",source_file="PackWriterBitmapPreparer.java",end_line="182"];
    99964 [idx="105742",label="==\n[line: 155]",method_name="<org.eclipse.jgit.internal.storage.pack.PackWriterBitmapPreparer: java.util.Collection doCommitSelection(int)>",type="control",start_column="-1",extra="Block 82:\n[preds: 81 ] [succs: 83 86 ]\nif $z8 == 0 goto (branch);\n",start_line="155",end_line="155",end_column="-1",package_name="org.eclipse.jgit.internal.storage.pack",class_name="org.eclipse.jgit.internal.storage.pack.PackWriterBitmapPreparer",source_file="PackWriterBitmapPreparer.java"];
    99998 [idx="105955",label="call java.util.Iterator.hasNext\n[line: 171]",source_file="PackWriterBitmapPreparer.java",method_name="<org.eclipse.jgit.internal.storage.pack.PackWriterBitmapPreparer: java.util.Collection doCommitSelection(int)>",type="call",start_line="171",end_column="-1",extra="Block 110:\n[preds: 109 116 ] [succs: 111 ]\n$z11 = interfaceinvoke r56.<java.util.Iterator: boolean hasNext()>();\n",package_name="org.eclipse.jgit.internal.storage.pack",class_name="org.eclipse.jgit.internal.storage.pack.PackWriterBitmapPreparer",start_column="-1",end_line="171"];
    100016 [idx="105935",label="call java.util.Iterator.hasNext\n[line: 182]",package_name="org.eclipse.jgit.internal.storage.pack",class_name="org.eclipse.jgit.internal.storage.pack.PackWriterBitmapPreparer",method_name="<org.eclipse.jgit.internal.storage.pack.PackWriterBitmapPreparer: java.util.Collection doCommitSelection(int)>",start_column="-1",extra="Block 126:\n[preds: 125 137 ] [succs: 127 ]\n$z9 = interfaceinvoke r59.<java.util.Iterator: boolean hasNext()>();\n",source_file="PackWriterBitmapPreparer.java",type="call",start_line="182",end_line="182",end_column="-1"];
    100015 [idx="105937",label="call java.util.List.iterator\n[line: 182]",package_name="org.eclipse.jgit.internal.storage.pack",source_file="PackWriterBitmapPreparer.java",method_name="<org.eclipse.jgit.internal.storage.pack.PackWriterBitmapPreparer: java.util.Collection doCommitSelection(int)>",type="call",start_column="-1",end_column="-1",start_line="182",end_line="182",extra="Block 125:\n[preds: 124 ] [succs: 126 ]\nr59 = interfaceinvoke r4.<java.util.List: java.util.Iterator iterator()>();\n",class_name="org.eclipse.jgit.internal.storage.pack.PackWriterBitmapPreparer"];
    100017 -> 100020 [label=""];
    100017 -> 100011 [label=""];
    100017 -> 100016 [label=""];
    99964 -> 100009 [label=""];
    99964 -> 99998 [label=""];
    99964 -> 100015 [label=""];
    100015 -> 100016 [label="java.util.Iterator:1"];
    99930 -> 100015 [label="java.util.ArrayList:1"];
}

