digraph {
    53772 [idx="56965",label="new\n[line: 1043]",class_name="org.eclipse.jgit.api.RebaseCommand",method_name="<org.eclipse.jgit.api.RebaseCommand: void checkParameters()>",start_column="-1",end_column="-1",extra="Block 8:\n[preds: 7 ] [succs: 9 ]\n$r34 = new org.eclipse.jgit.api.errors.WrongRepositoryStateException;\n",package_name="org.eclipse.jgit.api",source_file="RebaseCommand.java",type="block",start_line="1043",end_line="1043"];
    53781 [idx="56989",label="const '0'\n[line: 1043]",extra="0",method_name="<org.eclipse.jgit.api.RebaseCommand: void checkParameters()>",type="int",start_column="-1",end_line="1043",package_name="org.eclipse.jgit.api",class_name="org.eclipse.jgit.api.RebaseCommand",source_file="RebaseCommand.java",start_line="1043",end_column="-1"];
    53776 [idx="56984",label="const '1'\n[line: 1043]",method_name="<org.eclipse.jgit.api.RebaseCommand: void checkParameters()>",type="int",start_line="1043",end_column="-1",extra="1",class_name="org.eclipse.jgit.api.RebaseCommand",source_file="RebaseCommand.java",start_column="-1",end_line="1043",package_name="org.eclipse.jgit.api"];
    53780 [idx="56988",label="array index\n[line: 1043]",source_file="RebaseCommand.java",method_name="<org.eclipse.jgit.api.RebaseCommand: void checkParameters()>",start_line="1043",start_column="-1",end_column="-1",extra="Block 15:\n[preds: 14 ] [succs: 16 ]\n$r38[0] = $r41;\n",package_name="org.eclipse.jgit.api",class_name="org.eclipse.jgit.api.RebaseCommand",type="block",end_line="1043"];
    53775 [idx="56966",label="new-array\n[line: 1043]",package_name="org.eclipse.jgit.api",method_name="<org.eclipse.jgit.api.RebaseCommand: void checkParameters()>",start_column="-1",start_line="1043",end_line="1043",end_column="-1",extra="Block 11:\n[preds: 10 ] [succs: 12 ]\n$r38 = newarray (java.lang.Object)[1];\n",class_name="org.eclipse.jgit.api.RebaseCommand",source_file="RebaseCommand.java",type="block"];
    53782 [idx="56990",label="call java.text.MessageFormat.format\n[line: 1043]",class_name="org.eclipse.jgit.api.RebaseCommand",type="call",start_column="-1",end_line="1043",end_column="-1",extra="Block 16:\n[preds: 15 ] [succs: 17 ]\n$r40 = staticinvoke <java.text.MessageFormat: java.lang.String format(java.lang.String,java.lang.Object[])>($r37, $r38);\n",package_name="org.eclipse.jgit.api",source_file="RebaseCommand.java",method_name="<org.eclipse.jgit.api.RebaseCommand: void checkParameters()>",start_line="1043"];
    53778 [idx="56986",label="call org.eclipse.jgit.lib.Repository.getRepositoryState\n[line: 1043]",source_file="RebaseCommand.java",package_name="org.eclipse.jgit.api",type="call",start_line="1043",start_column="-1",end_line="1043",end_column="-1",extra="Block 13:\n[preds: 12 ] [succs: 14 ]\n$r42 = virtualinvoke $r39.<org.eclipse.jgit.lib.Repository: org.eclipse.jgit.lib.RepositoryState getRepositoryState()>();\n",class_name="org.eclipse.jgit.api.RebaseCommand",method_name="<org.eclipse.jgit.api.RebaseCommand: void checkParameters()>"];
    53779 [idx="56987",label="call org.eclipse.jgit.lib.RepositoryState.name\n[line: 1043]",package_name="org.eclipse.jgit.api",class_name="org.eclipse.jgit.api.RebaseCommand",source_file="RebaseCommand.java",method_name="<org.eclipse.jgit.api.RebaseCommand: void checkParameters()>",type="call",start_line="1043",end_column="-1",extra="Block 14:\n[preds: 13 ] [succs: 15 ]\n$r41 = virtualinvoke $r42.<org.eclipse.jgit.lib.RepositoryState: java.lang.String name()>();\n",start_column="-1",end_line="1043"];
    53783 [idx="56991",label="call org.eclipse.jgit.api.errors.WrongRepositoryStateException.<init>\n[line: 1043]",package_name="org.eclipse.jgit.api",method_name="<org.eclipse.jgit.api.RebaseCommand: void checkParameters()>",type="call",start_column="-1",end_line="1043",extra="Block 17:\n[preds: 16 ] [succs: 18 ]\nspecialinvoke $r34.<org.eclipse.jgit.api.errors.WrongRepositoryStateException: void <init>(java.lang.String)>($r40);\n",class_name="org.eclipse.jgit.api.RebaseCommand",source_file="RebaseCommand.java",start_line="1043",end_column="-1"];
    53772 -> 53783 [label="org.eclipse.jgit.api.errors.WrongRepositoryStateException:1"];
    53778 -> 53779 [label="org.eclipse.jgit.lib.RepositoryState:1"];
    53781 -> 53780 [label="int:1"];
    53776 -> 53775 [label="int:1"];
    53775 -> 53780 [label="java.lang.Object[]:0"];
    53775 -> 53782 [label="java.lang.Object[]:2"];
    53782 -> 53783 [label="java.lang.String:0"];
    53779 -> 53780 [label="java.lang.String:2"];
}

