digraph {
    33737 [idx="35578",label="const '0'\n[line: 244]",extra="0",class_name="org.eclipse.jgit.transport.OpenSshConfig",end_line="244",end_column="-1",package_name="org.eclipse.jgit.transport",source_file="OpenSshConfig.java",method_name="<org.eclipse.jgit.transport.OpenSshConfig: java.util.Map parse(java.io.InputStream)>",type="int",start_line="244",start_column="-1"];
    33732 [idx="35575",label="const '0'\n[line: 241]",start_line="241",end_line="241",extra="0",package_name="org.eclipse.jgit.transport",class_name="org.eclipse.jgit.transport.OpenSshConfig",source_file="OpenSshConfig.java",method_name="<org.eclipse.jgit.transport.OpenSshConfig: java.util.Map parse(java.io.InputStream)>",type="int",start_column="-1",end_column="-1"];
    33716 [idx="35456",label="const '0'\n[line: 237]",class_name="org.eclipse.jgit.transport.OpenSshConfig",source_file="OpenSshConfig.java",type="int",start_line="237",start_column="-1",extra="0",package_name="org.eclipse.jgit.transport",end_line="237",end_column="-1",method_name="<org.eclipse.jgit.transport.OpenSshConfig: java.util.Map parse(java.io.InputStream)>"];
    33728 [idx="35571",label="goto\n[line: 238]",extra="Block 133:\n[preds: 124 ] [succs: 146 ]\ngoto [?= (branch)];\n",class_name="org.eclipse.jgit.transport.OpenSshConfig",source_file="OpenSshConfig.java",type="block",start_column="-1",end_line="238",end_column="-1",method_name="<org.eclipse.jgit.transport.OpenSshConfig: java.util.Map parse(java.io.InputStream)>",start_line="238",package_name="org.eclipse.jgit.transport"];
    33736 [idx="35579",label="==\n[line: 244]",method_name="<org.eclipse.jgit.transport.OpenSshConfig: java.util.Map parse(java.io.InputStream)>",start_line="244",start_column="-1",end_line="244",end_column="-1",package_name="org.eclipse.jgit.transport",class_name="org.eclipse.jgit.transport.OpenSshConfig",type="control",extra="Block 139:\n[preds: 138 ] [succs: 140 146 ]\nif $z9 == 0 goto (branch);\n",source_file="OpenSshConfig.java"];
    33731 [idx="35568",label="==\n[line: 241]",class_name="org.eclipse.jgit.transport.OpenSshConfig",method_name="<org.eclipse.jgit.transport.OpenSshConfig: java.util.Map parse(java.io.InputStream)>",type="control",start_line="241",end_column="-1",extra="Block 135:\n[preds: 134 ] [succs: 136 146 ]\nif $z10 == 0 goto (branch);\n",package_name="org.eclipse.jgit.transport",source_file="OpenSshConfig.java",start_column="-1",end_line="241"];
    33715 [idx="35463",label="==\n[line: 237]",end_line="237",end_column="-1",type="control",start_column="-1",class_name="org.eclipse.jgit.transport.OpenSshConfig",source_file="OpenSshConfig.java",method_name="<org.eclipse.jgit.transport.OpenSshConfig: java.util.Map parse(java.io.InputStream)>",start_line="237",extra="Block 121:\n[preds: 120 ] [succs: 122 134 ]\nif $z6 == 0 goto $z10 = staticinvoke <org.eclipse.jgit.util.StringUtils: boolean equalsIgnoreCase(java.lang.String,java.lang.String)>(\"StrictHostKeyChecking\", r6);\n",package_name="org.eclipse.jgit.transport"];
    33729 [idx="35570",label="call org.eclipse.jgit.util.StringUtils.equalsIgnoreCase\n[line: 241]",extra="Block 134:\n[preds: 121 ] [succs: 135 ]\n$z10 = staticinvoke <org.eclipse.jgit.util.StringUtils: boolean equalsIgnoreCase(java.lang.String,java.lang.String)>(\"StrictHostKeyChecking\", r6);\n",type="call",end_line="241",start_column="-1",package_name="org.eclipse.jgit.transport",class_name="org.eclipse.jgit.transport.OpenSshConfig",source_file="OpenSshConfig.java",method_name="<org.eclipse.jgit.transport.OpenSshConfig: java.util.Map parse(java.io.InputStream)>",start_line="241",end_column="-1"];
    33713 [idx="35461",label="call org.eclipse.jgit.util.StringUtils.equalsIgnoreCase\n[line: 237]",extra="Block 120:\n[preds: 107 ] [succs: 121 ]\n$z6 = staticinvoke <org.eclipse.jgit.util.StringUtils: boolean equalsIgnoreCase(java.lang.String,java.lang.String)>(\"BatchMode\", r6);\n",package_name="org.eclipse.jgit.transport",type="call",start_line="237",end_column="-1",class_name="org.eclipse.jgit.transport.OpenSshConfig",source_file="OpenSshConfig.java",method_name="<org.eclipse.jgit.transport.OpenSshConfig: java.util.Map parse(java.io.InputStream)>",start_column="-1",end_line="237"];
    33731 -> 33736 [label=""];
    33715 -> 33728 [label=""];
    33715 -> 33731 [label=""];
    33729 -> 33731 [label="boolean:0"];
    33713 -> 33715 [label="boolean:0"];
    33737 -> 33736 [label="int:1"];
    33732 -> 33731 [label="int:1"];
    33716 -> 33715 [label="int:1"];
}

