digraph {
    58637 [idx="60057",label="cast"];
    58640 [idx="60037",label="const '0'"];
    58635 [idx="60063",label="const '0'"];
    58639 [idx="60059",label="=="];
    58634 [idx="60062",label="=="];
    58636 [idx="60056",label="call java.util.Iterator.next"];
    58633 [idx="60061",label="call java.util.Iterator.hasNext"];
    58632 [idx="60060",label="call java.util.Collection.iterator"];
    58638 [idx="60058",label="call org.eclipse.jgit.transport.RefSpec.matchSource"];
    58634 -> 58637 [label=""];
    58634 -> 58639 [label=""];
    58634 -> 58636 [label=""];
    58638 -> 58639 [label="boolean:0"];
    58640 -> 58639 [label="int:1"];
    58635 -> 58634 [label="int:1"];
    58632 -> 58636 [label="java.util.Iterator:1"];
    58632 -> 58633 [label="java.util.Iterator:1"];
    58636 -> 58637 [label="java.lang.Object:1"];
}

