digraph {
    53567 [idx="56707",label="cast\n[line: 952]",source_file="RebaseCommand.java",end_line="952",extra="Block 114:\n[preds: 113 ] [succs: 115 ]\nr9 = (org.eclipse.jgit.revwalk.RevCommit) $r60;\n",class_name="org.eclipse.jgit.api.RebaseCommand",method_name="<org.eclipse.jgit.api.RebaseCommand: org.eclipse.jgit.api.RebaseResult initFilesAndRewind()>",type="block",start_line="952",start_column="-1",end_column="-1",package_name="org.eclipse.jgit.api"];
    53506 [idx="56765",label="=\n[line: 910]",start_line="910",start_column="-1",end_line="910",end_column="-1",extra="Block 61:\n[preds: 60 ] [succs: 62 ]\nr8 = $r22;\n",package_name="org.eclipse.jgit.api",class_name="org.eclipse.jgit.api.RebaseCommand",source_file="RebaseCommand.java",method_name="<org.eclipse.jgit.api.RebaseCommand: org.eclipse.jgit.api.RebaseResult initFilesAndRewind()>",type="block"];
    53574 [idx="56829",label="goto\n[line: 933]",package_name="org.eclipse.jgit.api",class_name="org.eclipse.jgit.api.RebaseCommand",type="block",end_line="933",end_column="-1",extra="Block 121:\n[preds: 120 ] [succs: 111 ]\ngoto [?= $z4 = interfaceinvoke r94.<java.util.Iterator: boolean hasNext()>()];\n",source_file="RebaseCommand.java",method_name="<org.eclipse.jgit.api.RebaseCommand: org.eclipse.jgit.api.RebaseResult initFilesAndRewind()>",start_line="933",start_column="-1"];
    53509 [idx="56762",label="==\n[line: 911]",start_line="911",end_column="-1",extra="Block 64:\n[preds: 63 ] [succs: 65 72 ]\nif $z2 == 0 goto staticinvoke <java.util.Collections: void reverse(java.util.List)>(r8);\n",package_name="org.eclipse.jgit.api",class_name="org.eclipse.jgit.api.RebaseCommand",source_file="RebaseCommand.java",method_name="<org.eclipse.jgit.api.RebaseCommand: org.eclipse.jgit.api.RebaseResult initFilesAndRewind()>",type="control",start_column="-1",end_line="911"];
    53564 [idx="56704",label="==\n[line: 932]",extra="Block 112:\n[preds: 111 ] [succs: 113 122 ]\nif $z4 == 0 goto $r47 = r0.<org.eclipse.jgit.api.RebaseCommand: org.eclipse.jgit.lib.Repository repo>;\n",end_line="932",package_name="org.eclipse.jgit.api",class_name="org.eclipse.jgit.api.RebaseCommand",source_file="RebaseCommand.java",method_name="<org.eclipse.jgit.api.RebaseCommand: org.eclipse.jgit.api.RebaseResult initFilesAndRewind()>",type="control",start_line="932",start_column="-1",end_column="-1"];
    53471 [idx="56446",label="==\n[line: 913]",extra="Block 30:\n[preds: 29 ] [succs: 31 48 ]\nif $z6 == 0 goto $r15 = r0.<org.eclipse.jgit.api.RebaseCommand: org.eclipse.jgit.lib.ProgressMonitor monitor>;\n",start_line="913",start_column="-1",end_column="-1",end_line="913",package_name="org.eclipse.jgit.api",class_name="org.eclipse.jgit.api.RebaseCommand",source_file="RebaseCommand.java",method_name="<org.eclipse.jgit.api.RebaseCommand: org.eclipse.jgit.api.RebaseResult initFilesAndRewind()>",type="control"];
    53508 [idx="56763",label="call java.util.Iterator.hasNext\n[line: 911]",extra="Block 63:\n[preds: 62 69 71 ] [succs: 64 ]\n$z2 = interfaceinvoke r90.<java.util.Iterator: boolean hasNext()>();\n",package_name="org.eclipse.jgit.api",method_name="<org.eclipse.jgit.api.RebaseCommand: org.eclipse.jgit.api.RebaseResult initFilesAndRewind()>",start_line="911",start_column="-1",class_name="org.eclipse.jgit.api.RebaseCommand",source_file="RebaseCommand.java",type="call",end_line="911",end_column="-1"];
    53563 [idx="56711",label="call java.util.Iterator.hasNext\n[line: 932]",package_name="org.eclipse.jgit.api",source_file="RebaseCommand.java",method_name="<org.eclipse.jgit.api.RebaseCommand: org.eclipse.jgit.api.RebaseResult initFilesAndRewind()>",type="call",start_column="-1",end_line="932",extra="Block 111:\n[preds: 110 121 ] [succs: 112 ]\n$z4 = interfaceinvoke r94.<java.util.Iterator: boolean hasNext()>();\n",class_name="org.eclipse.jgit.api.RebaseCommand",start_line="932",end_column="-1"];
    53562 [idx="56710",label="call java.util.List.iterator\n[line: 932]",start_line="932",end_line="932",class_name="org.eclipse.jgit.api.RebaseCommand",type="call",source_file="RebaseCommand.java",method_name="<org.eclipse.jgit.api.RebaseCommand: org.eclipse.jgit.api.RebaseResult initFilesAndRewind()>",start_column="-1",end_column="-1",extra="Block 110:\n[preds: 109 ] [succs: 111 ]\nr94 = interfaceinvoke r8.<java.util.List: java.util.Iterator iterator()>();\n",package_name="org.eclipse.jgit.api"];
    53564 -> 53567 [label=""];
    53564 -> 53574 [label=""];
    53564 -> 53563 [label=""];
    53471 -> 53509 [label=""];
    53471 -> 53508 [label=""];
    53471 -> 53562 [label=""];
    53562 -> 53563 [label="java.util.Iterator:1"];
    53506 -> 53562 [label="java.util.ArrayList:1"];
}

