digraph {
    110167 [idx="112629",label="-\n[line: 1025]",method_name="<org.eclipse.jgit.internal.storage.file.PackFile: org.eclipse.jgit.internal.storage.file.LocalObjectRepresentation representation(org.eclipse.jgit.internal.storage.file.WindowCursor,org.eclipse.jgit.lib.AnyObjectId)>",type="block",end_column="-1",source_file="PackFile.java",start_line="1025",start_column="-1",end_line="1025",extra="Block 26:\n[preds: 25 ] [succs: 27 ]\n$l7 = l25 - $l8;\n",package_name="org.eclipse.jgit.internal.storage.file",class_name="org.eclipse.jgit.internal.storage.file.PackFile"];
    110215 [idx="112425",label="call org.eclipse.jgit.internal.JGitText.get\n[line: 1049]",package_name="org.eclipse.jgit.internal.storage.file",class_name="org.eclipse.jgit.internal.storage.file.PackFile",source_file="PackFile.java",method_name="<org.eclipse.jgit.internal.storage.file.PackFile: org.eclipse.jgit.internal.storage.file.LocalObjectRepresentation representation(org.eclipse.jgit.internal.storage.file.WindowCursor,org.eclipse.jgit.lib.AnyObjectId)>",end_line="1049",end_column="-1",extra="Block 61:\n[preds: 60 ] [succs: 62 ]\n$r10 = staticinvoke <org.eclipse.jgit.internal.JGitText: org.eclipse.jgit.internal.JGitText get()>();\n",type="call",start_line="1049",start_column="-1"];
    110174 [idx="112636",label="const '255'\n[line: 1028]",package_name="org.eclipse.jgit.internal.storage.file",method_name="<org.eclipse.jgit.internal.storage.file.PackFile: org.eclipse.jgit.internal.storage.file.LocalObjectRepresentation representation(org.eclipse.jgit.internal.storage.file.WindowCursor,org.eclipse.jgit.lib.AnyObjectId)>",start_line="1028",end_line="1028",end_column="-1",extra="255",class_name="org.eclipse.jgit.internal.storage.file.PackFile",source_file="PackFile.java",type="int",start_column="-1"];
    110175 [idx="112637",label="&\n[line: 1029]",class_name="org.eclipse.jgit.internal.storage.file.PackFile",method_name="<org.eclipse.jgit.internal.storage.file.PackFile: org.eclipse.jgit.internal.storage.file.LocalObjectRepresentation representation(org.eclipse.jgit.internal.storage.file.WindowCursor,org.eclipse.jgit.lib.AnyObjectId)>",start_line="1029",end_line="1029",end_column="-1",extra="Block 32:\n[preds: 31 ] [succs: 33 ]\n$s14 = s27 & 127;\n",package_name="org.eclipse.jgit.internal.storage.file",source_file="PackFile.java",type="block",start_column="-1"];
    110173 [idx="112639",label="&\n[line: 1028]",class_name="org.eclipse.jgit.internal.storage.file.PackFile",source_file="PackFile.java",end_column="-1",package_name="org.eclipse.jgit.internal.storage.file",method_name="<org.eclipse.jgit.internal.storage.file.PackFile: org.eclipse.jgit.internal.storage.file.LocalObjectRepresentation representation(org.eclipse.jgit.internal.storage.file.WindowCursor,org.eclipse.jgit.lib.AnyObjectId)>",type="block",start_line="1028",start_column="-1",extra="Block 31:\n[preds: 30 ] [succs: 32 ]\ns27 = $b12 & 255;\n",end_line="1028"];
    110211 [idx="112429",label="call org.eclipse.jgit.lib.ObjectId.fromRaw\n[line: 1044]",package_name="org.eclipse.jgit.internal.storage.file",class_name="org.eclipse.jgit.internal.storage.file.PackFile",method_name="<org.eclipse.jgit.internal.storage.file.PackFile: org.eclipse.jgit.internal.storage.file.LocalObjectRepresentation representation(org.eclipse.jgit.internal.storage.file.WindowCursor,org.eclipse.jgit.lib.AnyObjectId)>",type="call",start_line="1044",end_line="1044",end_column="-1",extra="Block 57:\n[preds: 56 ] [succs: 58 ]\nr14 = staticinvoke <org.eclipse.jgit.lib.ObjectId: org.eclipse.jgit.lib.ObjectId fromRaw(byte[])>(r3);\n",source_file="PackFile.java",start_column="-1"];
    110219 [idx="112421",label="call java.lang.Integer.valueOf\n[line: 1049]",extra="Block 64:\n[preds: 63 ] [succs: 65 ]\n$r12 = staticinvoke <java.lang.Integer: java.lang.Integer valueOf(int)>(s1);\n",package_name="org.eclipse.jgit.internal.storage.file",method_name="<org.eclipse.jgit.internal.storage.file.PackFile: org.eclipse.jgit.internal.storage.file.LocalObjectRepresentation representation(org.eclipse.jgit.internal.storage.file.WindowCursor,org.eclipse.jgit.lib.AnyObjectId)>",type="call",class_name="org.eclipse.jgit.internal.storage.file.PackFile",source_file="PackFile.java",start_line="1049",start_column="-1",end_line="1049",end_column="-1"];
    110165 [idx="112631",label="switch\n[line: 1020]",class_name="org.eclipse.jgit.internal.storage.file.PackFile",source_file="PackFile.java",end_line="1020",package_name="org.eclipse.jgit.internal.storage.file",method_name="<org.eclipse.jgit.internal.storage.file.PackFile: org.eclipse.jgit.internal.storage.file.LocalObjectRepresentation representation(org.eclipse.jgit.internal.storage.file.WindowCursor,org.eclipse.jgit.lib.AnyObjectId)>",type="block",start_line="1020",start_column="-1",end_column="-1",extra="Block 24:\n[preds: 23 ] [succs: 25 60 29 51 ]\ntableswitch(s1) {     case 1: goto $l8 = (long) i24;     case 2: goto $l8 = (long) i24;     case 3: goto $l8 = (long) i24;     case 4: goto $l8 = (long) i24;     case 5: goto $r8 = new java.io.IOException;     case 6: goto i26 = i24 + 1;     case 7: goto $l9 = (long) i24;     default: goto $r8 = new java.io.IOException; };\n"];
    110216 [idx="112422",label="org.eclipse.jgit.internal.JGitText.unknownObjectType\n[line: 1049]",type="block",end_column="-1",extra="Block 62:\n[preds: 61 ] [succs: 63 ]\n$r9 = $r10.<org.eclipse.jgit.internal.JGitText: java.lang.String unknownObjectType>;\n",method_name="<org.eclipse.jgit.internal.storage.file.PackFile: org.eclipse.jgit.internal.storage.file.LocalObjectRepresentation representation(org.eclipse.jgit.internal.storage.file.WindowCursor,org.eclipse.jgit.lib.AnyObjectId)>",start_column="-1",end_line="1049",package_name="org.eclipse.jgit.internal.storage.file",class_name="org.eclipse.jgit.internal.storage.file.PackFile",source_file="PackFile.java",start_line="1049"];
    110165 -> 110167 [label=""];
    110165 -> 110173 [label=""];
    110165 -> 110211 [label=""];
    110165 -> 110219 [label=""];
    110165 -> 110216 [label=""];
    110174 -> 110173 [label="int:2"];
    110173 -> 110175 [label="short:1"];
    110215 -> 110216 [label="org.eclipse.jgit.internal.JGitText:1"];
}

