digraph {
    109988 [idx="111678",label="-\n[line: 930]",class_name="org.eclipse.jgit.internal.storage.file.PackFile",method_name="<org.eclipse.jgit.internal.storage.file.PackFile: int getObjectType(org.eclipse.jgit.internal.storage.file.WindowCursor,long)>",start_line="930",end_line="930",extra="Block 36:\n[preds: 25 ] [succs: 37 ]\nl18 = l18 - l23;\n",package_name="org.eclipse.jgit.internal.storage.file",source_file="PackFile.java",type="block",start_column="-1",end_column="-1"];
    109973 [idx="111628",label="+\n[line: 925]",package_name="org.eclipse.jgit.internal.storage.file",start_line="925",end_line="925",extra="Block 26:\n[preds: 25 ] [succs: 27 ]\nl24 = l23 + 1L;\n",class_name="org.eclipse.jgit.internal.storage.file.PackFile",source_file="PackFile.java",method_name="<org.eclipse.jgit.internal.storage.file.PackFile: int getObjectType(org.eclipse.jgit.internal.storage.file.WindowCursor,long)>",type="block",start_column="-1",end_column="-1"];
    109986 [idx="111672",label="+\n[line: 928]",extra="Block 34:\n[preds: 33 ] [succs: 35 ]\nl23 = l25 + $l14;\n",source_file="PackFile.java",end_line="928",end_column="-1",package_name="org.eclipse.jgit.internal.storage.file",class_name="org.eclipse.jgit.internal.storage.file.PackFile",method_name="<org.eclipse.jgit.internal.storage.file.PackFile: int getObjectType(org.eclipse.jgit.internal.storage.file.WindowCursor,long)>",type="block",start_line="928",start_column="-1"];
    109945 [idx="111855",label="&\n[line: 909]",class_name="org.eclipse.jgit.internal.storage.file.PackFile",method_name="<org.eclipse.jgit.internal.storage.file.PackFile: int getObjectType(org.eclipse.jgit.internal.storage.file.WindowCursor,long)>",start_line="909",start_column="-1",end_line="909",extra="Block 8:\n[preds: 7 ] [succs: 9 ]\ns0 = $s2 & 7;\n",package_name="org.eclipse.jgit.internal.storage.file",source_file="PackFile.java",type="block",end_column="-1"];
    109982 [idx="111623",label="const '7'\n[line: 927]",end_column="-1",extra="7",source_file="PackFile.java",start_line="927",start_column="-1",package_name="org.eclipse.jgit.internal.storage.file",class_name="org.eclipse.jgit.internal.storage.file.PackFile",method_name="<org.eclipse.jgit.internal.storage.file.PackFile: int getObjectType(org.eclipse.jgit.internal.storage.file.WindowCursor,long)>",type="int",end_line="927"];
    109981 [idx="111620",label="<<\n[line: 927]",start_column="-1",package_name="org.eclipse.jgit.internal.storage.file",class_name="org.eclipse.jgit.internal.storage.file.PackFile",source_file="PackFile.java",method_name="<org.eclipse.jgit.internal.storage.file.PackFile: int getObjectType(org.eclipse.jgit.internal.storage.file.WindowCursor,long)>",end_column="-1",extra="Block 31:\n[preds: 30 ] [succs: 32 ]\nl25 = l24 << 7;\n",type="block",start_line="927",end_line="927"];
    110015 [idx="111652",label="call java.lang.Integer.valueOf\n[line: 944]",extra="Block 56:\n[preds: 55 ] [succs: 57 ]\n$r6 = staticinvoke <java.lang.Integer: java.lang.Integer valueOf(int)>(s0);\n",start_line="944",end_column="-1",type="call",start_column="-1",end_line="944",package_name="org.eclipse.jgit.internal.storage.file",class_name="org.eclipse.jgit.internal.storage.file.PackFile",source_file="PackFile.java",method_name="<org.eclipse.jgit.internal.storage.file.PackFile: int getObjectType(org.eclipse.jgit.internal.storage.file.WindowCursor,long)>"];
    109947 [idx="111853",label="switch\n[line: 911]",source_file="PackFile.java",method_name="<org.eclipse.jgit.internal.storage.file.PackFile: int getObjectType(org.eclipse.jgit.internal.storage.file.WindowCursor,long)>",start_line="911",end_line="911",package_name="org.eclipse.jgit.internal.storage.file",class_name="org.eclipse.jgit.internal.storage.file.PackFile",extra="Block 9:\n[preds: 8 ] [succs: 10 52 11 38 ]\ntableswitch(s0) {     case 1: goto return s0;     case 2: goto return s0;     case 3: goto return s0;     case 4: goto return s0;     case 5: goto $r5 = new java.io.IOException;     case 6: goto i20 = 1;     case 7: goto i26 = 1;     default: goto $r5 = new java.io.IOException; };\n",type="block",start_column="-1",end_column="-1"];
    110012 [idx="111655",label="org.eclipse.jgit.internal.JGitText.unknownObjectType\n[line: 944]",extra="Block 54:\n[preds: 53 ] [succs: 55 ]\n$r8 = $r4.<org.eclipse.jgit.internal.JGitText: java.lang.String unknownObjectType>;\n",source_file="PackFile.java",method_name="<org.eclipse.jgit.internal.storage.file.PackFile: int getObjectType(org.eclipse.jgit.internal.storage.file.WindowCursor,long)>",start_line="944",package_name="org.eclipse.jgit.internal.storage.file",class_name="org.eclipse.jgit.internal.storage.file.PackFile",type="block",start_column="-1",end_line="944",end_column="-1"];
    109947 -> 109988 [label=""];
    109947 -> 110015 [label=""];
    109947 -> 110012 [label=""];
    109982 -> 109981 [label="int:2"];
    109986 -> 109988 [label="long:2"];
    109973 -> 109981 [label="long:1"];
    109981 -> 109986 [label="long:1"];
    109945 -> 110015 [label="short:1"];
}

