digraph {
    98125 [idx="92753",label="array index\n[line: 449]",method_name="<org.eclipse.jgit.internal.storage.pack.DeltaIndex: int hashBlock(byte[],int)>",type="block",start_column="-1",end_line="449",end_column="-1",package_name="org.eclipse.jgit.internal.storage.pack",extra="Block 21:\n[preds: 20 ] [succs: 22 ]\n$i18 = $r1[$i16];\n",class_name="org.eclipse.jgit.internal.storage.pack.DeltaIndex",source_file="DeltaIndex.java",start_line="449"];
    98131 [idx="92750",label="array index\n[line: 451]",class_name="org.eclipse.jgit.internal.storage.pack.DeltaIndex",start_line="451",end_line="451",package_name="org.eclipse.jgit.internal.storage.pack",source_file="DeltaIndex.java",method_name="<org.eclipse.jgit.internal.storage.pack.DeltaIndex: int hashBlock(byte[],int)>",type="block",start_column="-1",extra="Block 25:\n[preds: 24 ] [succs: 26 ]\n$b19 = r0[$i20];\n",end_column="-1"];
    98133 [idx="92744",label="const '255'\n[line: 451]",package_name="org.eclipse.jgit.internal.storage.pack",class_name="org.eclipse.jgit.internal.storage.pack.DeltaIndex",source_file="DeltaIndex.java",method_name="<org.eclipse.jgit.internal.storage.pack.DeltaIndex: int hashBlock(byte[],int)>",start_line="451",start_column="-1",end_line="451",extra="255",type="int",end_column="-1"];
    98132 [idx="92745",label="&\n[line: 451]",type="block",start_line="451",start_column="-1",end_column="-1",source_file="DeltaIndex.java",method_name="<org.eclipse.jgit.internal.storage.pack.DeltaIndex: int hashBlock(byte[],int)>",end_line="451",extra="Block 26:\n[preds: 25 ] [succs: 27 ]\n$s22 = $b19 & 255;\n",package_name="org.eclipse.jgit.internal.storage.pack",class_name="org.eclipse.jgit.internal.storage.pack.DeltaIndex"];
    98148 [idx="92794",label=">>>\n[line: 452]",package_name="org.eclipse.jgit.internal.storage.pack",class_name="org.eclipse.jgit.internal.storage.pack.DeltaIndex",source_file="DeltaIndex.java",method_name="<org.eclipse.jgit.internal.storage.pack.DeltaIndex: int hashBlock(byte[],int)>",start_column="-1",end_line="452",type="block",start_line="452",end_column="-1",extra="Block 38:\n[preds: 37 ] [succs: 39 ]\n$i28 = i105 >>> 23;\n"];
    98134 [idx="92747",label="|\n[line: 451]",start_line="451",extra="Block 27:\n[preds: 26 ] [succs: 28 ]\n$i24 = $i21 | $s22;\n",package_name="org.eclipse.jgit.internal.storage.pack",source_file="DeltaIndex.java",start_column="-1",end_line="451",end_column="-1",class_name="org.eclipse.jgit.internal.storage.pack.DeltaIndex",method_name="<org.eclipse.jgit.internal.storage.pack.DeltaIndex: int hashBlock(byte[],int)>",type="block"];
    98127 [idx="92755",label="<<\n[line: 451]",extra="Block 23:\n[preds: 22 ] [succs: 24 ]\n$i21 = i104 << 8;\n",source_file="DeltaIndex.java",type="block",start_line="451",end_line="451",class_name="org.eclipse.jgit.internal.storage.pack.DeltaIndex",method_name="<org.eclipse.jgit.internal.storage.pack.DeltaIndex: int hashBlock(byte[],int)>",start_column="-1",end_column="-1",package_name="org.eclipse.jgit.internal.storage.pack"];
    98126 [idx="92754",label="^\n[line: 449]",package_name="org.eclipse.jgit.internal.storage.pack",source_file="DeltaIndex.java",method_name="<org.eclipse.jgit.internal.storage.pack.DeltaIndex: int hashBlock(byte[],int)>",type="block",start_line="449",start_column="-1",end_column="-1",end_line="449",extra="Block 22:\n[preds: 21 ] [succs: 23 ]\ni104 = i103 ^ $i18;\n",class_name="org.eclipse.jgit.internal.storage.pack.DeltaIndex"];
    98138 [idx="92743",label="^\n[line: 451]",class_name="org.eclipse.jgit.internal.storage.pack.DeltaIndex",source_file="DeltaIndex.java",method_name="<org.eclipse.jgit.internal.storage.pack.DeltaIndex: int hashBlock(byte[],int)>",type="block",extra="Block 31:\n[preds: 30 ] [succs: 32 ]\ni105 = $i24 ^ $i25;\n",package_name="org.eclipse.jgit.internal.storage.pack",start_column="-1",end_line="451",start_line="451",end_column="-1"];
    98133 -> 98132 [label="int:2"];
    98125 -> 98126 [label="int:2"];
    98131 -> 98138 [label="int:2"];
    98127 -> 98134 [label="int:1"];
    98126 -> 98127 [label="int:1"];
    98134 -> 98138 [label="int:1"];
    98138 -> 98148 [label="int:1"];
    98132 -> 98134 [label="short:2"];
}

