digraph {
    90645 [idx="95975",label="new\n[line: 646]",extra="Block 249:\n[preds: 248 ] [succs: 250 ]\n$r8 = new org.eclipse.jgit.errors.CorruptObjectException;\n",package_name="org.eclipse.jgit.internal.storage.dfs",method_name="<org.eclipse.jgit.internal.storage.dfs.DfsPackFile: void copyAsIs(org.eclipse.jgit.internal.storage.pack.PackOutputStream,org.eclipse.jgit.internal.storage.dfs.DfsObjectToPack,boolean,org.eclipse.jgit.internal.storage.dfs.DfsReader)>",type="block",start_line="646",start_column="-1",end_line="646",class_name="org.eclipse.jgit.internal.storage.dfs.DfsPackFile",source_file="DfsPackFile.java",end_column="-1"];
    90653 [idx="95983",label="const '0'\n[line: 646]",start_line="646",start_column="-1",end_line="646",extra="0",package_name="org.eclipse.jgit.internal.storage.dfs",class_name="org.eclipse.jgit.internal.storage.dfs.DfsPackFile",source_file="DfsPackFile.java",method_name="<org.eclipse.jgit.internal.storage.dfs.DfsPackFile: void copyAsIs(org.eclipse.jgit.internal.storage.pack.PackOutputStream,org.eclipse.jgit.internal.storage.dfs.DfsObjectToPack,boolean,org.eclipse.jgit.internal.storage.dfs.DfsReader)>",type="int",end_column="-1"];
    90655 [idx="95981",label="const '1'\n[line: 646]",extra="1",class_name="org.eclipse.jgit.internal.storage.dfs.DfsPackFile",type="int",start_line="646",start_column="-1",end_line="646",package_name="org.eclipse.jgit.internal.storage.dfs",source_file="DfsPackFile.java",method_name="<org.eclipse.jgit.internal.storage.dfs.DfsPackFile: void copyAsIs(org.eclipse.jgit.internal.storage.pack.PackOutputStream,org.eclipse.jgit.internal.storage.dfs.DfsObjectToPack,boolean,org.eclipse.jgit.internal.storage.dfs.DfsReader)>",end_column="-1"];
    90652 [idx="95982",label="array index\n[line: 646]",source_file="DfsPackFile.java",start_line="646",end_column="-1",class_name="org.eclipse.jgit.internal.storage.dfs.DfsPackFile",method_name="<org.eclipse.jgit.internal.storage.dfs.DfsPackFile: void copyAsIs(org.eclipse.jgit.internal.storage.pack.PackOutputStream,org.eclipse.jgit.internal.storage.dfs.DfsObjectToPack,boolean,org.eclipse.jgit.internal.storage.dfs.DfsReader)>",type="block",start_column="-1",extra="Block 255:\n[preds: 254 ] [succs: 256 ]\n$r11[0] = $r13;\n",package_name="org.eclipse.jgit.internal.storage.dfs",end_line="646"];
    90648 [idx="95978",label="new-array\n[line: 646]",package_name="org.eclipse.jgit.internal.storage.dfs",class_name="org.eclipse.jgit.internal.storage.dfs.DfsPackFile",method_name="<org.eclipse.jgit.internal.storage.dfs.DfsPackFile: void copyAsIs(org.eclipse.jgit.internal.storage.pack.PackOutputStream,org.eclipse.jgit.internal.storage.dfs.DfsObjectToPack,boolean,org.eclipse.jgit.internal.storage.dfs.DfsReader)>",type="block",start_column="-1",end_line="646",end_column="-1",extra="Block 252:\n[preds: 251 ] [succs: 253 ]\n$r11 = newarray (java.lang.Object)[2];\n",source_file="DfsPackFile.java",start_line="646"];
    90656 [idx="95953",label="call java.text.MessageFormat.format\n[line: 646]",source_file="DfsPackFile.java",start_line="646",start_column="-1",package_name="org.eclipse.jgit.internal.storage.dfs",class_name="org.eclipse.jgit.internal.storage.dfs.DfsPackFile",method_name="<org.eclipse.jgit.internal.storage.dfs.DfsPackFile: void copyAsIs(org.eclipse.jgit.internal.storage.pack.PackOutputStream,org.eclipse.jgit.internal.storage.dfs.DfsObjectToPack,boolean,org.eclipse.jgit.internal.storage.dfs.DfsReader)>",type="call",end_line="646",end_column="-1",extra="Block 258:\n[preds: 257 ] [succs: 259 ]\n$r14 = staticinvoke <java.text.MessageFormat: java.lang.String format(java.lang.String,java.lang.Object[])>($r9, $r11);\n"];
    90651 [idx="95977",label="call java.lang.Long.valueOf\n[line: 646]",source_file="DfsPackFile.java",method_name="<org.eclipse.jgit.internal.storage.dfs.DfsPackFile: void copyAsIs(org.eclipse.jgit.internal.storage.pack.PackOutputStream,org.eclipse.jgit.internal.storage.dfs.DfsObjectToPack,boolean,org.eclipse.jgit.internal.storage.dfs.DfsReader)>",class_name="org.eclipse.jgit.internal.storage.dfs.DfsPackFile",type="call",start_line="646",start_column="-1",end_line="646",extra="Block 254:\n[preds: 253 ] [succs: 255 ]\n$r13 = staticinvoke <java.lang.Long: java.lang.Long valueOf(long)>($l16);\n",package_name="org.eclipse.jgit.internal.storage.dfs",end_column="-1"];
    90657 [idx="95952",label="call org.eclipse.jgit.errors.CorruptObjectException.<init>\n[line: 646]",extra="Block 259:\n[preds: 258 ] [succs: 260 ]\nspecialinvoke $r8.<org.eclipse.jgit.errors.CorruptObjectException: void <init>(java.lang.String)>($r14);\n",method_name="<org.eclipse.jgit.internal.storage.dfs.DfsPackFile: void copyAsIs(org.eclipse.jgit.internal.storage.pack.PackOutputStream,org.eclipse.jgit.internal.storage.dfs.DfsObjectToPack,boolean,org.eclipse.jgit.internal.storage.dfs.DfsReader)>",start_line="646",start_column="-1",end_line="646",end_column="-1",package_name="org.eclipse.jgit.internal.storage.dfs",class_name="org.eclipse.jgit.internal.storage.dfs.DfsPackFile",source_file="DfsPackFile.java",type="call"];
    90654 [idx="95980",label="call org.eclipse.jgit.internal.storage.dfs.DfsPackFile.getPackName\n[line: 646]",package_name="org.eclipse.jgit.internal.storage.dfs",class_name="org.eclipse.jgit.internal.storage.dfs.DfsPackFile",method_name="<org.eclipse.jgit.internal.storage.dfs.DfsPackFile: void copyAsIs(org.eclipse.jgit.internal.storage.pack.PackOutputStream,org.eclipse.jgit.internal.storage.dfs.DfsObjectToPack,boolean,org.eclipse.jgit.internal.storage.dfs.DfsReader)>",type="call",start_column="-1",end_line="646",end_column="-1",extra="Block 256:\n[preds: 255 ] [succs: 257 ]\n$r12 = specialinvoke r0.<org.eclipse.jgit.internal.storage.dfs.DfsPackFile: java.lang.String getPackName()>();\n",source_file="DfsPackFile.java",start_line="646"];
    90651 -> 90652 [label="java.lang.Long:2"];
    90653 -> 90652 [label="int:1"];
    90655 -> 90652 [label="int:1"];
    90645 -> 90657 [label="org.eclipse.jgit.errors.CorruptObjectException:1"];
    90648 -> 90652 [label="java.lang.Object[]:0"];
    90648 -> 90656 [label="java.lang.Object[]:2"];
    90656 -> 90657 [label="java.lang.String:0"];
    90654 -> 90652 [label="java.lang.String:2"];
}

