digraph {
    91256 [idx="94432",label="new\n[line: 1027]",end_line="1027",end_column="-1",package_name="org.eclipse.jgit.internal.storage.dfs",type="block",start_column="-1",class_name="org.eclipse.jgit.internal.storage.dfs.DfsPackFile",source_file="DfsPackFile.java",method_name="<org.eclipse.jgit.internal.storage.dfs.DfsPackFile: long getObjectSize(org.eclipse.jgit.internal.storage.dfs.DfsReader,long)>",start_line="1027",extra="Block 58:\n[preds: 57 ] [succs: 59 ]\n$r12 = new org.eclipse.jgit.errors.CorruptObjectException;\n"];
    91263 [idx="94439",label="const '0'\n[line: 1027]",package_name="org.eclipse.jgit.internal.storage.dfs",source_file="DfsPackFile.java",start_line="1027",start_column="-1",extra="0",class_name="org.eclipse.jgit.internal.storage.dfs.DfsPackFile",method_name="<org.eclipse.jgit.internal.storage.dfs.DfsPackFile: long getObjectSize(org.eclipse.jgit.internal.storage.dfs.DfsReader,long)>",type="int",end_line="1027",end_column="-1"];
    91265 [idx="94231",label="const '1'\n[line: 1027]",class_name="org.eclipse.jgit.internal.storage.dfs.DfsPackFile",source_file="DfsPackFile.java",method_name="<org.eclipse.jgit.internal.storage.dfs.DfsPackFile: long getObjectSize(org.eclipse.jgit.internal.storage.dfs.DfsReader,long)>",start_column="-1",extra="1",package_name="org.eclipse.jgit.internal.storage.dfs",end_line="1027",type="int",start_line="1027",end_column="-1"];
    91260 [idx="94436",label="const '2'\n[line: 1027]",package_name="org.eclipse.jgit.internal.storage.dfs",source_file="DfsPackFile.java",method_name="<org.eclipse.jgit.internal.storage.dfs.DfsPackFile: long getObjectSize(org.eclipse.jgit.internal.storage.dfs.DfsReader,long)>",type="int",start_line="1027",end_line="1027",extra="2",class_name="org.eclipse.jgit.internal.storage.dfs.DfsPackFile",start_column="-1",end_column="-1"];
    91262 [idx="94438",label="array index\n[line: 1027]",extra="Block 63:\n[preds: 62 ] [succs: 64 ]\n$r16[0] = $r15;\n",package_name="org.eclipse.jgit.internal.storage.dfs",type="block",start_column="-1",end_column="-1",class_name="org.eclipse.jgit.internal.storage.dfs.DfsPackFile",source_file="DfsPackFile.java",method_name="<org.eclipse.jgit.internal.storage.dfs.DfsPackFile: long getObjectSize(org.eclipse.jgit.internal.storage.dfs.DfsReader,long)>",start_line="1027",end_line="1027"];
    91259 [idx="94435",label="new-array\n[line: 1027]",method_name="<org.eclipse.jgit.internal.storage.dfs.DfsPackFile: long getObjectSize(org.eclipse.jgit.internal.storage.dfs.DfsReader,long)>",start_column="-1",extra="Block 61:\n[preds: 60 ] [succs: 62 ]\n$r16 = newarray (java.lang.Object)[2];\n",package_name="org.eclipse.jgit.internal.storage.dfs",class_name="org.eclipse.jgit.internal.storage.dfs.DfsPackFile",source_file="DfsPackFile.java",end_line="1027",end_column="-1",type="block",start_line="1027"];
    91266 [idx="94228",label="call java.text.MessageFormat.format\n[line: 1027]",extra="Block 66:\n[preds: 65 ] [succs: 67 ]\n$r19 = staticinvoke <java.text.MessageFormat: java.lang.String format(java.lang.String,java.lang.Object[])>($r17, $r16);\n",package_name="org.eclipse.jgit.internal.storage.dfs",method_name="<org.eclipse.jgit.internal.storage.dfs.DfsPackFile: long getObjectSize(org.eclipse.jgit.internal.storage.dfs.DfsReader,long)>",start_column="-1",type="call",start_line="1027",end_line="1027",end_column="-1",class_name="org.eclipse.jgit.internal.storage.dfs.DfsPackFile",source_file="DfsPackFile.java"];
    91267 [idx="94229",label="call org.eclipse.jgit.errors.CorruptObjectException.<init>\n[line: 1027]",start_column="-1",end_column="-1",extra="Block 67:\n[preds: 66 ] [succs: 68 ]\nspecialinvoke $r12.<org.eclipse.jgit.errors.CorruptObjectException: void <init>(java.lang.String)>($r19);\n",source_file="DfsPackFile.java",method_name="<org.eclipse.jgit.internal.storage.dfs.DfsPackFile: long getObjectSize(org.eclipse.jgit.internal.storage.dfs.DfsReader,long)>",package_name="org.eclipse.jgit.internal.storage.dfs",class_name="org.eclipse.jgit.internal.storage.dfs.DfsPackFile",type="call",start_line="1027",end_line="1027"];
    91264 [idx="94230",label="call org.eclipse.jgit.internal.storage.dfs.DfsPackFile.getPackName\n[line: 1027]",package_name="org.eclipse.jgit.internal.storage.dfs",source_file="DfsPackFile.java",method_name="<org.eclipse.jgit.internal.storage.dfs.DfsPackFile: long getObjectSize(org.eclipse.jgit.internal.storage.dfs.DfsReader,long)>",start_line="1027",start_column="-1",end_column="-1",type="call",end_line="1027",extra="Block 64:\n[preds: 63 ] [succs: 65 ]\n$r20 = specialinvoke r0.<org.eclipse.jgit.internal.storage.dfs.DfsPackFile: java.lang.String getPackName()>();\n",class_name="org.eclipse.jgit.internal.storage.dfs.DfsPackFile"];
    91263 -> 91262 [label="int:1"];
    91265 -> 91262 [label="int:1"];
    91260 -> 91259 [label="int:1"];
    91256 -> 91267 [label="org.eclipse.jgit.errors.CorruptObjectException:1"];
    91259 -> 91262 [label="java.lang.Object[]:0"];
    91259 -> 91266 [label="java.lang.Object[]:2"];
    91266 -> 91267 [label="java.lang.String:0"];
    91264 -> 91262 [label="java.lang.String:2"];
}

