digraph {
    11941 [idx="11280",label="this\n[line: -1]",method_name="<org.eclipse.jgit.lib.Repository: java.util.List readMergeHeads()>",type="block",end_line="-1",end_column="-1",extra="Block 0:\n[preds: ] [succs: 1 ]\nr0 := @this: org.eclipse.jgit.lib.Repository;\n",package_name="org.eclipse.jgit.lib",class_name="org.eclipse.jgit.lib.Repository",source_file="Repository.java",start_line="-1",start_column="-1"];
    11947 [idx="11294",label="const 'null'\n[line: 1336]",package_name="org.eclipse.jgit.lib",class_name="org.eclipse.jgit.lib.Repository",method_name="<org.eclipse.jgit.lib.Repository: java.util.List readMergeHeads()>",start_line="1336",end_column="-1",extra="null",source_file="Repository.java",type="null_type",start_column="-1",end_line="1336"];
    11948 [idx="11289",label="new\n[line: 1336]",end_column="-1",extra="Block 5:\n[preds: 2 4 ] [succs: 6 ]\n$r3 = new org.eclipse.jgit.errors.NoWorkTreeException;\n",source_file="Repository.java",method_name="<org.eclipse.jgit.lib.Repository: java.util.List readMergeHeads()>",type="block",end_line="1336",start_column="-1",package_name="org.eclipse.jgit.lib",class_name="org.eclipse.jgit.lib.Repository",start_line="1336"];
    11950 [idx="11291",label="throw\n[line: 1336]",source_file="Repository.java",method_name="<org.eclipse.jgit.lib.Repository: java.util.List readMergeHeads()>",start_column="-1",end_line="1336",end_column="-1",extra="Block 7:\n[preds: 6 ] [succs: ]\nthrow $r3;\n",class_name="org.eclipse.jgit.lib.Repository",start_line="1336",package_name="org.eclipse.jgit.lib",type="block"];
    11943 [idx="11282",label="!=\n[line: 1335]",start_column="-1",end_column="-1",extra="Block 2:\n[preds: 1 ] [succs: 3 5 ]\nif $z0 != 0 goto $r3 = new org.eclipse.jgit.errors.NoWorkTreeException;\n",class_name="org.eclipse.jgit.lib.Repository",source_file="Repository.java",method_name="<org.eclipse.jgit.lib.Repository: java.util.List readMergeHeads()>",type="control",package_name="org.eclipse.jgit.lib",start_line="1335",end_line="1335"];
    11946 [idx="11295",label="!=\n[line: 1336]",method_name="<org.eclipse.jgit.lib.Repository: java.util.List readMergeHeads()>",type="control",start_line="1336",start_column="-1",extra="Block 4:\n[preds: 3 ] [succs: 5 8 ]\nif $r4 != null goto r1 = specialinvoke r0.<org.eclipse.jgit.lib.Repository: byte[] readGitDirectoryFile(java.lang.String)>(\"MERGE_HEAD\");\n",class_name="org.eclipse.jgit.lib.Repository",source_file="Repository.java",end_line="1336",package_name="org.eclipse.jgit.lib",end_column="-1"];
    11945 [idx="11292",label="call org.eclipse.jgit.lib.Repository.getDirectory\n[line: 1336]",start_line="1336",start_column="-1",type="call",extra="Block 3:\n[preds: 2 ] [succs: 4 ]\n$r4 = virtualinvoke r0.<org.eclipse.jgit.lib.Repository: java.io.File getDirectory()>();\n",package_name="org.eclipse.jgit.lib",class_name="org.eclipse.jgit.lib.Repository",source_file="Repository.java",method_name="<org.eclipse.jgit.lib.Repository: java.util.List readMergeHeads()>",end_line="1336",end_column="-1"];
    11942 [idx="11283",label="call org.eclipse.jgit.lib.Repository.isBare\n[line: 1335]",extra="Block 1:\n[preds: 0 ] [succs: 2 ]\n$z0 = virtualinvoke r0.<org.eclipse.jgit.lib.Repository: boolean isBare()>();\n",package_name="org.eclipse.jgit.lib",start_line="1335",start_column="-1",end_line="1335",class_name="org.eclipse.jgit.lib.Repository",source_file="Repository.java",method_name="<org.eclipse.jgit.lib.Repository: java.util.List readMergeHeads()>",type="call",end_column="-1"];
    11949 [idx="11288",label="call org.eclipse.jgit.errors.NoWorkTreeException.<init>\n[line: 1336]",extra="Block 6:\n[preds: 5 ] [succs: 7 ]\nspecialinvoke $r3.<org.eclipse.jgit.errors.NoWorkTreeException: void <init>()>();\n",method_name="<org.eclipse.jgit.lib.Repository: java.util.List readMergeHeads()>",start_line="1336",start_column="-1",end_column="-1",package_name="org.eclipse.jgit.lib",class_name="org.eclipse.jgit.lib.Repository",source_file="Repository.java",type="call",end_line="1336"];
    11943 -> 11946 [label=""];
    11946 -> 11950 [label=""];
    11943 -> 11945 [label=""];
    11946 -> 11949 [label=""];
    11947 -> 11946 [label="null_type:1"];
    11942 -> 11943 [label="boolean:0"];
    11945 -> 11946 [label="java.io.File:0"];
    11941 -> 11945 [label="org.eclipse.jgit.lib.Repository:1"];
    11948 -> 11949 [label="org.eclipse.jgit.errors.NoWorkTreeException:0"];
}

