digraph {
    44568 [idx="42415",label="cast"];
    44563 [idx="42404",label="cast"];
    44561 [idx="42406",label="cast"];
    44575 [idx="42408",label="goto"];
    44558 [idx="42424",label="=="];
    44557 [idx="42427",label="call java.util.Iterator.hasNext"];
    44556 [idx="42426",label="call java.util.Set.iterator"];
    44567 [idx="42400",label="call java.util.Map$Entry.getValue"];
    44562 [idx="42405",label="call java.util.Map$Entry.getKey"];
    44558 -> 44563 [label=""];
    44558 -> 44561 [label=""];
    44558 -> 44575 [label=""];
    44558 -> 44567 [label=""];
    44557 -> 44558 [label="boolean:0"];
    44561 -> 44567 [label="java.util.Map$Entry:1"];
    44556 -> 44557 [label="java.util.Iterator:1"];
    44567 -> 44568 [label="java.lang.Object:1"];
    44562 -> 44563 [label="java.lang.Object:1"];
}

