digraph {
    43716 [idx="41271",label="const '0'\n[line: 155]",type="int",start_line="155",end_line="155",end_column="-1",class_name="org.eclipse.jgit.transport.PacketLineOut",method_name="<org.eclipse.jgit.transport.PacketLineOut: void <clinit>()>",start_column="-1",extra="0",package_name="org.eclipse.jgit.transport",source_file="PacketLineOut.java"];
    43718 [idx="41269",label="const '1'\n[line: 155]",end_column="-1",package_name="org.eclipse.jgit.transport",class_name="org.eclipse.jgit.transport.PacketLineOut",method_name="<org.eclipse.jgit.transport.PacketLineOut: void <clinit>()>",start_line="155",end_line="155",extra="1",source_file="PacketLineOut.java",type="int",start_column="-1"];
    43722 [idx="41273",label="const '3'\n[line: 155]",type="int",package_name="org.eclipse.jgit.transport",class_name="org.eclipse.jgit.transport.PacketLineOut",method_name="<org.eclipse.jgit.transport.PacketLineOut: void <clinit>()>",start_line="155",start_column="-1",end_line="155",end_column="-1",extra="3",source_file="PacketLineOut.java"];
    43713 [idx="41266",label="new-array\n[line: 155]",extra="Block 0:\n[preds: ] [succs: 1 ]\n$r0 = newarray (byte)[16];\n",package_name="org.eclipse.jgit.transport",source_file="PacketLineOut.java",method_name="<org.eclipse.jgit.transport.PacketLineOut: void <clinit>()>",type="block",class_name="org.eclipse.jgit.transport.PacketLineOut",start_line="155",start_column="-1",end_line="155",end_column="-1"];
    43721 [idx="41274",label="array indexconst '51'\n[line: 155]",package_name="org.eclipse.jgit.transport",method_name="<org.eclipse.jgit.transport.PacketLineOut: void <clinit>()>",start_line="155",end_line="155",end_column="-1",extra="Block 4:\n[preds: 3 ] [succs: 5 ]\n$r0[3] = 51;\n",class_name="org.eclipse.jgit.transport.PacketLineOut",source_file="PacketLineOut.java",type="block",start_column="-1"];
    43715 [idx="41264",label="array indexconst '48'\n[line: 155]",type="block",start_line="155",start_column="-1",end_line="155",package_name="org.eclipse.jgit.transport",class_name="org.eclipse.jgit.transport.PacketLineOut",method_name="<org.eclipse.jgit.transport.PacketLineOut: void <clinit>()>",source_file="PacketLineOut.java",end_column="-1",extra="Block 1:\n[preds: 0 ] [succs: 2 ]\n$r0[0] = 48;\n"];
    43717 [idx="41270",label="array indexconst '49'\n[line: 155]",end_line="155",end_column="-1",type="block",start_line="155",extra="Block 2:\n[preds: 1 ] [succs: 3 ]\n$r0[1] = 49;\n",package_name="org.eclipse.jgit.transport",class_name="org.eclipse.jgit.transport.PacketLineOut",source_file="PacketLineOut.java",method_name="<org.eclipse.jgit.transport.PacketLineOut: void <clinit>()>",start_column="-1"];
    43734 [idx="41252",label="const '9'\n[line: 155]",end_line="155",package_name="org.eclipse.jgit.transport",class_name="org.eclipse.jgit.transport.PacketLineOut",source_file="PacketLineOut.java",start_line="155",start_column="-1",end_column="-1",extra="9",method_name="<org.eclipse.jgit.transport.PacketLineOut: void <clinit>()>",type="int"];
    43733 [idx="41255",label="array indexconst '57'\n[line: 155]",extra="Block 10:\n[preds: 9 ] [succs: 11 ]\n$r0[9] = 57;\n",package_name="org.eclipse.jgit.transport",method_name="<org.eclipse.jgit.transport.PacketLineOut: void <clinit>()>",type="block",start_line="155",end_column="-1",class_name="org.eclipse.jgit.transport.PacketLineOut",source_file="PacketLineOut.java",start_column="-1",end_line="155"];
    43722 -> 43721 [label="int:1"];
    43716 -> 43715 [label="int:1"];
    43718 -> 43717 [label="int:1"];
    43734 -> 43733 [label="int:1"];
    43713 -> 43721 [label="byte[]:0"];
    43713 -> 43715 [label="byte[]:0"];
    43713 -> 43717 [label="byte[]:0"];
    43713 -> 43733 [label="byte[]:0"];
}

