digraph {
    104490 [idx="98944",label="cast\n[line: 286]",end_column="-1",package_name="org.eclipse.jgit.internal.storage.pack",type="block",start_column="-1",method_name="<org.eclipse.jgit.internal.storage.pack.DeltaEncoder: int encodeCopy(int,long,int)>",start_line="286",end_line="286",extra="Block 72:\n[preds: 71 ] [succs: 73 ]\n$b27 = (byte) $i26;\n",class_name="org.eclipse.jgit.internal.storage.pack.DeltaEncoder",source_file="DeltaEncoder.java"];
    104454 [idx="98990",label="const '1'\n[line: 274]",extra="1",package_name="org.eclipse.jgit.internal.storage.pack",source_file="DeltaEncoder.java",method_name="<org.eclipse.jgit.internal.storage.pack.DeltaEncoder: int encodeCopy(int,long,int)>",end_line="274",class_name="org.eclipse.jgit.internal.storage.pack.DeltaEncoder",type="int",start_line="274",start_column="-1",end_column="-1"];
    104500 [idx="98975",label="array index\n[line: 288]",extra="Block 79:\n[preds: 78 ] [succs: 80 ]\n$r2[$i25] = b43;\n",package_name="org.eclipse.jgit.internal.storage.pack",method_name="<org.eclipse.jgit.internal.storage.pack.DeltaEncoder: int encodeCopy(int,long,int)>",type="block",class_name="org.eclipse.jgit.internal.storage.pack.DeltaEncoder",source_file="DeltaEncoder.java",start_line="288",start_column="-1",end_line="288",end_column="-1"];
    104497 [idx="98970",label="=\n[line: 288]",extra="Block 77:\n[preds: 76 ] [succs: 78 ]\n$i25 = i36;\n",class_name="org.eclipse.jgit.internal.storage.pack.DeltaEncoder",end_line="288",end_column="-1",package_name="org.eclipse.jgit.internal.storage.pack",source_file="DeltaEncoder.java",method_name="<org.eclipse.jgit.internal.storage.pack.DeltaEncoder: int encodeCopy(int,long,int)>",type="block",start_line="288",start_column="-1"];
    104491 [idx="98945",label="=\n[line: 286]",package_name="org.eclipse.jgit.internal.storage.pack",source_file="DeltaEncoder.java",start_line="286",end_column="-1",extra="Block 73:\n[preds: 72 ] [succs: 74 ]\nb43 = $b27;\n",class_name="org.eclipse.jgit.internal.storage.pack.DeltaEncoder",method_name="<org.eclipse.jgit.internal.storage.pack.DeltaEncoder: int encodeCopy(int,long,int)>",type="block",start_column="-1",end_line="286"];
    104492 [idx="98950",label="==\n[line: 286]",type="control",extra="Block 74:\n[preds: 73 ] [succs: 75 80 ]\nif $b27 == 0 goto $r1 = r0.<org.eclipse.jgit.internal.storage.pack.DeltaEncoder: byte[] buf>;\n",package_name="org.eclipse.jgit.internal.storage.pack",class_name="org.eclipse.jgit.internal.storage.pack.DeltaEncoder",end_column="-1",source_file="DeltaEncoder.java",method_name="<org.eclipse.jgit.internal.storage.pack.DeltaEncoder: int encodeCopy(int,long,int)>",start_line="286",start_column="-1",end_line="286"];
    104453 [idx="98989",label="+\n[line: 274]",end_line="274",extra="Block 48:\n[preds: 47 ] [succs: 49 ]\ni36 = i36 + 1;\n",package_name="org.eclipse.jgit.internal.storage.pack",source_file="DeltaEncoder.java",start_line="274",end_column="-1",class_name="org.eclipse.jgit.internal.storage.pack.DeltaEncoder",method_name="<org.eclipse.jgit.internal.storage.pack.DeltaEncoder: int encodeCopy(int,long,int)>",type="block",start_column="-1"];
    104494 [idx="98948",label="|\n[line: 287]",start_column="-1",end_column="-1",package_name="org.eclipse.jgit.internal.storage.pack",method_name="<org.eclipse.jgit.internal.storage.pack.DeltaEncoder: int encodeCopy(int,long,int)>",start_line="287",end_line="287",extra="Block 75:\n[preds: 74 ] [succs: 76 ]\ns35 = s35 | 64;\n",class_name="org.eclipse.jgit.internal.storage.pack.DeltaEncoder",source_file="DeltaEncoder.java",type="block"];
    104496 [idx="98971",label="org.eclipse.jgit.internal.storage.pack.DeltaEncoder.buf\n[line: 288]",package_name="org.eclipse.jgit.internal.storage.pack",class_name="org.eclipse.jgit.internal.storage.pack.DeltaEncoder",source_file="DeltaEncoder.java",method_name="<org.eclipse.jgit.internal.storage.pack.DeltaEncoder: int encodeCopy(int,long,int)>",start_column="-1",extra="Block 76:\n[preds: 75 ] [succs: 77 ]\n$r2 = r0.<org.eclipse.jgit.internal.storage.pack.DeltaEncoder: byte[] buf>;\n",type="block",start_line="288",end_line="288",end_column="-1"];
    104492 -> 104500 [label=""];
    104492 -> 104494 [label=""];
    104454 -> 104453 [label="int:2"];
    104497 -> 104500 [label="int:1"];
    104453 -> 104497 [label="int:0"];
    104491 -> 104500 [label="byte:2"];
    104490 -> 104491 [label="byte:0"];
    104496 -> 104500 [label="byte[]:0"];
}

