digraph {
    98131 [idx="92750",label="array index\n[line: 451]",package_name="org.eclipse.jgit.internal.storage.pack",type="block",start_line="451",end_line="451",end_column="-1",extra="Block 25:\n[preds: 24 ] [succs: 26 ]\n$b19 = r0[$i20];\n",class_name="org.eclipse.jgit.internal.storage.pack.DeltaIndex",source_file="DeltaIndex.java",method_name="<org.eclipse.jgit.internal.storage.pack.DeltaIndex: int hashBlock(byte[],int)>",start_column="-1"];
    98148 [idx="92794",label=">>>\n[line: 452]",type="block",start_line="452",start_column="-1",extra="Block 38:\n[preds: 37 ] [succs: 39 ]\n$i28 = i105 >>> 23;\n",package_name="org.eclipse.jgit.internal.storage.pack",class_name="org.eclipse.jgit.internal.storage.pack.DeltaIndex",method_name="<org.eclipse.jgit.internal.storage.pack.DeltaIndex: int hashBlock(byte[],int)>",end_column="-1",source_file="DeltaIndex.java",end_line="452"];
    98140 [idx="92737",label="const '8'\n[line: 452]",end_line="452",extra="8",package_name="org.eclipse.jgit.internal.storage.pack",source_file="DeltaIndex.java",method_name="<org.eclipse.jgit.internal.storage.pack.DeltaIndex: int hashBlock(byte[],int)>",type="int",start_line="452",end_column="-1",class_name="org.eclipse.jgit.internal.storage.pack.DeltaIndex",start_column="-1"];
    98146 [idx="92796",label="|\n[line: 452]",extra="Block 36:\n[preds: 35 ] [succs: 37 ]\n$i34 = $i30 | $s29;\n",class_name="org.eclipse.jgit.internal.storage.pack.DeltaIndex",method_name="<org.eclipse.jgit.internal.storage.pack.DeltaIndex: int hashBlock(byte[],int)>",type="block",start_line="452",end_line="452",end_column="-1",package_name="org.eclipse.jgit.internal.storage.pack",source_file="DeltaIndex.java",start_column="-1"];
    98134 [idx="92747",label="|\n[line: 451]",end_line="451",method_name="<org.eclipse.jgit.internal.storage.pack.DeltaIndex: int hashBlock(byte[],int)>",extra="Block 27:\n[preds: 26 ] [succs: 28 ]\n$i24 = $i21 | $s22;\n",package_name="org.eclipse.jgit.internal.storage.pack",class_name="org.eclipse.jgit.internal.storage.pack.DeltaIndex",source_file="DeltaIndex.java",type="block",start_line="451",end_column="-1",start_column="-1"];
    98127 [idx="92755",label="<<\n[line: 451]",end_line="451",extra="Block 23:\n[preds: 22 ] [succs: 24 ]\n$i21 = i104 << 8;\n",type="block",start_column="-1",end_column="-1",package_name="org.eclipse.jgit.internal.storage.pack",class_name="org.eclipse.jgit.internal.storage.pack.DeltaIndex",source_file="DeltaIndex.java",method_name="<org.eclipse.jgit.internal.storage.pack.DeltaIndex: int hashBlock(byte[],int)>",start_line="451"];
    98139 [idx="92742",label="<<\n[line: 452]",method_name="<org.eclipse.jgit.internal.storage.pack.DeltaIndex: int hashBlock(byte[],int)>",end_line="452",package_name="org.eclipse.jgit.internal.storage.pack",source_file="DeltaIndex.java",type="block",start_line="452",start_column="-1",end_column="-1",extra="Block 32:\n[preds: 31 ] [succs: 33 ]\n$i30 = i105 << 8;\n",class_name="org.eclipse.jgit.internal.storage.pack.DeltaIndex"];
    98138 [idx="92743",label="^\n[line: 451]",package_name="org.eclipse.jgit.internal.storage.pack",method_name="<org.eclipse.jgit.internal.storage.pack.DeltaIndex: int hashBlock(byte[],int)>",type="block",start_line="451",start_column="-1",extra="Block 31:\n[preds: 30 ] [succs: 32 ]\ni105 = $i24 ^ $i25;\n",class_name="org.eclipse.jgit.internal.storage.pack.DeltaIndex",source_file="DeltaIndex.java",end_line="451",end_column="-1"];
    98149 [idx="92795",label="const '23'\n[line: 452]",start_column="-1",end_column="-1",package_name="org.eclipse.jgit.internal.storage.pack",method_name="<org.eclipse.jgit.internal.storage.pack.DeltaIndex: int hashBlock(byte[],int)>",start_line="452",class_name="org.eclipse.jgit.internal.storage.pack.DeltaIndex",source_file="DeltaIndex.java",type="int",end_line="452",extra="23"];
    98140 -> 98139 [label="int:2"];
    98131 -> 98138 [label="int:2"];
    98149 -> 98148 [label="int:2"];
    98127 -> 98134 [label="int:1"];
    98139 -> 98146 [label="int:1"];
    98134 -> 98138 [label="int:1"];
    98138 -> 98148 [label="int:1"];
    98138 -> 98139 [label="int:1"];
}

