digraph {
    61561 [idx="65169",label="return\n[line: 135]",start_line="135",start_column="-1",package_name="org.eclipse.jgit.api",class_name="org.eclipse.jgit.api.DescribeCommand",method_name="<org.eclipse.jgit.api.DescribeCommand: org.eclipse.jgit.api.DescribeCommand setTarget(java.lang.String)>",type="block",end_line="135",end_column="-1",extra="Block 14:\n[preds: 13 ] [succs: ]\nreturn $r4;\n",source_file="DescribeCommand.java"];
    61550 [idx="65159",label="new\n[line: 134]",package_name="org.eclipse.jgit.api",class_name="org.eclipse.jgit.api.DescribeCommand",start_line="134",start_column="-1",end_column="-1",extra="Block 5:\n[preds: 4 ] [succs: 6 ]\n$r5 = new org.eclipse.jgit.api.errors.RefNotFoundException;\n",source_file="DescribeCommand.java",method_name="<org.eclipse.jgit.api.DescribeCommand: org.eclipse.jgit.api.DescribeCommand setTarget(java.lang.String)>",type="block",end_line="134"];
    61553 [idx="65177",label="new-array\n[line: 134]",class_name="org.eclipse.jgit.api.DescribeCommand",source_file="DescribeCommand.java",method_name="<org.eclipse.jgit.api.DescribeCommand: org.eclipse.jgit.api.DescribeCommand setTarget(java.lang.String)>",type="block",start_column="-1",extra="Block 8:\n[preds: 7 ] [succs: 9 ]\n$r7 = newarray (java.lang.Object)[1];\n",package_name="org.eclipse.jgit.api",start_line="134",end_line="134",end_column="-1"];
    61559 [idx="65183",label="throw\n[line: 134]",extra="Block 12:\n[preds: 11 ] [succs: ]\nthrow $r5;\n",package_name="org.eclipse.jgit.api",start_line="134",start_column="-1",end_line="134",end_column="-1",method_name="<org.eclipse.jgit.api.DescribeCommand: org.eclipse.jgit.api.DescribeCommand setTarget(java.lang.String)>",type="block",class_name="org.eclipse.jgit.api.DescribeCommand",source_file="DescribeCommand.java"];
    61548 [idx="65157",label="!=\n[line: 133]",extra="Block 4:\n[preds: 3 ] [succs: 5 13 ]\nif r2 != null goto $r4 = virtualinvoke r0.<org.eclipse.jgit.api.DescribeCommand: org.eclipse.jgit.api.DescribeCommand setTarget(org.eclipse.jgit.lib.ObjectId)>(r2);\n",type="control",end_line="133",method_name="<org.eclipse.jgit.api.DescribeCommand: org.eclipse.jgit.api.DescribeCommand setTarget(java.lang.String)>",start_line="133",start_column="-1",end_column="-1",package_name="org.eclipse.jgit.api",class_name="org.eclipse.jgit.api.DescribeCommand",source_file="DescribeCommand.java"];
    61557 [idx="65181",label="call java.text.MessageFormat.format\n[line: 134]",package_name="org.eclipse.jgit.api",class_name="org.eclipse.jgit.api.DescribeCommand",start_column="-1",end_line="134",extra="Block 10:\n[preds: 9 ] [succs: 11 ]\n$r9 = staticinvoke <java.text.MessageFormat: java.lang.String format(java.lang.String,java.lang.Object[])>($r8, $r7);\n",source_file="DescribeCommand.java",method_name="<org.eclipse.jgit.api.DescribeCommand: org.eclipse.jgit.api.DescribeCommand setTarget(java.lang.String)>",type="call",start_line="134",end_column="-1"];
    61547 [idx="65154",label="call org.eclipse.jgit.lib.Repository.resolve\n[line: 132]",extra="Block 3:\n[preds: 2 ] [succs: 4 ]\nr2 = virtualinvoke $r3.<org.eclipse.jgit.lib.Repository: org.eclipse.jgit.lib.ObjectId resolve(java.lang.String)>(r1);\n",package_name="org.eclipse.jgit.api",source_file="DescribeCommand.java",method_name="<org.eclipse.jgit.api.DescribeCommand: org.eclipse.jgit.api.DescribeCommand setTarget(java.lang.String)>",type="call",end_line="132",class_name="org.eclipse.jgit.api.DescribeCommand",start_line="132",start_column="-1",end_column="-1"];
    61546 [idx="65155",label="org.eclipse.jgit.api.GitCommand.repo\n[line: 132]",end_line="132",extra="Block 2:\n[preds: 1 ] [succs: 3 ]\n$r3 = r0.<org.eclipse.jgit.api.DescribeCommand: org.eclipse.jgit.lib.Repository repo>;\n",class_name="org.eclipse.jgit.api.DescribeCommand",source_file="DescribeCommand.java",start_line="132",package_name="org.eclipse.jgit.api",method_name="<org.eclipse.jgit.api.DescribeCommand: org.eclipse.jgit.api.DescribeCommand setTarget(java.lang.String)>",type="block",start_column="-1",end_column="-1"];
    61558 [idx="65182",label="call org.eclipse.jgit.api.errors.RefNotFoundException.<init>\n[line: 134]",class_name="org.eclipse.jgit.api.DescribeCommand",start_line="134",end_line="134",package_name="org.eclipse.jgit.api",source_file="DescribeCommand.java",method_name="<org.eclipse.jgit.api.DescribeCommand: org.eclipse.jgit.api.DescribeCommand setTarget(java.lang.String)>",type="call",start_column="-1",end_column="-1",extra="Block 11:\n[preds: 10 ] [succs: 12 ]\nspecialinvoke $r5.<org.eclipse.jgit.api.errors.RefNotFoundException: void <init>(java.lang.String)>($r9);\n"];
    61548 -> 61561 [label=""];
    61548 -> 61559 [label=""];
    61548 -> 61558 [label=""];
    61547 -> 61548 [label="org.eclipse.jgit.lib.ObjectId:0"];
    61553 -> 61557 [label="java.lang.Object[]:2"];
    61550 -> 61558 [label="org.eclipse.jgit.api.errors.RefNotFoundException:1"];
    61546 -> 61547 [label="org.eclipse.jgit.lib.Repository:2"];
    61557 -> 61558 [label="java.lang.String:0"];
}

