digraph {
    18335 [idx="17261",label="const '0'\n[line: 157]",package_name="org.eclipse.jgit.patch",class_name="org.eclipse.jgit.patch.CombinedFileHeader",source_file="CombinedFileHeader.java",type="int",end_line="157",end_column="-1",start_line="157",start_column="-1",extra="0",method_name="<org.eclipse.jgit.patch.CombinedFileHeader: int parseGitHeaders(int,int)>"];
    18374 [idx="17201",label="=\n[line: 177]",source_file="CombinedFileHeader.java",type="block",start_column="-1",extra="Block 54:\n[preds: 15 21 30 39 45 53 ] [succs: 55 ]\ni15 = i1;\n",package_name="org.eclipse.jgit.patch",class_name="org.eclipse.jgit.patch.CombinedFileHeader",method_name="<org.eclipse.jgit.patch.CombinedFileHeader: int parseGitHeaders(int,int)>",start_line="177",end_line="177",end_column="-1"];
    18337 [idx="17232",label="goto\n[line: 158]",extra="Block 21:\n[preds: 20 ] [succs: 54 ]\ngoto [?= i15 = i1];\n",package_name="org.eclipse.jgit.patch",source_file="CombinedFileHeader.java",end_line="158",start_column="-1",end_column="-1",class_name="org.eclipse.jgit.patch.CombinedFileHeader",method_name="<org.eclipse.jgit.patch.CombinedFileHeader: int parseGitHeaders(int,int)>",type="block",start_line="158"];
    18327 [idx="17253",label="<\n[line: 154]",package_name="org.eclipse.jgit.patch",method_name="<org.eclipse.jgit.patch.CombinedFileHeader: int parseGitHeaders(int,int)>",type="control",start_line="154",extra="Block 13:\n[preds: 12 ] [succs: 14 16 ]\nif $i3 < 0 goto $r6 = r0.<org.eclipse.jgit.patch.CombinedFileHeader: byte[] buf>;\n",end_line="154",end_column="-1",class_name="org.eclipse.jgit.patch.CombinedFileHeader",source_file="CombinedFileHeader.java",start_column="-1"];
    18334 [idx="17260",label="<\n[line: 157]",extra="Block 19:\n[preds: 18 ] [succs: 20 22 ]\nif $i4 < 0 goto $r8 = r0.<org.eclipse.jgit.patch.CombinedFileHeader: byte[] buf>;\n",source_file="CombinedFileHeader.java",method_name="<org.eclipse.jgit.patch.CombinedFileHeader: int parseGitHeaders(int,int)>",start_line="157",end_line="157",end_column="-1",package_name="org.eclipse.jgit.patch",class_name="org.eclipse.jgit.patch.CombinedFileHeader",type="control",start_column="-1"];
    18333 [idx="17263",label="call org.eclipse.jgit.util.RawParseUtils.match\n[line: 157]",type="call",start_line="157",end_column="-1",extra="Block 18:\n[preds: 17 ] [succs: 19 ]\n$i4 = staticinvoke <org.eclipse.jgit.util.RawParseUtils: int match(byte[],int,byte[])>($r6, i15, $r5);\n",source_file="CombinedFileHeader.java",method_name="<org.eclipse.jgit.patch.CombinedFileHeader: int parseGitHeaders(int,int)>",start_column="-1",end_line="157",package_name="org.eclipse.jgit.patch",class_name="org.eclipse.jgit.patch.CombinedFileHeader"];
    18326 [idx="17252",label="call org.eclipse.jgit.util.RawParseUtils.match\n[line: 154]",extra="Block 12:\n[preds: 11 ] [succs: 13 ]\n$i3 = staticinvoke <org.eclipse.jgit.util.RawParseUtils: int match(byte[],int,byte[])>($r4, i15, $r3);\n",type="call",start_line="154",end_line="154",end_column="-1",package_name="org.eclipse.jgit.patch",class_name="org.eclipse.jgit.patch.CombinedFileHeader",source_file="CombinedFileHeader.java",method_name="<org.eclipse.jgit.patch.CombinedFileHeader: int parseGitHeaders(int,int)>",start_column="-1"];
    18325 [idx="17255",label="org.eclipse.jgit.patch.FileHeader.OLD_NAME\n[line: 154]",end_column="-1",extra="Block 11:\n[preds: 10 ] [succs: 12 ]\n$r3 = <org.eclipse.jgit.patch.CombinedFileHeader: byte[] OLD_NAME>;\n",source_file="CombinedFileHeader.java",type="block",start_line="154",start_column="-1",package_name="org.eclipse.jgit.patch",class_name="org.eclipse.jgit.patch.CombinedFileHeader",method_name="<org.eclipse.jgit.patch.CombinedFileHeader: int parseGitHeaders(int,int)>",end_line="154"];
    18332 [idx="17262",label="org.eclipse.jgit.patch.FileHeader.NEW_NAME\n[line: 157]",start_line="157",end_column="-1",package_name="org.eclipse.jgit.patch",class_name="org.eclipse.jgit.patch.CombinedFileHeader",source_file="CombinedFileHeader.java",method_name="<org.eclipse.jgit.patch.CombinedFileHeader: int parseGitHeaders(int,int)>",start_column="-1",end_line="157",extra="Block 17:\n[preds: 16 ] [succs: 18 ]\n$r5 = <org.eclipse.jgit.patch.CombinedFileHeader: byte[] NEW_NAME>;\n",type="block"];
    18327 -> 18334 [label=""];
    18334 -> 18337 [label=""];
    18374 -> 18326 [label="int:2"];
    18335 -> 18334 [label="int:1"];
    18333 -> 18334 [label="int:0"];
    18326 -> 18327 [label="int:0"];
    18325 -> 18326 [label="byte[]:3"];
    18332 -> 18333 [label="byte[]:3"];
}

