digraph {
    11977 [idx="11386",label="this\n[line: -1]",package_name="org.eclipse.jgit.lib",class_name="org.eclipse.jgit.lib.Repository",method_name="<org.eclipse.jgit.lib.Repository: org.eclipse.jgit.lib.ObjectId readCherryPickHead()>",start_line="-1",start_column="-1",end_line="-1",extra="Block 0:\n[preds: ] [succs: 1 ]\nr0 := @this: org.eclipse.jgit.lib.Repository;\n",source_file="Repository.java",type="block",end_column="-1"];
    11983 [idx="11388",label="const 'null'\n[line: 1380]",extra="null",package_name="org.eclipse.jgit.lib",class_name="org.eclipse.jgit.lib.Repository",source_file="Repository.java",method_name="<org.eclipse.jgit.lib.Repository: org.eclipse.jgit.lib.ObjectId readCherryPickHead()>",type="null_type",start_line="1380",start_column="-1",end_line="1380",end_column="-1"];
    11984 [idx="11362",label="new\n[line: 1380]",start_column="-1",end_line="1380",class_name="org.eclipse.jgit.lib.Repository",start_line="1380",extra="Block 5:\n[preds: 2 4 ] [succs: 6 ]\n$r2 = new org.eclipse.jgit.errors.NoWorkTreeException;\n",package_name="org.eclipse.jgit.lib",source_file="Repository.java",method_name="<org.eclipse.jgit.lib.Repository: org.eclipse.jgit.lib.ObjectId readCherryPickHead()>",type="block",end_column="-1"];
    11986 [idx="11360",label="throw\n[line: 1380]",class_name="org.eclipse.jgit.lib.Repository",source_file="Repository.java",end_line="1380",end_column="-1",method_name="<org.eclipse.jgit.lib.Repository: org.eclipse.jgit.lib.ObjectId readCherryPickHead()>",type="block",start_line="1380",start_column="-1",extra="Block 7:\n[preds: 6 ] [succs: ]\nthrow $r2;\n",package_name="org.eclipse.jgit.lib"];
    11979 [idx="11384",label="!=\n[line: 1379]",package_name="org.eclipse.jgit.lib",method_name="<org.eclipse.jgit.lib.Repository: org.eclipse.jgit.lib.ObjectId readCherryPickHead()>",start_line="1379",start_column="-1",end_line="1379",end_column="-1",extra="Block 2:\n[preds: 1 ] [succs: 3 5 ]\nif $z0 != 0 goto $r2 = new org.eclipse.jgit.errors.NoWorkTreeException;\n",class_name="org.eclipse.jgit.lib.Repository",source_file="Repository.java",type="control"];
    11982 [idx="11389",label="!=\n[line: 1380]",package_name="org.eclipse.jgit.lib",class_name="org.eclipse.jgit.lib.Repository",type="control",start_column="-1",end_line="1380",end_column="-1",extra="Block 4:\n[preds: 3 ] [succs: 5 8 ]\nif $r3 != null goto r1 = specialinvoke r0.<org.eclipse.jgit.lib.Repository: byte[] readGitDirectoryFile(java.lang.String)>(\"CHERRY_PICK_HEAD\");\n",source_file="Repository.java",method_name="<org.eclipse.jgit.lib.Repository: org.eclipse.jgit.lib.ObjectId readCherryPickHead()>",start_line="1380"];
    11981 [idx="11390",label="call org.eclipse.jgit.lib.Repository.getDirectory\n[line: 1380]",extra="Block 3:\n[preds: 2 ] [succs: 4 ]\n$r3 = virtualinvoke r0.<org.eclipse.jgit.lib.Repository: java.io.File getDirectory()>();\n",class_name="org.eclipse.jgit.lib.Repository",method_name="<org.eclipse.jgit.lib.Repository: org.eclipse.jgit.lib.ObjectId readCherryPickHead()>",start_line="1380",start_column="-1",end_line="1380",package_name="org.eclipse.jgit.lib",source_file="Repository.java",type="call",end_column="-1"];
    11978 [idx="11385",label="call org.eclipse.jgit.lib.Repository.isBare\n[line: 1379]",package_name="org.eclipse.jgit.lib",source_file="Repository.java",method_name="<org.eclipse.jgit.lib.Repository: org.eclipse.jgit.lib.ObjectId readCherryPickHead()>",start_column="-1",end_line="1379",extra="Block 1:\n[preds: 0 ] [succs: 2 ]\n$z0 = virtualinvoke r0.<org.eclipse.jgit.lib.Repository: boolean isBare()>();\n",class_name="org.eclipse.jgit.lib.Repository",type="call",start_line="1379",end_column="-1"];
    11985 [idx="11363",label="call org.eclipse.jgit.errors.NoWorkTreeException.<init>\n[line: 1380]",package_name="org.eclipse.jgit.lib",method_name="<org.eclipse.jgit.lib.Repository: org.eclipse.jgit.lib.ObjectId readCherryPickHead()>",start_column="-1",end_line="1380",extra="Block 6:\n[preds: 5 ] [succs: 7 ]\nspecialinvoke $r2.<org.eclipse.jgit.errors.NoWorkTreeException: void <init>()>();\n",class_name="org.eclipse.jgit.lib.Repository",source_file="Repository.java",type="call",start_line="1380",end_column="-1"];
    11979 -> 11982 [label=""];
    11982 -> 11986 [label=""];
    11979 -> 11981 [label=""];
    11982 -> 11985 [label=""];
    11983 -> 11982 [label="null_type:1"];
    11978 -> 11979 [label="boolean:0"];
    11981 -> 11982 [label="java.io.File:0"];
    11977 -> 11981 [label="org.eclipse.jgit.lib.Repository:1"];
    11984 -> 11985 [label="org.eclipse.jgit.errors.NoWorkTreeException:0"];
}

