digraph {
    98250 [idx="92895",label="array index"];
    98248 [idx="92893",label="+"];
    98251 [idx="92894",label="&"];
    98267 [idx="92879",label=">>>"];
    98253 [idx="92888",label="|"];
    98246 [idx="92883",label="<<"];
    98257 [idx="92869",label="^"];
    98268 [idx="92872",label="const '23'"];
    98254 [idx="92891",label="org.eclipse.jgit.internal.storage.pack.DeltaIndex.T"];
    98248 -> 98250 [label="int:2"];
    98250 -> 98257 [label="int:2"];
    98268 -> 98267 [label="int:2"];
    98246 -> 98253 [label="int:1"];
    98253 -> 98257 [label="int:1"];
    98257 -> 98267 [label="int:1"];
    98254 -> 98250 [label="int[]:1"];
    98251 -> 98253 [label="short:2"];
}

