digraph {
    110016 [idx="111708",label="array index\n[line: 944]",type="block",end_column="-1",extra="Block 57:\n[preds: 56 ] [succs: 58 ]\n$r7[0] = $r6;\n",class_name="org.eclipse.jgit.internal.storage.file.PackFile",method_name="<org.eclipse.jgit.internal.storage.file.PackFile: int getObjectType(org.eclipse.jgit.internal.storage.file.WindowCursor,long)>",package_name="org.eclipse.jgit.internal.storage.file",source_file="PackFile.java",start_line="944",start_column="-1",end_line="944"];
    109988 [idx="111678",label="-\n[line: 930]",start_line="930",start_column="-1",end_line="930",end_column="-1",package_name="org.eclipse.jgit.internal.storage.file",source_file="PackFile.java",type="block",extra="Block 36:\n[preds: 25 ] [succs: 37 ]\nl18 = l18 - l23;\n",class_name="org.eclipse.jgit.internal.storage.file.PackFile",method_name="<org.eclipse.jgit.internal.storage.file.PackFile: int getObjectType(org.eclipse.jgit.internal.storage.file.WindowCursor,long)>"];
    110011 [idx="111648",label="call org.eclipse.jgit.internal.JGitText.get\n[line: 944]",class_name="org.eclipse.jgit.internal.storage.file.PackFile",source_file="PackFile.java",method_name="<org.eclipse.jgit.internal.storage.file.PackFile: int getObjectType(org.eclipse.jgit.internal.storage.file.WindowCursor,long)>",end_line="944",end_column="-1",extra="Block 53:\n[preds: 52 ] [succs: 54 ]\n$r4 = staticinvoke <org.eclipse.jgit.internal.JGitText: org.eclipse.jgit.internal.JGitText get()>();\n",package_name="org.eclipse.jgit.internal.storage.file",type="call",start_line="944",start_column="-1"];
    109942 [idx="111840",label="const '255'\n[line: 908]",start_column="-1",end_line="908",end_column="-1",extra="255",package_name="org.eclipse.jgit.internal.storage.file",class_name="org.eclipse.jgit.internal.storage.file.PackFile",source_file="PackFile.java",method_name="<org.eclipse.jgit.internal.storage.file.PackFile: int getObjectType(org.eclipse.jgit.internal.storage.file.WindowCursor,long)>",type="int",start_line="908"];
    109941 [idx="111843",label="&\n[line: 908]",start_column="-1",method_name="<org.eclipse.jgit.internal.storage.file.PackFile: int getObjectType(org.eclipse.jgit.internal.storage.file.WindowCursor,long)>",type="block",start_line="908",source_file="PackFile.java",end_line="908",end_column="-1",extra="Block 6:\n[preds: 5 ] [succs: 7 ]\ns19 = $b1 & 255;\n",package_name="org.eclipse.jgit.internal.storage.file",class_name="org.eclipse.jgit.internal.storage.file.PackFile"];
    110007 [idx="111660",label="call org.eclipse.jgit.lib.ObjectId.fromRaw\n[line: 939]",extra="Block 49:\n[preds: 48 ] [succs: 50 ]\n$r3 = staticinvoke <org.eclipse.jgit.lib.ObjectId: org.eclipse.jgit.lib.ObjectId fromRaw(byte[])>(r2);\n",class_name="org.eclipse.jgit.internal.storage.file.PackFile",start_line="939",end_column="-1",package_name="org.eclipse.jgit.internal.storage.file",source_file="PackFile.java",method_name="<org.eclipse.jgit.internal.storage.file.PackFile: int getObjectType(org.eclipse.jgit.internal.storage.file.WindowCursor,long)>",type="call",start_column="-1",end_line="939"];
    110015 [idx="111652",label="call java.lang.Integer.valueOf\n[line: 944]",extra="Block 56:\n[preds: 55 ] [succs: 57 ]\n$r6 = staticinvoke <java.lang.Integer: java.lang.Integer valueOf(int)>(s0);\n",package_name="org.eclipse.jgit.internal.storage.file",class_name="org.eclipse.jgit.internal.storage.file.PackFile",source_file="PackFile.java",start_line="944",end_line="944",method_name="<org.eclipse.jgit.internal.storage.file.PackFile: int getObjectType(org.eclipse.jgit.internal.storage.file.WindowCursor,long)>",type="call",start_column="-1",end_column="-1"];
    109947 [idx="111853",label="switch\n[line: 911]",source_file="PackFile.java",start_column="-1",end_column="-1",start_line="911",end_line="911",extra="Block 9:\n[preds: 8 ] [succs: 10 52 11 38 ]\ntableswitch(s0) {     case 1: goto return s0;     case 2: goto return s0;     case 3: goto return s0;     case 4: goto return s0;     case 5: goto $r5 = new java.io.IOException;     case 6: goto i20 = 1;     case 7: goto i26 = 1;     default: goto $r5 = new java.io.IOException; };\n",package_name="org.eclipse.jgit.internal.storage.file",class_name="org.eclipse.jgit.internal.storage.file.PackFile",method_name="<org.eclipse.jgit.internal.storage.file.PackFile: int getObjectType(org.eclipse.jgit.internal.storage.file.WindowCursor,long)>",type="block"];
    110012 [idx="111655",label="org.eclipse.jgit.internal.JGitText.unknownObjectType\n[line: 944]",end_line="944",end_column="-1",package_name="org.eclipse.jgit.internal.storage.file",class_name="org.eclipse.jgit.internal.storage.file.PackFile",source_file="PackFile.java",type="block",start_column="-1",extra="Block 54:\n[preds: 53 ] [succs: 55 ]\n$r8 = $r4.<org.eclipse.jgit.internal.JGitText: java.lang.String unknownObjectType>;\n",method_name="<org.eclipse.jgit.internal.storage.file.PackFile: int getObjectType(org.eclipse.jgit.internal.storage.file.WindowCursor,long)>",start_line="944"];
    109947 -> 109988 [label=""];
    109947 -> 109941 [label=""];
    109947 -> 110007 [label=""];
    109947 -> 110015 [label=""];
    109947 -> 110012 [label=""];
    110015 -> 110016 [label="java.lang.Integer:2"];
    109942 -> 109941 [label="int:2"];
    110011 -> 110012 [label="org.eclipse.jgit.internal.JGitText:1"];
}

