digraph {
    73873 [idx="78026",label="const '1'\n[line: 237]",class_name="org.eclipse.jgit.diff.RawTextComparator$5",start_line="237",end_column="-1",extra="1",package_name="org.eclipse.jgit.diff",end_line="237",source_file="RawTextComparator.java",method_name="<org.eclipse.jgit.diff.RawTextComparator$5: boolean equals(org.eclipse.jgit.diff.RawText,int,org.eclipse.jgit.diff.RawText,int)>",type="int",start_column="-1"];
    73850 [idx="77870",label=">=\n[line: 239]",extra="Block 22:\n[preds: 21 ] [succs: 23 42 ]\nif i9 >= i13 goto (branch);\n",type="control",end_line="239",package_name="org.eclipse.jgit.diff",class_name="org.eclipse.jgit.diff.RawTextComparator$5",source_file="RawTextComparator.java",method_name="<org.eclipse.jgit.diff.RawTextComparator$5: boolean equals(org.eclipse.jgit.diff.RawText,int,org.eclipse.jgit.diff.RawText,int)>",start_line="239",start_column="-1",end_column="-1"];
    73872 [idx="78027",label="+\n[line: 237]",extra="Block 40:\n[preds: 36 ] [succs: 41 ]\ni9 = i9 + 1;\n",package_name="org.eclipse.jgit.diff",method_name="<org.eclipse.jgit.diff.RawTextComparator$5: boolean equals(org.eclipse.jgit.diff.RawText,int,org.eclipse.jgit.diff.RawText,int)>",end_line="237",end_column="-1",class_name="org.eclipse.jgit.diff.RawTextComparator$5",source_file="RawTextComparator.java",type="block",start_line="237",start_column="-1"];
    73842 [idx="77862",label="+\n[line: 217]",extra="Block 15:\n[preds: 14 ] [succs: 16 ]\n$i3 = i7 + 1;\n",package_name="org.eclipse.jgit.diff",method_name="<org.eclipse.jgit.diff.RawTextComparator$5: boolean equals(org.eclipse.jgit.diff.RawText,int,org.eclipse.jgit.diff.RawText,int)>",type="block",start_column="-1",end_line="217",end_column="-1",class_name="org.eclipse.jgit.diff.RawTextComparator$5",source_file="RawTextComparator.java",start_line="217"];
    73831 [idx="77874",label="+\n[line: 212]",extra="Block 6:\n[preds: 5 ] [succs: 7 ]\ni7 = i5 + 1;\n",package_name="org.eclipse.jgit.diff",source_file="RawTextComparator.java",method_name="<org.eclipse.jgit.diff.RawTextComparator$5: boolean equals(org.eclipse.jgit.diff.RawText,int,org.eclipse.jgit.diff.RawText,int)>",start_line="212",start_column="-1",end_line="212",class_name="org.eclipse.jgit.diff.RawTextComparator$5",type="block",end_column="-1"];
    73844 [idx="77856",label="call org.eclipse.jgit.util.IntList.get\n[line: 217]",end_column="-1",extra="Block 16:\n[preds: 15 ] [succs: 17 ]\ni11 = virtualinvoke $r6.<org.eclipse.jgit.util.IntList: int get(int)>($i3);\n",class_name="org.eclipse.jgit.diff.RawTextComparator$5",source_file="RawTextComparator.java",method_name="<org.eclipse.jgit.diff.RawTextComparator$5: boolean equals(org.eclipse.jgit.diff.RawText,int,org.eclipse.jgit.diff.RawText,int)>",type="call",start_column="-1",package_name="org.eclipse.jgit.diff",start_line="217",end_line="217"];
    73836 [idx="77881",label="call org.eclipse.jgit.util.IntList.get\n[line: 215]",end_line="215",method_name="<org.eclipse.jgit.diff.RawTextComparator$5: boolean equals(org.eclipse.jgit.diff.RawText,int,org.eclipse.jgit.diff.RawText,int)>",package_name="org.eclipse.jgit.diff",class_name="org.eclipse.jgit.diff.RawTextComparator$5",source_file="RawTextComparator.java",type="call",start_line="215",start_column="-1",extra="Block 10:\n[preds: 9 ] [succs: 11 ]\ni9 = virtualinvoke $r4.<org.eclipse.jgit.util.IntList: int get(int)>(i7);\n",end_column="-1"];
    73847 [idx="77859",label="org.eclipse.jgit.diff.RawText.content\n[line: 220]",type="block",start_column="-1",end_line="220",package_name="org.eclipse.jgit.diff",source_file="RawTextComparator.java",method_name="<org.eclipse.jgit.diff.RawTextComparator$5: boolean equals(org.eclipse.jgit.diff.RawText,int,org.eclipse.jgit.diff.RawText,int)>",extra="Block 19:\n[preds: 18 ] [succs: 20 ]\n$r8 = r2.<org.eclipse.jgit.diff.RawText: byte[] content>;\n",class_name="org.eclipse.jgit.diff.RawTextComparator$5",start_line="220",end_column="-1"];
    73848 [idx="77868",label="call org.eclipse.jgit.util.RawCharUtil.trimTrailingWhitespace\n[line: 220]",extra="Block 20:\n[preds: 19 ] [succs: 21 ]\ni13 = staticinvoke <org.eclipse.jgit.util.RawCharUtil: int trimTrailingWhitespace(byte[],int,int)>($r8, i9, i11);\n",package_name="org.eclipse.jgit.diff",type="call",start_line="220",end_line="220",start_column="-1",end_column="-1",class_name="org.eclipse.jgit.diff.RawTextComparator$5",source_file="RawTextComparator.java",method_name="<org.eclipse.jgit.diff.RawTextComparator$5: boolean equals(org.eclipse.jgit.diff.RawText,int,org.eclipse.jgit.diff.RawText,int)>"];
    73873 -> 73872 [label="int:2"];
    73836 -> 73848 [label="int:2"];
    73842 -> 73844 [label="int:1"];
    73831 -> 73836 [label="int:1"];
    73836 -> 73872 [label="int:1"];
    73836 -> 73850 [label="int:0"];
    73844 -> 73848 [label="int:3"];
    73847 -> 73848 [label="byte[]:1"];
}

